1,1604.278075,1604.278075,1604.278075,1604.278075,1604.278075,1604.278075,1604.278075,1604.278075,
16,16332.440575,15841.584158,16666.666667,16551.724138,16666.666667,16107.382550,16494.845361,15841.584158,
32,21948.222479,21818.181818,22068.965517,21818.181818,21917.808219,22018.348624,22068.965517,21917.808219,
48,20003.347078,19726.027397,20454.545455,20083.682008,19780.219780,20454.545455,19726.027397,19972.260749,
64,17704.289999,17375.565611,17843.866171,17843.866171,17843.866171,17630.853994,17375.565611,17827.298050,
80,12015.186592,11892.963330,12170.385396,11970.074813,11970.074813,12170.385396,11892.963330,12072.434608,
96,8745.353144,8711.433757,8780.487805,8756.460930,8743.169399,8780.487805,8711.433757,8735.213831,
112,7308.288781,7263.294423,7358.738502,7305.936073,7358.738502,7263.294423,7299.587226,7313.887680,
128,7133.941304,7062.718411,7222.117736,7222.117736,7062.718411,7117.701576,7122.982749,7144.186047,
152,8305.689584,8166.189112,8460.111317,8211.777418,8166.189112,8460.111317,8403.980833,8286.389242,
192,9405.464342,9191.000479,9612.817089,9464.344397,9379.579873,9379.579873,9612.817089,9191.000479,
256,9114.698533,8710.445730,9293.320426,9197.604790,9194.301449,9177.820268,9293.320426,8710.445730,
384,9148.299857,8920.551340,9451.919921,8920.551340,9011.264080,9319.634334,9038.129609,9451.919921,
