1,45.461849,45.099218,45.977011,45.099218,45.378914,45.468324,45.977011,45.385779,
16,600.318453,598.279945,602.334044,599.625234,601.353044,598.279945,602.334044,600.000000,
32,1174.887970,1173.594132,1176.470588,1173.737621,1173.594132,1176.038221,1176.470588,1174.599290,
48,1701.888450,1699.716714,1705.352913,1699.716714,1705.352913,1700.519603,1701.725360,1702.127660,
64,1798.197371,1787.709497,1812.517700,1812.517700,1792.884490,1795.735129,1802.140041,1787.709497,
80,1384.381870,1373.076263,1389.612645,1388.326488,1373.076263,1389.612645,1388.246182,1382.647770,
96,1235.322005,1232.665639,1237.113402,1235.945412,1232.665639,1236.582224,1237.113402,1234.303347,
112,1037.911905,1032.638761,1041.214751,1038.158505,1032.638761,1041.214751,1036.397286,1041.150223,
128,927.220291,921.658986,935.923371,935.923371,924.543747,927.133131,926.842220,921.658986,
152,912.419647,901.524288,920.096852,914.267383,910.215977,901.524288,915.993733,920.096852,
192,984.187675,958.578109,996.763978,996.763978,986.656161,958.578109,988.875155,990.064973,
256,884.559387,878.607956,894.271076,885.190351,878.607956,894.271076,880.108180,884.619372,
384,838.929677,829.493088,848.044051,848.044051,838.391337,841.699180,829.493088,837.020729,
