2,.90090280036786705381,.00294381898586856278
3,1.43893763871249150085,.00349021902259783481
4,1.88318229706644056698,.00154817063717214499
5,2.24364520145824060970,.00155762140111746607
6,2.61485962734367259396,.00330644358592479897
7,2.94549596570355635212,.01259558172812821821
8,3.11992795699672468585,.00152526901896927420
9,3.29471852189110990350,.00565181009690777649
10,3.48716374291732408925,.00303188982314463356
11,3.63736967554683573038,.00272556280444814207
12,3.85181019754633882502,.00352001273454071162
13,4.07368229899668588550,.00380870952954843740
14,4.33365852716173402364,.00160249137173590583
15,4.21806985380529309453,.01177643485989526412
16,4.51240608687780985044,.05591009773904117432
17,4.38327992496775958419,.03077081389136052167
18,4.56790437695354259359,.00681402237605362588
19,4.59866546401262786740,.03156098892558612782
20,4.64388481762099946176,.00982943463873334834
21,4.51308695127348811008,.00199390164674079047
22,4.52168348064460860889,.01717110464960904112
23,4.55441071972388589990,.00159091672188211243
24,4.62540464751850553619,.03234303622069517291
