1,1.01116745548794230335,.00057138035440881096
2,1.34248260013524916366,.00351239706983563315
3,1.69435485698316427109,.00186281278137691232
4,2.00234307009126815879,.06914906514115216103
5,2.18685416260479625658,.03808404045729498995
6,2.21284833538840937114,.00308808879368202588
7,2.17507550746348250602,.00634896252389275467
8,2.09295870575283163217,.00674417587127136450
9,1.99923801205812497493,.05133894322082309560
10,1.94324732868732106428,.07118291152157979040
11,1.85511914557550848263,.04029215901407895361
12,1.72966752509753728005,.00887161110769883829
13,1.64993398866590909926,.04124798156387094178
14,1.59473581317646222474,.03114590104622233552
15,1.59863957697899147686,.00352512965025286768
16,1.47909379522699625161,.03507677215119652693
17,1.41829073608674348396,.02291345247370477647
18,1.35595704748290150116,.00564754497429208127
19,1.29850340214808533299,.00548909854430663758
20,1.23818131640678901614,.00787044197274814555
21,1.19867963696695886355,.00647907189030702309
22,1.13564568958098140563,.00767744015201434033
23,1.06536745447335364391,.00114297028944583973
