1,84.315800,81.472,87.769,84.683,79.312,88.343
2,47.863800,47.424,47.847,48.035,48.140,47.873
3,32.639400,32.364,32.372,32.959,32.798,32.704
4,24.810200,25.229,24.822,24.494,24.687,24.819
5,20.289000,19.906,20.235,20.181,20.529,20.594
6,17.366800,17.293,17.291,17.370,17.347,17.533
7,15.394200,15.554,15.187,15.399,15.401,15.430
8,13.903400,14.030,13.852,13.841,13.899,13.895
9,13.023200,13.075,12.989,12.988,13.131,12.933
10,12.302400,12.358,12.269,12.322,12.283,12.280
11,12.062000,12.116,12.004,12.104,11.997,12.089
12,13.447400,13.423,13.617,13.363,13.525,13.309
13,14.704000,14.574,14.532,14.810,14.804,14.800
14,15.179600,15.194,15.141,15.064,15.516,14.983
15,15.727800,15.688,15.685,15.903,15.837,15.526
16,15.961000,15.860,15.946,15.902,16.013,16.084
17,15.691200,15.757,15.813,15.704,15.518,15.664
18,15.529200,15.687,15.640,15.420,15.348,15.551
19,14.931400,14.946,14.740,15.052,15.001,14.918
20,14.739200,14.709,14.895,14.846,14.578,14.668
21,14.634200,14.869,14.561,14.549,14.528,14.664
22,14.795400,15.091,14.631,14.802,14.611,14.842
23,14.778200,14.893,14.798,14.979,14.602,14.619
