103,2.823617,2.663629,2.901671,2.897500,2.892757,2.762529
138,2.667988,2.673143,2.589214,2.892771,2.544486,2.640329
185,2.818854,2.890943,3.015786,2.629586,2.661714,2.896243
247,2.960548,2.664329,2.538186,2.673186,3.893371,3.033671
331,2.689700,2.585029,2.671414,2.801143,2.577657,2.813257
443,2.920045,2.823357,3.067457,2.914514,2.891343,2.903557
592,2.903822,2.889543,3.045914,2.631814,2.908129,3.043714
791,2.753631,2.940757,2.537914,2.675300,2.924843,2.689343
1058,2.747202,2.686400,2.964957,2.703000,2.690886,2.690771
1414,2.923777,2.938186,2.962686,2.943629,2.898186,2.876200
1890,2.879128,2.585743,2.937471,2.864214,2.936171,3.072043
2526,2.795642,2.690157,2.796514,2.683700,2.675329,3.132514
3377,2.708251,2.711686,2.799057,2.681729,2.682443,2.666343
4514,2.830983,2.900229,2.720086,2.761900,2.864329,2.908371
6034,2.846771,2.910557,2.883557,2.774600,2.749000,2.916143
8065,2.789665,2.737943,2.735971,2.801186,2.730771,2.942457
10781,2.687911,2.690786,2.704314,2.691843,2.692086,2.660529
14410,2.620834,2.604157,2.588900,2.594643,2.566357,2.750114
19261,2.592603,2.696429,2.557400,2.603900,2.569829,2.535457
25746,2.545225,2.501000,2.522857,2.525071,2.538014,2.639186
34414,2.520305,2.530243,2.515971,2.524986,2.478471,2.551857
46000,2.560788,2.636629,2.668800,2.531429,2.470814,2.496271
61486,2.518937,2.571886,2.511586,2.478071,2.541057,2.492086
82187,2.495766,2.446229,2.456143,2.495129,2.606443,2.474886
109856,2.448451,2.435400,2.446729,2.445300,2.466957,2.447871
146840,2.460651,2.455514,2.463414,2.484329,2.434543,2.465457
196275,2.459445,2.479714,2.435257,2.480014,2.464943,2.437300
262352,2.441422,2.457529,2.421171,2.464814,2.424100,2.439500
350676,2.449322,2.446371,2.465343,2.445486,2.427143,2.462271
468734,2.433308,2.447600,2.399457,2.441986,2.419071,2.458429
626538,2.442022,2.425614,2.434771,2.429543,2.467643,2.452543
837467,2.467531,2.499071,2.423643,2.399000,2.591129,2.424814
1119409,2.429571,2.449214,2.419714,2.461057,2.421186,2.396686
1496268,2.421268,2.426329,2.338900,2.415386,2.392214,2.533514
2000000,2.439231,2.381371,2.409743,2.430457,2.417686,2.556900
2673317,2.470700,2.591343,2.464714,2.425086,2.432871,2.439486
