103,6.852600,6.985513,6.149775,5.930050,7.067225,8.130437
138,6.868457,6.620913,7.390725,6.773725,6.206062,7.350862
185,7.377132,7.293387,7.243550,6.742225,7.608637,7.997863
247,7.197080,6.881150,7.858000,7.305825,6.959213,6.981212
331,7.107837,7.187100,6.943875,7.059588,6.675237,7.673387
443,7.117232,8.059450,6.600675,6.321525,7.116737,7.487775
592,7.108764,6.906250,7.169662,6.763575,7.098575,7.605762
791,7.386115,7.336100,7.287950,7.954563,6.804262,7.547700
1058,7.634037,7.590125,7.368637,7.584763,7.173387,8.453275
1414,7.474422,7.554062,7.263175,7.798325,7.694012,7.062537
1890,7.557625,7.650775,7.263800,7.796400,7.989125,7.088025
2526,7.926640,7.323425,8.200875,8.219200,7.717963,8.171737
3377,8.017557,7.118800,8.256050,8.274600,8.251663,8.186675
4514,8.118324,8.336662,6.651125,8.437712,8.770587,8.395537
6034,8.220680,8.952775,8.331788,8.775612,8.544300,6.498925
8065,8.200597,8.261862,9.367525,7.159037,8.900100,7.314463
10781,9.684137,9.443575,10.681275,9.352825,9.269863,9.673150
14410,11.066757,10.962013,12.161838,10.261025,11.836525,10.112388
19261,11.142182,10.880612,10.337212,10.530500,12.575850,11.386738
25746,11.887872,12.095100,11.778163,12.213175,12.911588,10.441337
34414,12.113857,11.373688,12.059963,12.504800,11.971062,12.659775
46000,13.749335,14.040588,12.120800,14.924638,13.587287,14.073362
61486,15.373632,16.099188,15.528237,13.657250,15.298262,16.285225
82187,23.450487,23.325612,20.677287,27.907850,25.669850,19.671837
109856,20.864759,19.391550,23.928412,18.553662,20.588750,21.861425
146840,24.846520,24.591850,25.376775,22.402350,22.686350,29.175275
196275,20.644379,20.916587,21.092987,20.852937,20.421513,19.937875
262352,21.402077,20.929475,21.573950,21.159562,22.044787,21.302612
350676,24.680002,25.110062,24.574863,24.434400,24.461975,24.818712
468734,28.915382,28.979163,29.278613,28.747175,28.978000,28.593962
626538,32.644422,32.720000,32.796188,32.882925,32.363937,32.459063
837467,36.732895,36.255762,36.171213,35.755675,37.810750,37.671075
1119409,39.845695,40.127200,40.347262,40.520713,38.588413,39.644887
1496268,41.257952,41.312925,40.813738,41.990187,40.690013,41.482900
2000000,42.845202,42.958875,42.994088,43.215500,42.862688,42.194862
2673317,44.276632,44.591700,44.928225,44.544612,43.639588,43.679038
