103,2.082389,2.070887,2.112850,2.073400,2.075087,2.079725
138,2.079002,2.087200,2.095813,2.069475,2.073825,2.068700
185,2.036935,2.082712,2.074900,1.991625,2.013438,2.022000
247,1.921750,1.871850,1.946213,1.914388,1.932163,1.944138
331,1.997192,2.078137,1.946037,1.987525,1.958787,2.015475
443,1.973597,2.067163,1.985400,1.983763,1.896213,1.935450
592,1.766825,1.778425,1.754550,1.791375,1.722200,1.787575
791,1.768117,1.715113,1.723550,1.747575,1.818800,1.835550
1058,1.821552,1.810500,1.781887,1.774150,1.943900,1.797325
1414,1.916607,1.891413,2.047250,1.917125,1.855163,1.872088
1890,1.917367,1.879363,1.902750,1.901600,1.989688,1.913438
2526,2.095609,2.063612,2.073612,2.093437,2.148975,2.098413
3377,2.055064,2.082437,2.019413,2.077425,2.045487,2.050562
4514,2.152205,2.133463,2.125412,2.146163,2.198025,2.157963
6034,2.233132,2.239025,2.203100,2.263362,2.231513,2.228662
8065,2.265232,2.343425,2.258337,2.216200,2.235387,2.272812
10781,2.320662,2.331400,2.314463,2.312925,2.337900,2.306625
14410,2.360482,2.318200,2.324925,2.352937,2.356650,2.449700
19261,2.314862,2.312950,2.323612,2.308550,2.307362,2.321838
25746,2.323334,2.333087,2.332162,2.320600,2.319500,2.311325
34414,2.315602,2.303562,2.321825,2.327088,2.320613,2.304925
46000,2.381665,2.439438,2.342925,2.338625,2.331137,2.456200
61486,2.356907,2.362475,2.352475,2.365563,2.337200,2.366825
82187,2.486560,2.461475,2.451238,2.588000,2.472250,2.459837
109856,2.472995,2.449450,2.464438,2.457575,2.510862,2.482650
146840,2.235389,2.232350,2.223137,2.229688,2.235437,2.256337
196275,2.154075,2.168075,2.156525,2.139550,2.164075,2.142150
262352,2.097652,2.095163,2.099838,2.098500,2.096575,2.098187
350676,2.069642,2.073338,2.064625,2.067137,2.071587,2.071525
468734,2.049722,2.049500,2.048338,2.048338,2.052500,2.049937
626538,2.038477,2.036850,2.038600,2.035675,2.038075,2.043188
837467,2.054612,2.151887,2.030413,2.031125,2.030137,2.029500
1119409,2.048625,2.023512,2.023613,2.154000,2.021313,2.020688
1496268,2.036762,2.033113,2.035613,2.040713,2.039212,2.035162
2000000,2.044610,2.019050,2.014863,2.018562,2.138850,2.031725
2673317,2.017337,2.024075,2.015400,2.019388,2.016063,2.011763
