#!/usr/bin/gnuplot -persist
#
#    
#    	G N U P L O T
#    	Version 4.4 patchlevel 3
#    	last modified March 2011
#    	System: Linux 3.2.0-48-generic
#    
#    	Copyright (C) 1986-1993, 1998, 2004, 2007-2010
#    	Thomas Williams, Colin Kelley and many others
#    
#    	gnuplot home:     http://www.gnuplot.info
#    	faq, bugs, etc:   type "help seeking-assistance"
#    	immediate help:   type "help"
#    	plot window:      hit 'h'
# set terminal pngcairo  font "Terminus, 9" dashed size 640, 480 
# set output 'results-280713.png'
unset clip points
set clip one
unset clip two
set bar 1.000000 front
set border 31 front linetype -1 linewidth 1.000
set xdata
set ydata
set zdata
set x2data
set y2data
set timefmt x "%d/%m/%y,%H:%M"
set timefmt y "%d/%m/%y,%H:%M"
set timefmt z "%d/%m/%y,%H:%M"
set timefmt x2 "%d/%m/%y,%H:%M"
set timefmt y2 "%d/%m/%y,%H:%M"
set timefmt cb "%d/%m/%y,%H:%M"
set boxwidth
set style fill  empty border
set style rectangle back fc  lt -3 fillstyle   solid 1.00 border lt -1
set style circle radius graph 0.02, first 0, 0 
set dummy x,y
set format x "% g"
set format y "% g"
set format x2 "% g"
set format y2 "% g"
set format z "% g"
set format cb "% g"
set angles radians
set tics back
set grid nopolar
set grid xtics nomxtics ytics nomytics noztics nomztics \
 nox2tics nomx2tics noy2tics nomy2tics nocbtics nomcbtics
set grid back   linetype 0 linecolor rgb "#808080"  linewidth 1.000,  linetype 0 linecolor rgb "#808080"  linewidth 1.000
set key title ""
set key bmargin right horizontal Right noreverse enhanced autotitles nobox
set key noinvert samplen 4 spacing 1 width 0 height 0 
set key maxcolumns 0 maxrows 0
unset label
unset arrow
set style increment default
unset style line
unset style arrow
set style histogram clustered gap 2 title  offset character 0, 0, 0
unset logscale
set offsets 0, 0, 0, 0
set pointsize 1
set pointintervalbox 1
set encoding default
unset polar
unset parametric
unset decimalsign
set view 60, 30, 1, 1
set samples 100, 100
set isosamples 10, 10
set surface
unset contour
set clabel '%8.3g'
set mapping cartesian
set datafile separator ","
unset hidden3d
set cntrparam order 4
set cntrparam linear
set cntrparam levels auto 5
set cntrparam points 5
set size ratio 0 1,1
set origin 0,0
set style data points
set style function lines
set xzeroaxis linetype -2 linewidth 1.000
set yzeroaxis linetype -2 linewidth 1.000
set zzeroaxis linetype -2 linewidth 1.000
set x2zeroaxis linetype -2 linewidth 1.000
set y2zeroaxis linetype -2 linewidth 1.000
set ticslevel 0.5
set mxtics default
set mytics default
set mztics default
set mx2tics default
set my2tics default
set mcbtics default
set xtics border in scale 1,0.5 mirror norotate  offset character 0, 0, 0
set xtics 2 norangelimit
set ytics border in scale 1,0.5 mirror norotate  offset character 0, 0, 0
set ytics 2 norangelimit
set ztics border in scale 1,0.5 nomirror norotate  offset character 0, 0, 0
set ztics autofreq  norangelimit
set nox2tics
set noy2tics
set cbtics border in scale 1,0.5 mirror norotate  offset character 0, 0, 0
set cbtics autofreq  norangelimit
set title "" 
set title  offset character 0, 0, 0 font "" norotate
set timestamp bottom 
set timestamp "" 
set timestamp  offset character 0, 0, 0 font "" norotate
set rrange [ * : * ] noreverse nowriteback  # (currently [8.98847e+307:-8.98847e+307] )
set trange [ * : * ] noreverse nowriteback  # (currently [-5.00000:5.00000] )
set urange [ * : * ] noreverse nowriteback  # (currently [-10.0000:10.0000] )
set vrange [ * : * ] noreverse nowriteback  # (currently [-10.0000:10.0000] )
set xlabel "Number of cache misses" 
set xlabel  offset character 0, 0, 0 font "" textcolor lt -1 norotate
set x2label "" 
set x2label  offset character 0, 0, 0 font "" textcolor lt -1 norotate
set xrange [ 1.00000 : 40.0000 ] noreverse nowriteback
set x2range [ * : * ] noreverse nowriteback  # (currently [1.00000:40.0000] )
set ylabel "Number of monitored cache misses" 
set ylabel  offset character 0, 0, 0 font "" textcolor lt -1 rotate by -270
set y2label "" 
set y2label  offset character 0, 0, 0 font "" textcolor lt -1 rotate by -270
set yrange [ 1.00000 : 50.0000 ] noreverse nowriteback
set y2range [ * : * ] noreverse nowriteback  # (currently [1.00000:50.0000] )
set zlabel "" 
set zlabel  offset character 0, 0, 0 font "" textcolor lt -1 norotate
set zrange [ * : * ] noreverse nowriteback  # (currently [-10.0000:10.0000] )
set cblabel "" 
set cblabel  offset character 0, 0, 0 font "" textcolor lt -1 rotate by -270
set cbrange [ * : * ] noreverse nowriteback  # (currently [8.98847e+307:-8.98847e+307] )
set zero 1e-08
set lmargin  -1
set bmargin  -1
set rmargin  -1
set tmargin  -1
set locale "fr_FR.UTF-8"
set pm3d explicit at s
set pm3d scansautomatic
set pm3d interpolate 1,1 flush begin noftriangles nohidden3d corners2color mean
set palette positive nops_allcF maxcolors 0 gamma 1.5 color model RGB 
set palette rgbformulae 7, 5, 15
set colorbox default
set colorbox vertical origin screen 0.9, 0.2, 0 size screen 0.05, 0.6, 0 front bdefault
set loadpath 
set fontpath 
set fit noerrorvariables
GNUTERM = "wxt"
plot x lc rgb "#FF7800" title "Real number of L2 cache misses", x+3 lc rgb "#FF7800" lt 2 title "Real number of L2 cache misses + 3", x+7 lc rgb "#FF7800" lt 3 title "Real number of L2 cache misses + 7", 'mutrace-rcl-cs1.csv' with linespoints lc rgb "#015C65" lt 2 pt 1 title "L2 cache misses according to mutrace-rcl (all cores monitored)", 'mutrace-rcl-cs6.csv' with linespoints lc rgb "#015C65" pt 2 lt 3 title "L2 cache misses according to mutrace-rcl (one core per die monitored)", 'lock-profiler-cs1.csv' with linespoints title "L2 cache misses according to lock-profiler (all cores monitored)" lc rgb "#95002B" pt 1, 'lock-profiler-cs6.csv' with linespoints title "L2 cache misses according to lock-profiler (one core per die monitored)" lc rgb "#95002B" pt 2
#    EOF
