1,1.00000000000000000000,.00182662745207931021
2,1.42503556187766714082,.00894124090191789984
3,1.61505894887359286725,.00021477125125116561
4,1.50850775485619635597,.00239261088742160078
5,1.53126474517022987512,.00193292451524259376
6,1.53816472850104807807,.00130485870915555339
7,1.48861639445937564606,.00585580852777088021
8,1.44961874323678184060,.00385013931720330124
9,1.44201619666303681173,.00015423138347498219
10,1.43193442337689778821,.00073686798512617621
11,1.37017842754224311458,.00036620265519577647
12,1.31573417389020225899,.00106339591204536062
13,1.29082750236693351857,.00047807611057644760
14,1.26658164667597488978,.00079445685501497780
15,1.24823056191340384901,.00045847543072206318
16,1.22569765833625908312,.00116085665753550778
17,1.20115520755680899977,.00336041893567406488
18,1.17391957814828495370,.00036946499245502409
19,1.11617925602259350582,.00017157061187886544
20,1.07412354001030238190,.00139549337285305217
21,1.04028840966091096457,.00123566392576914175
22,1.00185227055324625632,.00068526658003304473
