1,.98716844680367937825,.00066406850353491205
2,1.26959305513082240276,.00334749427825397621
3,1.44485552322664793819,.00081341285099950044
4,1.59002156473734149918,.00127736596570758218
5,1.71818676688813822211,.00285796780167172278
6,1.75938913811205497756,.00760474731482799911
7,1.85326030129736425130,.00525581781400642185
8,1.95478974985471466809,.00203777167469427170
9,2.03587301306802618906,.00881113716387347177
10,2.06588184662835214689,.00898354329501926686
11,2.04473472864983826811,.00425834972223879940
12,1.98181724351475951283,.00503719191671795539
13,1.91914110327250314423,.00755124946484130481
14,1.89884955168776371308,.00305874699485785687
15,1.82270810755222959663,.00093551583604535475
16,1.77899767601664620634,.00647451854276854495
17,1.75570244785217639775,.00052808001489257742
18,1.75655236556024821992,.00309530339699451779
19,1.72663951471188828481,.00054533074629012112
20,1.68129562809431904002,.00061402505447233065
21,1.66490720368222725614,.00030236189304925737
22,1.65257212529809399150,.00355071194320857172
