1,264.303400,258.638,267.362,274.391,258.743,262.383
2,151.226200,151.848,151.521,150.598,150.518,151.646
3,109.324600,109.865,107.951,109.442,110.223,109.142
4,85.497200,86.791,84.383,87.224,84.228,84.860
5,75.539000,76.105,75.316,76.792,76.733,72.749
6,68.370200,69.953,68.379,67.312,67.221,68.986
7,64.463800,64.710,64.074,64.236,63.582,65.717
8,62.423600,63.765,63.759,60.702,61.386,62.506
9,61.074600,61.360,63.051,60.269,60.273,60.420
10,60.020600,60.446,59.478,59.669,59.758,60.752
11,61.383600,61.305,63.669,60.778,60.117,61.049
12,63.910800,65.929,61.631,63.861,64.462,63.671
13,66.421800,67.944,66.560,66.375,66.184,65.046
14,67.773000,69.196,67.556,66.133,67.738,68.242
15,69.663000,71.449,69.107,69.441,69.004,69.314
16,71.002600,70.923,71.115,71.490,70.561,70.924
17,73.485800,73.425,72.797,72.695,72.966,75.546
18,75.137200,76.279,73.567,76.373,74.588,74.879
19,77.307400,77.197,77.578,76.040,77.680,78.042
20,77.151800,77.520,78.338,77.575,73.854,78.472
21,79.256200,80.042,79.158,79.818,77.674,79.589
22,80.726000,81.808,80.741,80.607,80.000,80.474
