1,92.165600,95.706,91.008,90.897,91.945,91.272
2,64.676000,66.629,64.944,61.154,65.487,65.166
3,57.066400,57.101,56.856,56.772,57.188,57.415
4,61.097200,61.048,62.391,59.665,60.917,61.465
5,60.189200,61.012,61.074,60.158,59.587,59.115
6,59.919200,60.162,60.126,60.470,60.133,58.705
7,61.913600,63.765,62.820,62.076,59.620,61.287
8,63.579200,65.654,63.052,63.378,63.903,61.909
9,63.914400,63.811,63.712,63.728,63.939,64.382
10,64.364400,65.066,63.530,64.493,63.995,64.738
11,67.265400,67.683,67.334,66.487,67.264,67.559
12,70.048800,70.386,69.778,69.550,69.141,71.389
13,71.400400,71.445,71.579,70.913,70.769,72.296
14,72.767200,73.344,73.430,72.817,71.429,72.816
15,73.837000,73.082,74.396,74.280,74.206,73.221
16,75.194400,76.009,74.232,76.041,73.904,75.786
17,76.730800,77.538,79.392,76.767,74.870,75.087
18,78.511000,78.175,79.140,78.837,78.846,77.557
19,82.572400,82.230,81.952,83.121,82.935,82.624
20,85.805400,83.912,87.544,86.899,84.779,85.893
21,88.596200,86.499,88.062,90.210,89.837,88.373
22,91.995200,94.034,90.975,92.095,91.225,91.647
