1,4659.090909,4545.454545,4687.500000,4545.454545,4687.500000,4687.500000,4687.500000,4687.500000,
16,18325.248802,18045.112782,18823.529412,18045.112782,18461.538462,18045.112782,18823.529412,18250.950570,
32,23452.433134,22429.906542,24000.000000,23940.149626,23188.405797,24000.000000,23703.703704,22429.906542,
48,22332.425345,20991.253644,24531.516184,22222.222222,20991.253644,24531.516184,21556.886228,22360.248447,
64,5975.743380,4558.404558,7433.217189,4558.404558,5563.604752,5570.060923,6753.429476,7433.217189,
80,1263.270774,1212.059997,1341.231698,1283.559739,1251.629726,1341.231698,1227.872711,1212.059997,
96,126.578676,87.032202,167.468149,106.033607,167.468149,123.910406,148.449017,87.032202,
112,144.921353,116.253322,179.737775,116.253322,152.089189,130.309835,146.216644,179.737775,
128,74.246657
