1,4438.485323,4347.826087,4477.611940,4347.826087,4477.611940,4477.611940,4477.611940,4411.764706,
16,17604.303264,17081.850534,18250.950570,17582.417582,17081.850534,17328.519856,17777.777778,18250.950570,
32,22529.797398,21476.510067,23300.970874,23300.970874,22695.035461,22588.235294,22588.235294,21476.510067,
48,22515.906983,22052.067381,23300.970874,22712.933754,22325.581395,22187.981510,23300.970874,22052.067381,
64,23575.051003,23021.582734,24060.150376,23703.703704,23021.582734,23386.114495,23703.703704,24060.150376,
80,23798.023668,23369.036027,24096.385542,23692.003949,24096.385542,23369.036027,23880.597015,23952.095808,
96,22625.385689,22187.981510,23076.923077,22948.207171,23076.923077,22588.235294,22325.581395,22187.981510,
112,21171.932902,20882.535736,21566.110398,21566.110398,21092.278719,21279.290690,20882.535736,21039.448967,
128,19627.286005,18851.251841,20678.513732,18925.579103,20678.513732,20306.716023,18851.251841,19374.369324,
152,18102.217831,16826.568266,19429.058372,16826.568266,18913.313978,17708.737864,17633.410673,19429.058372,
192,15990.083798,14236.282748,17582.417582,16739.319965,17582.417582,14236.282748,14788.189987,16604.208706,
256,11795.642976,11478.104917,12115.475627,11478.104917,11627.554883,11842.713955,12115.475627,11914.365498,
384,8460.250446,8058.198097,8828.939301,8436.470157,8058.198097,8662.956836,8828.939301,8314.687838,
