1,4717.261905,4687.500000,4761.904762,4687.500000,4687.500000,4761.904762,4687.500000,4761.904762,
16,18694.248436,18390.804598,19047.619048,18532.818533,18750.000000,18750.000000,19047.619048,18390.804598,
32,21710.353329,19753.086420,22641.509434,22535.211268,22429.906542,21192.052980,19753.086420,22641.509434,
48,10382.657246,301.034807,18997.361478,2296.650718,15669.205658,301.034807,18997.361478,14649.033571,
64,12.183916
