1,827.858756,817.438692,835.654596,828.729282,817.438692,831.024931,826.446281,835.654596,
16,1760.516003,1738.500543,1774.491682,1774.491682,1760.821717,1738.500543,1762.761660,1766.004415,
32,1873.550517,1856.866538,1896.109026,1873.902011,1873.170732,1867.704280,1896.109026,1856.866538,
48,1569.138087,1020.625133,1750.334265,1700.921332,1679.692056,1750.334265,1694.117647,1020.625133,
64,0.333947
