1,833.335905,831.024931,835.654596,833.333333,833.333333,831.024931,833.333333,835.654596,
16,805.706443,791.556728,820.232399,791.556728,820.232399,804.289544,800.133356,812.320190,
32,614.016956,605.907599,624.024961,622.568093,610.066090,605.907599,607.518036,624.024961,
48,433.564716,421.200421,441.338727,433.761070,437.304504,434.218858,441.338727,421.200421,
64,430.272442,427.122264,435.947505,430.889383,427.122264,429.328503,428.074556,435.947505,
80,416.918045,414.193014,419.389788,417.369529,419.389788,414.193014,416.456992,417.180900,
96,405.992825,401.186844,409.160652,409.160652,401.186844,406.446696,406.108549,407.061384,
112,404.889801,400.792041,409.656181,404.468413,403.283883,406.248489,409.656181,400.792041,
128,407.532595,404.900989,410.712758,410.712758,404.900989,407.734208,407.587063,406.727958,
152,410.126945,406.196275,412.539015,412.539015,409.769774,410.688714,406.196275,411.440946,
192,410.821820,408.838289,413.912044,411.043952,411.311054,409.003763,413.912044,408.838289,
256,396.541727,391.908718,401.094654,395.000771,397.651372,401.094654,397.053121,391.908718,
384,371.254643,366.864961,377.659104,377.659104,370.905789,369.462868,366.864961,371.380491,
