1,853.740704,849.858357,859.598854,854.700855,852.272727,859.598854,849.858357,852.272727,
16,499.328157,489.895897,507.882764,500.886987,499.739719,507.882764,498.235416,489.895897,
32,245.107528,242.393637,250.019533,250.019533,243.025670,245.637378,244.461421,242.393637,
48,148.483129,145.951370,150.826403,146.982270,148.672786,149.982814,150.826403,145.951370,
64,99.977609
