41;46;47;46;45;48;49;48;44;43;44;43;44;45;43;44;44;45;45;44;43;44;44;43;45;53;46;44;44;45;45;43;46;44;44;44;45;44;48;45;46;48;44;45;45;45;43;45;43;46;44;44;44;45;45;43;44;44;46;46;48;44;45;46;93;93;89;89;92;90;91;93;91;91;93;93;97;93;89;93;92;89;93;89;95;93;94;92;90;93;90;93;90;91;91;90;91;93;93;89;90;88;93;90;87;87;93;93;94;92;91;90;90;91;91;96;91;91;94;92;90;90;91;88;91;91;93;101
48;43;45;49;48;49;47;47;46;45;45;43;47;45;45;46;45;49;46;44;44;45;45;48;44;45;43;47;45;46;44;44;43;43;46;45;45;43;46;44;47;45;49;44;44;46;45;43;45;44;45;44;45;46;43;45;44;44;46;47;46;44;45;47;90;90;89;95;91;89;89;91;91;91;93;89;179;93;92;91;93;90;93;92;90;93;92;93;90;89;90;90;89;93;91;90;88;94;94;91;92;93;91;92;91;94;89;90;90;93;91;91;90;91;91;89;89;89;93;90;88;88;92;89;90;90;94;92
58;44;42;48;45;47;47;47;44;45;46;44;43;44;44;44;45;46;43;45;43;45;44;44;43;44;51;43;47;48;44;44;45;47;47;45;44;42;44;45;46;49;44;46;46;44;48;46;51;44;49;45;51;43;45;43;43;47;46;44;46;45;45;43;89;88;90;91;96;89;91;87;92;90;94;91;89;91;92;94;92;94;91;90;93;94;89;89;87;86;88;91;93;92;92;92;93;92;91;90;94;94;91;100;89;87;93;94;90;88;88;92;90;93;92;89;91;94;94;88;91;88;92;90;92;90;95;91
44;55;48;43;50;48;49;46;46;43;45;44;45;45;43;47;46;45;43;43;43;44;47;44;45;44;43;49;43;43;46;44;44;44;46;43;42;46;45;45;46;44;47;44;48;44;47;44;44;44;41;44;48;52;45;47;45;44;47;46;47;45;45;44;90;90;92;90;92;94;90;91;91;170;92;89;91;91;90;98;92;91;91;92;93;92;91;93;88;89;92;94;90;90;95;90;91;87;87;90;94;91;92;89;92;91;93;91;87;86;91;89;92;94;91;88;93;94;90;89;91;92;88;92;92;91;91;94
47;45;54;47;43;48;46;45;47;46;44;43;45;43;43;45;45;46;43;44;44;45;45;45;46;45;44;45;52;44;45;45;42;46;45;46;46;44;44;45;46;44;45;46;45;47;45;43;43;43;44;44;45;44;55;43;45;47;45;46;44;46;43;47;91;94;89;91;92;94;89;94;87;89;90;92;92;92;93;93;96;90;93;90;88;92;90;93;93;91;94;92;89;88;86;92;91;91;93;92;92;94;93;88;93;93;91;91;90;92;89;91;94;95;91;92;94;90;88;92;90;90;88;91;92;92;92;94
47;47;47;46;49;42;51;47;43;43;44;42;45;44;44;46;48;45;45;44;44;45;45;43;44;45;44;42;47;44;47;45;42;45;47;45;42;44;45;44;47;44;47;46;43;45;46;46;43;43;42;46;43;46;44;50;47;46;45;44;43;45;45;46;91;90;93;93;91;93;92;91;89;89;89;93;91;89;88;93;90;93;92;88;92;87;90;88;92;90;88;94;91;92;92;91;91;93;91;93;91;90;92;92;91;90;93;91;95;91;93;91;91;94;93;91;92;90;94;89;90;89;90;93;92;93;92;88
47;46;47;56;45;49;43;50;43;43;45;44;47;45;42;43;47;44;46;43;44;46;44;45;46;44;48;45;43;44;52;43;44;43;44;46;45;41;46;44;45;45;44;47;45;45;44;46;43;45;46;43;43;44;47;45;46;44;47;43;42;45;45;47;89;92;92;87;90;90;93;91;94;91;91;89;91;92;90;91;90;97;88;93;90;92;91;90;93;88;90;93;90;93;90;91;91;90;88;90;88;92;92;87;91;93;93;91;91;90;92;90;92;91;89;89;95;92;90;94;91;91;91;90;91;92;93;93
46;47;46;45;48;47;45;41;44;46;45;45;46;43;42;44;47;45;45;44;46;47;47;45;44;45;49;46;47;49;45;51;47;46;45;42;43;43;46;46;46;45;44;44;46;45;48;44;46;46;44;43;43;43;44;46;46;49;46;45;43;47;48;44;95;91;87;86;91;91;91;94;90;92;89;93;87;87;89;92;88;90;92;87;92;94;94;91;91;87;92;89;91;94;90;93;93;90;91;92;87;93;90;92;92;90;91;92;89;91;94;90;93;89;90;90;92;91;89;90;89;89;90;90;89;86;90;87
49;47;44;46;45;50;44;47;42;46;47;44;44;44;46;43;45;44;46;43;43;44;44;45;45;46;45;43;43;46;47;42;45;43;44;45;44;46;44;46;48;47;44;47;47;46;46;44;43;44;44;44;46;42;46;45;43;46;43;45;44;44;44;44;91;95;86;90;92;91;90;91;89;90;90;91;92;88;92;91;91;90;90;94;89;93;91;91;91;91;94;87;85;90;91;92;90;94;92;88;88;92;92;92;93;89;90;91;90;90;87;90;92;90;90;91;89;92;89;92;89;90;92;95;89;89;92;90
46;47;45;49;47;49;55;47;46;44;44;45;45;48;45;44;44;45;45;47;47;45;43;45;46;43;44;44;44;44;44;46;44;43;45;45;47;44;44;44;45;43;46;44;47;45;47;44;43;44;45;42;44;44;47;43;45;45;55;48;46;47;45;41;90;90;92;91;90;90;94;89;93;92;94;89;91;86;92;88;92;94;91;88;89;94;90;89;88;90;90;93;91;93;90;93;92;89;91;90;92;89;92;91;88;91;93;93;93;99;88;92;87;92;92;90;92;93;88;91;93;92;91;90;93;91;90;91
47;48;44;48;47;47;47;48;44;44;43;44;44;43;43;44;45;44;46;44;44;47;42;47;44;43;47;44;47;45;42;45;46;47;46;44;42;44;45;46;45;47;47;45;46;48;44;45;44;47;43;45;42;47;45;46;44;47;43;46;44;43;47;45;90;93;90;93;90;94;90;89;91;90;95;93;90;90;91;87;90;91;90;91;91;95;94;89;90;91;95;94;89;89;94;89;91;90;93;94;92;92;89;90;91;94;92;91;92;89;89;90;94;91;91;90;93;92;89;90;91;91;91;85;89;88;92;91
46;47;46;46;47;44;46;45;48;46;47;43;43;44;44;45;44;46;45;43;42;43;44;43;44;42;46;45;44;44;43;46;44;44;54;45;43;43;44;44;45;44;44;44;44;45;43;44;43;45;43;44;43;46;45;43;45;46;45;46;57;44;47;42;90;92;87;92;92;94;90;90;90;92;91;91;85;89;91;92;92;91;94;93;91;90;96;91;94;90;92;92;89;91;94;89;88;87;90;91;91;90;93;93;89;91;92;88;93;89;94;92;90;95;92;91;93;91;93;90;89;93;89;90;93;92;91;93
47;49;46;50;48;46;47;45;47;48;46;44;40;156;45;45;44;46;44;43;47;45;43;46;45;43;45;44;43;43;44;45;45;44;42;45;44;43;45;43;43;46;45;42;46;45;48;45;45;46;46;43;43;43;44;44;46;47;46;45;46;46;48;47;93;87;88;88;89;91;91;90;92;93;90;94;92;91;89;93;91;94;88;92;91;91;90;90;94;89;91;91;92;88;89;93;94;90;92;89;92;93;87;91;89;90;93;94;94;88;93;91;93;92;89;92;92;89;94;93;90;92;95;91;90;90;94;95
48;47;48;46;46;44;46;49;44;47;50;44;45;45;44;45;45;46;43;43;45;46;47;43;45;45;45;44;46;47;44;45;49;45;45;42;53;45;44;47;46;47;44;45;44;44;47;46;44;45;44;46;47;44;48;44;45;47;47;45;44;44;50;45;91;93;167;90;90;85;92;89;93;92;89;92;93;93;91;91;90;93;92;93;89;89;92;92;92;91;93;90;92;90;91;93;92;93;93;89;92;92;90;93;91;89;93;95;92;91;89;91;90;93;90;91;89;90;91;92;93;90;88;92;87;90;91;91
48;47;47;47;47;49;45;45;45;46;45;45;46;45;42;43;47;47;46;47;44;45;44;45;43;46;44;43;45;46;43;45;43;45;44;44;43;45;45;45;46;45;44;42;45;45;46;44;43;45;44;41;45;42;45;44;45;44;45;44;45;46;44;47;94;89;93;92;91;91;93;91;91;89;88;90;91;95;89;86;90;90;92;93;92;91;95;89;96;92;93;91;88;89;90;91;85;90;89;90;91;91;93;94;93;90;91;90;93;88;93;89;88;92;94;93;91;89;90;92;92;88;93;93;90;92;94;89
49;47;48;49;44;46;48;47;44;45;45;42;46;45;45;42;43;44;43;44;45;45;44;44;45;45;46;44;47;45;44;47;48;45;43;44;46;46;44;43;43;45;45;43;45;46;45;45;45;43;46;45;43;45;44;41;46;45;43;45;47;44;42;44;93;91;92;89;89;89;93;92;94;90;88;94;94;92;88;93;93;92;93;93;91;93;90;92;92;91;90;90;88;92;91;88;88;91;92;91;89;86;91;92;91;93;90;90;93;94;90;91;88;91;89;96;90;87;92;92;95;90;91;93;94;90;93;91
46;46;46;46;46;45;48;45;45;44;43;44;52;44;44;45;44;43;46;45;44;47;44;44;44;44;45;45;49;44;43;42;46;44;46;45;46;45;43;47;44;46;43;46;45;44;48;48;43;44;44;46;44;43;43;42;46;46;43;45;46;45;44;43;89;91;91;92;91;93;95;91;92;90;91;94;92;90;87;89;92;91;90;90;93;92;89;90;90;86;97;94;89;90;92;88;91;87;89;91;91;89;91;93;91;92;91;92;89;94;91;93;91;93;90;90;93;90;93;88;93;91;90;91;90;86;89;91
47;48;48;47;46;48;47;45;45;46;43;43;42;55;44;43;46;42;48;43;46;44;44;44;44;44;46;44;45;45;45;46;44;45;43;42;47;44;45;44;53;44;47;46;44;46;47;46;43;41;44;43;44;46;44;45;44;44;41;47;44;44;46;43;91;91;91;92;93;94;91;92;91;89;92;91;92;88;91;97;91;92;92;88;91;92;91;91;93;90;91;93;92;90;87;89;87;92;91;91;93;90;93;95;92;92;92;92;91;94;91;90;89;93;91;94;99;91;93;90;89;87;88;93;87;94;91;88
48;50;46;48;49;48;46;47;45;44;47;45;44;44;47;44;44;43;42;46;47;42;43;46;44;43;43;44;44;45;46;42;45;48;43;45;46;45;41;45;47;49;48;49;44;45;48;46;46;45;44;45;44;43;45;43;46;44;46;44;43;47;46;46;91;91;88;94;92;92;93;91;93;93;90;89;91;95;93;88;91;93;93;89;91;95;91;90;94;93;92;86;92;89;91;91;90;92;91;92;88;91;92;89;87;93;89;92;91;94;89;93;90;92;91;92;93;91;96;93;93;93;91;93;92;92;94;91
46;48;46;43;46;47;48;47;46;43;46;45;43;43;46;55;45;45;45;43;44;45;45;45;43;47;46;44;46;46;46;45;44;47;43;44;45;43;45;45;43;45;46;46;45;44;48;44;43;45;43;44;46;43;44;44;41;46;44;42;46;46;45;45;90;93;89;96;95;93;93;90;91;89;91;93;90;92;90;88;94;93;91;90;91;87;89;93;90;89;90;90;93;91;91;91;91;90;92;92;94;91;91;93;88;94;93;92;91;92;88;94;90;91;92;88;88;90;99;91;92;87;94;89;91;87;86;89
49;47;46;47;47;47;46;47;45;44;46;45;44;46;44;44;46;42;48;43;44;45;42;46;46;43;45;43;48;44;45;45;44;44;44;44;49;47;45;47;43;46;52;45;46;46;46;45;45;46;46;44;46;44;44;48;44;45;47;45;43;43;45;44;93;88;89;93;93;93;88;89;93;91;88;93;90;90;90;91;91;91;94;92;94;91;93;93;93;95;94;91;89;92;96;90;90;93;89;90;92;93;92;92;92;90;88;96;91;92;92;90;91;89;91;92;92;92;88;98;90;89;92;90;91;91;90;92
45;137;45;45;47;47;46;45;44;45;45;45;46;44;43;44;43;55;44;45;44;44;44;43;49;43;44;46;43;46;47;44;44;44;44;47;45;44;43;45;44;43;45;47;44;45;44;46;46;44;43;46;46;46;45;46;46;43;47;45;43;44;45;45;86;91;92;92;91;90;91;93;91;92;94;91;92;91;92;90;90;91;93;91;94;92;92;93;93;94;93;93;88;93;90;92;87;91;90;91;95;92;93;91;92;87;91;94;89;89;92;94;93;93;89;91;90;93;89;88;91;93;93;90;92;90;93;91
47;48;47;46;48;47;46;45;49;45;44;44;43;44;46;45;42;44;50;44;43;43;42;44;46;46;43;49;46;48;46;47;43;47;48;43;45;46;44;46;45;46;45;46;49;47;47;45;55;45;45;47;48;53;44;45;44;46;46;44;44;47;44;47;88;89;90;89;92;93;100;93;90;92;94;94;91;88;91;88;92;93;91;238;89;92;90;89;95;92;89;94;92;87;91;92;95;90;91;88;91;90;93;89;89;91;91;94;92;88;91;88;92;90;95;90;90;92;96;92;93;94;94;87;92;92;91;88
46;47;48;46;45;47;44;47;44;45;46;44;44;44;44;43;44;44;45;43;45;44;45;41;45;45;46;46;45;46;46;44;46;46;44;43;45;44;46;43;45;45;46;44;44;44;45;47;46;44;43;43;42;49;46;43;47;44;44;47;45;45;43;46;93;87;90;90;92;91;91;90;89;90;92;94;91;93;92;93;88;91;90;91;91;93;93;94;90;92;89;91;89;93;91;86;88;90;93;90;93;91;92;93;92;89;91;89;92;94;88;90;86;90;87;88;92;94;88;92;95;90;90;90;93;91;93;91
45;45;48;46;46;46;46;48;45;47;45;42;44;43;43;43;46;44;46;51;46;43;46;43;43;46;44;43;46;44;48;43;45;42;44;45;45;44;44;45;44;45;45;42;45;47;54;44;43;43;44;44;44;44;45;43;46;46;46;45;43;45;47;48;88;87;90;89;90;92;93;92;91;89;91;93;91;94;88;91;95;91;90;89;91;91;92;89;91;93;92;89;91;92;88;89;89;91;93;96;92;91;90;90;91;203;90;90;92;93;92;86;89;94;92;91;90;91;90;91;92;95;94;93;93;95;91;93
48;48;48;44;49;49;45;49;44;45;43;44;45;46;43;45;44;43;46;45;46;45;45;44;43;44;46;42;45;46;48;48;45;49;45;45;45;46;43;44;46;45;45;44;44;45;49;52;45;44;44;44;46;45;44;45;45;42;47;46;45;46;45;44;88;91;90;90;94;87;90;92;96;92;87;90;91;94;91;93;89;92;90;94;90;89;92;90;89;90;94;90;92;92;96;90;90;86;94;89;89;91;92;89;95;91;89;91;88;90;92;95;95;89;94;91;93;91;88;86;90;87;92;94;88;90;93;88
47;50;49;45;46;47;44;49;44;46;45;43;43;45;43;42;43;47;44;43;44;50;44;43;42;44;40;44;44;43;44;47;44;44;42;45;46;46;44;44;45;47;47;46;43;46;46;42;47;44;43;45;43;44;44;43;45;43;46;45;44;44;47;45;91;92;89;88;90;92;93;91;92;93;90;91;90;87;90;90;92;90;90;92;92;96;91;87;88;93;88;92;90;89;94;91;91;88;90;92;91;91;92;91;87;90;93;94;89;92;86;92;90;92;93;90;93;94;91;91;89;92;90;88;94;91;89;90
48;49;46;49;47;43;47;47;44;45;45;44;45;44;42;135;44;45;45;45;44;43;55;43;44;45;43;44;45;45;47;46;48;42;42;43;42;48;47;42;47;45;47;45;47;46;47;45;52;44;46;45;42;47;42;44;46;43;45;47;47;48;46;47;88;86;85;92;91;93;89;91;92;92;90;89;88;89;94;92;92;92;92;91;92;90;91;90;91;90;90;92;93;91;90;91;91;91;92;92;89;91;93;92;91;92;93;92;90;87;93;89;93;92;89;91;93;93;91;92;91;92;90;90;90;88;88;92
46;47;47;46;46;46;46;48;44;45;50;46;45;42;44;44;42;44;45;45;43;45;46;52;45;44;43;44;44;42;49;45;46;46;46;46;46;47;43;44;43;49;45;48;45;43;44;45;44;43;44;46;45;46;45;44;44;43;45;47;46;43;45;45;91;91;91;91;93;91;90;91;92;91;94;184;92;98;89;95;92;93;92;87;91;90;94;91;90;90;92;90;92;88;89;93;91;92;90;89;95;92;92;93;91;90;92;95;94;89;89;88;92;90;93;91;93;93;93;93;92;92;90;91;87;93;89;90
47;47;47;49;48;46;46;46;45;45;44;44;44;48;42;44;44;43;44;45;43;44;43;42;51;44;43;45;48;41;44;47;46;45;47;42;44;45;44;45;43;45;43;45;45;45;44;47;45;46;44;44;43;42;45;42;46;45;46;44;44;48;43;42;92;89;89;91;89;93;90;92;91;93;92;91;92;91;94;89;91;89;89;91;91;91;92;90;95;93;88;91;91;88;90;92;95;88;89;88;90;89;91;92;92;91;91;93;89;89;95;91;89;92;92;90;91;92;92;93;90;88;90;91;94;191;93;91
47;45;47;47;47;49;46;45;46;44;45;42;47;44;42;43;42;45;43;44;43;43;45;45;45;138;44;43;46;45;43;45;42;44;44;45;44;41;46;45;46;45;47;46;43;42;46;45;47;44;43;46;46;44;43;44;47;46;47;48;45;46;45;45;90;92;89;86;85;93;92;88;90;91;93;91;96;96;88;91;91;89;93;95;90;92;91;92;90;90;91;92;91;92;91;92;89;93;91;93;91;94;94;93;92;91;90;91;89;91;91;94;85;92;91;93;89;88;89;94;89;91;93;92;91;91;90;90
47;47;47;45;45;48;49;46;44;42;45;46;43;44;45;45;43;45;45;43;42;45;42;44;43;45;45;43;45;45;46;44;45;45;44;43;47;45;45;44;43;48;44;44;47;47;46;44;47;43;45;46;50;45;44;43;48;47;44;48;45;45;45;43;94;93;89;92;95;91;92;88;89;91;91;93;96;95;91;92;92;93;92;90;92;88;93;90;92;93;93;94;91;88;90;91;87;92;90;94;91;93;94;96;92;88;90;91;90;92;93;89;87;93;95;90;91;94;93;89;91;92;92;93;91;92;89;90
54;50;48;47;47;49;45;49;47;45;43;47;45;45;45;46;44;44;44;43;45;45;43;45;44;45;48;42;44;45;41;44;43;45;44;45;46;44;44;44;44;45;42;44;45;44;46;47;44;45;44;44;43;44;43;43;46;44;45;46;44;44;44;42;91;89;92;93;90;92;90;92;89;93;91;91;92;94;91;89;92;91;93;93;92;89;91;92;88;92;95;90;93;94;88;90;86;90;86;92;94;88;92;93;97;93;89;91;92;90;95;93;90;90;90;94;92;90;93;92;87;89;92;90;91;92;92;89
46;50;47;48;47;45;46;45;45;45;44;45;44;46;44;44;44;44;45;46;43;46;44;47;44;43;44;44;46;46;42;44;45;44;43;44;44;44;44;45;45;47;46;47;47;46;45;47;45;43;45;46;44;45;43;46;47;44;56;46;43;49;46;47;93;89;91;88;91;90;92;92;89;91;91;91;90;94;95;90;93;95;91;93;94;91;93;87;90;93;91;93;91;90;93;91;92;90;91;90;89;93;91;91;91;194;94;87;92;89;94;90;92;92;89;93;93;93;91;90;90;91;90;90;90;93;91;178
45;49;53;50;45;47;46;46;43;43;45;46;45;44;44;46;44;44;44;44;48;46;45;47;43;46;43;43;44;45;48;45;43;47;44;45;45;45;44;45;46;46;46;45;44;42;48;44;45;46;42;46;44;43;51;45;44;45;48;47;44;47;47;43;89;91;93;91;92;92;90;89;93;94;92;88;92;91;92;94;94;87;92;93;93;93;89;91;90;90;91;91;91;93;93;89;93;94;88;91;90;90;91;88;92;90;92;89;92;91;92;90;92;93;93;92;94;90;91;94;91;93;90;93;92;91;92;88
48;48;47;47;46;46;47;46;45;45;46;45;42;46;44;45;45;47;43;44;46;43;42;45;43;45;44;44;45;45;45;46;43;48;43;42;44;46;45;45;44;45;44;44;45;46;46;45;43;43;43;44;44;45;43;54;43;46;47;46;44;44;45;42;93;89;89;93;89;90;94;96;90;91;92;92;92;91;92;91;92;91;88;90;179;179;90;92;88;90;90;92;95;91;91;91;93;91;88;84;88;91;92;93;93;92;95;95;90;92;89;92;89;93;88;91;90;92;90;95;91;90;89;90;91;91;94;88
46;46;48;48;57;46;47;46;45;43;45;46;43;45;45;45;45;47;43;46;44;45;44;45;46;42;43;44;45;47;51;43;44;45;45;43;43;44;43;43;48;46;45;44;43;47;46;45;45;46;42;44;43;45;45;42;46;48;48;47;44;44;47;48;90;92;89;93;88;166;91;94;90;90;91;92;93;91;93;92;92;90;94;90;89;91;93;87;90;90;94;91;91;93;92;89;92;89;91;89;91;91;92;91;87;92;90;90;91;91;93;91;89;92;92;91;87;90;94;96;90;90;93;93;94;91;92;91
47;48;46;48;48;48;46;48;45;45;50;45;46;45;43;43;45;45;44;46;44;46;42;47;46;45;42;42;47;44;44;47;44;45;46;47;48;42;46;45;43;47;46;44;45;44;46;44;45;44;47;45;42;45;45;43;45;43;45;45;45;46;46;43;90;93;92;88;92;92;92;90;93;88;91;91;91;93;89;93;91;95;91;90;86;94;90;92;93;91;90;91;95;91;89;89;92;92;92;94;92;90;92;91;91;89;93;90;90;90;91;92;90;89;88;90;89;94;90;92;94;92;88;91;90;192;91;88
46;48;45;49;47;54;46;48;47;43;44;44;44;46;45;43;45;44;48;44;45;43;44;44;45;44;45;42;45;43;47;52;44;45;44;45;44;45;41;43;45;50;42;44;46;45;46;47;44;44;48;45;45;43;44;42;45;43;51;46;44;46;49;45;89;92;89;91;92;95;91;93;93;87;93;205;90;92;91;92;88;91;93;97;90;90;91;91;95;90;93;88;93;92;95;91;90;91;89;90;90;90;90;90;92;93;92;94;90;92;95;93;93;94;92;91;88;92;89;193;90;90;91;91;91;90;91;92
46;47;47;48;47;49;50;45;43;45;45;46;44;46;44;44;46;47;44;43;47;45;44;46;44;45;45;45;42;44;45;45;45;47;42;47;44;45;46;42;47;47;45;47;44;45;44;46;45;43;44;47;45;43;45;43;47;43;44;50;45;46;46;44;93;88;91;92;89;88;90;91;90;88;92;93;88;92;91;91;91;89;95;91;186;91;91;93;94;91;92;91;86;89;91;95;86;90;88;90;91;89;92;93;91;87;88;192;93;88;91;91;92;88;88;96;93;94;89;88;91;93;90;90;91;94;94;92
47;47;46;47;49;46;47;49;45;44;44;45;45;43;43;45;45;44;43;45;44;44;44;44;44;44;44;44;44;43;46;49;45;44;46;44;46;44;44;45;44;46;44;43;45;43;43;45;45;45;44;45;43;43;44;43;47;44;47;45;45;46;46;45;89;90;90;94;90;91;92;91;91;91;91;91;193;92;93;91;93;89;89;93;90;96;87;92;93;90;89;92;90;94;92;93;92;88;91;90;92;203;92;87;89;90;92;90;91;90;92;91;92;92;88;92;93;94;90;90;91;92;91;91;91;90;90;93
46;46;46;46;46;46;47;46;50;45;46;44;44;44;44;42;48;44;43;41;46;43;44;45;47;43;46;44;44;45;44;45;43;43;47;45;44;43;44;45;44;43;43;46;47;42;45;44;46;45;45;44;45;45;45;47;46;47;47;46;46;46;46;48;94;89;90;89;91;88;94;94;91;91;91;89;90;92;91;90;92;94;93;89;95;92;91;91;94;91;90;89;86;91;89;89;89;91;92;92;93;88;92;90;89;92;91;94;93;92;91;90;91;90;89;93;93;93;90;91;88;92;94;89;89;91;91;91
46;47;47;47;47;50;49;45;46;48;46;42;46;46;45;46;44;45;43;42;46;42;42;44;44;44;45;43;42;44;45;44;48;44;45;44;45;44;45;44;44;47;41;44;44;45;46;44;46;44;44;44;45;45;43;46;46;45;44;45;43;51;44;42;94;92;95;88;89;94;88;91;93;90;90;92;94;87;90;89;86;90;89;93;91;91;91;91;92;94;92;87;91;88;93;92;87;92;91;93;89;90;90;91;87;91;91;94;91;92;91;91;100;89;88;92;93;94;92;91;93;88;90;90;92;90;91;92
48;48;46;46;46;45;44;46;45;45;52;43;44;45;44;43;46;44;44;43;45;45;43;44;42;45;44;45;43;44;44;43;46;45;42;45;50;44;46;46;43;44;45;44;45;44;42;44;46;49;44;43;48;45;43;42;47;44;46;45;47;47;45;45;89;88;88;91;90;90;90;91;93;91;164;89;91;88;90;90;93;94;91;90;90;93;91;86;94;89;184;95;89;88;92;93;92;92;93;92;91;90;90;89;90;93;91;88;94;91;92;90;90;92;90;92;90;92;89;89;91;95;91;92;89;91;92;90
47;46;46;48;46;48;45;48;45;46;46;44;43;45;46;45;45;46;45;44;44;45;46;43;45;48;45;43;44;43;45;42;47;44;45;43;43;47;45;43;46;46;46;46;42;45;45;43;48;44;45;45;45;44;44;45;46;137;45;45;45;44;45;53;89;89;91;93;89;92;91;92;91;93;90;88;92;92;92;91;92;90;90;92;90;89;94;90;94;94;91;92;92;93;90;89;90;94;90;92;89;89;86;88;90;88;89;92;94;92;91;93;92;89;92;88;90;94;95;95;89;89;91;90;91;88;87;89
48;48;49;47;48;47;46;45;48;43;46;43;54;43;45;45;43;46;46;46;44;44;45;46;45;43;44;42;45;44;45;44;44;44;44;42;43;43;50;44;45;46;45;48;43;41;43;43;45;44;46;45;44;43;45;45;44;45;45;46;46;45;44;47;91;91;89;89;89;90;88;88;91;89;93;92;92;93;88;88;92;92;90;93;91;90;91;95;91;88;88;91;92;90;92;93;90;89;90;90;91;90;94;90;91;90;89;89;94;94;92;90;91;90;90;89;91;92;91;91;92;90;90;86;92;94;92;95
48;47;48;47;47;45;46;48;44;44;46;43;46;45;46;43;42;44;44;44;45;45;45;44;44;45;43;44;45;46;44;50;46;44;44;46;45;49;46;46;44;47;45;46;44;45;45;46;45;44;46;43;43;43;48;44;43;44;44;43;46;44;47;47;89;93;95;93;92;93;92;91;92;91;93;93;92;93;90;90;91;91;93;91;90;92;87;89;88;90;98;90;95;94;90;89;91;90;90;95;96;91;91;90;89;89;89;92;92;94;94;91;92;93;89;91;91;90;93;92;90;93;90;90;91;94;89;90
48;48;49;50;47;49;47;48;45;45;44;46;45;44;45;42;46;43;43;43;44;43;46;45;44;43;42;44;45;41;47;49;44;42;42;44;48;46;46;48;44;46;44;47;44;47;45;42;47;43;45;45;46;44;47;45;46;45;46;46;45;42;45;47;91;91;94;90;90;91;91;93;91;89;94;90;92;89;91;91;92;94;94;93;89;92;88;94;93;89;89;94;94;94;92;91;93;94;91;90;91;90;90;87;89;92;91;93;91;91;92;94;91;93;93;93;94;99;92;89;92;90;89;89;93;91;94;94
45;48;47;47;44;49;44;48;44;44;45;43;45;43;51;43;45;46;44;45;44;42;46;43;47;44;44;46;44;43;45;43;42;42;44;46;45;44;45;45;56;46;45;44;43;44;45;45;42;44;43;46;45;44;46;45;46;46;46;45;45;43;43;44;93;92;93;96;92;89;88;86;87;91;89;93;93;94;90;90;91;91;189;89;92;87;92;91;90;90;92;90;90;90;92;93;90;90;91;92;89;89;91;95;87;90;89;89;91;89;92;88;89;89;91;90;94;93;91;89;90;94;90;90;91;91;90;93
47;48;48;43;46;48;45;47;44;44;46;45;45;45;44;48;46;44;46;44;44;43;47;44;42;48;44;45;43;46;44;43;45;46;47;43;46;46;49;43;47;47;45;43;44;46;44;43;43;41;46;46;44;44;45;44;44;47;44;42;43;49;43;45;92;91;92;92;96;90;94;91;92;94;92;90;91;94;90;89;90;92;93;92;94;89;92;89;90;93;92;90;91;93;88;92;88;90;91;91;91;90;89;91;91;90;92;95;92;90;93;93;90;89;91;92;92;91;84;174;88;94;92;90;90;88;92;89
45;45;49;48;46;49;49;52;45;42;45;43;45;44;44;43;48;47;43;46;46;44;44;45;44;44;44;46;44;45;44;44;45;42;45;46;44;43;43;44;44;43;46;46;44;45;48;45;44;43;45;45;44;42;43;44;44;44;46;46;44;46;43;44;90;91;91;92;93;91;91;92;88;90;92;92;91;92;91;92;93;94;95;90;89;91;90;91;90;90;96;91;89;94;98;90;94;93;89;93;91;88;92;93;92;88;91;90;91;90;92;87;93;91;91;92;93;88;87;90;89;91;91;88;92;93;94;90
48;50;48;45;45;46;45;47;44;45;47;43;44;45;46;44;45;54;43;47;44;43;44;43;44;43;43;44;47;45;44;43;48;45;47;44;49;43;44;43;46;45;44;50;46;47;46;44;43;45;47;43;45;45;46;46;45;44;45;43;46;46;46;47;92;94;92;90;92;89;91;89;91;86;92;89;94;88;92;95;91;88;89;91;89;90;92;93;91;92;89;93;88;93;90;91;91;93;91;89;90;91;90;90;93;91;93;91;91;92;91;90;90;92;88;88;94;96;91;89;92;92;89;87;91;91;92;92
47;47;47;45;49;46;47;46;43;44;47;44;49;45;43;44;45;44;45;46;44;45;43;44;46;45;42;45;45;45;45;44;44;44;43;47;45;45;46;45;45;44;45;47;46;43;46;43;44;45;45;45;41;43;44;42;45;43;44;44;45;42;44;44;91;87;92;93;92;94;91;91;91;93;93;90;93;91;92;89;91;93;93;90;91;93;90;85;94;90;89;89;93;90;91;93;100;89;93;92;89;90;90;91;88;94;91;92;91;90;91;90;92;92;92;90;90;91;95;93;89;94;87;92;91;90;91;92
49;47;48;46;49;47;46;47;43;44;48;46;44;44;44;45;45;43;43;46;45;44;45;45;44;46;44;43;43;45;46;46;48;44;44;44;48;45;45;43;46;44;44;46;45;46;44;44;45;43;44;44;46;43;44;44;42;45;46;44;45;44;43;46;89;92;95;89;91;92;93;95;91;92;92;90;93;92;88;90;94;91;90;90;87;90;92;89;92;91;91;94;91;88;92;88;90;92;92;93;93;90;90;94;89;85;89;87;92;92;91;89;93;93;94;89;90;90;91;92;91;93;96;88;92;92;90;91
48;49;48;49;48;45;47;45;42;44;45;43;45;43;46;43;46;45;44;45;51;43;44;41;45;45;46;46;44;48;44;42;44;46;45;45;44;45;44;45;43;44;44;44;44;46;56;45;44;44;44;49;45;44;42;45;44;45;44;45;45;45;44;46;90;91;91;92;91;92;92;89;91;92;88;89;88;91;89;91;91;94;90;93;93;88;91;92;92;90;90;93;88;89;92;91;91;94;89;92;89;90;233;88;91;88;93;91;90;92;93;92;92;91;90;187;91;92;90;95;90;93;91;89;91;90;88;91
47;45;48;44;48;46;47;48;44;47;47;45;45;45;45;43;45;46;48;44;44;50;47;44;43;46;44;46;46;46;45;46;45;44;45;47;45;43;44;48;44;42;43;43;43;46;47;52;45;45;43;43;46;45;44;41;46;45;45;44;47;47;44;46;91;91;92;94;91;92;88;90;88;94;91;91;93;92;93;92;89;87;92;90;92;90;91;93;90;88;93;89;89;89;88;95;90;92;90;100;92;89;93;92;91;88;88;169;89;91;94;95;89;94;93;88;89;89;92;89;94;90;89;89;93;94;91;94
46;44;45;48;45;48;47;48;46;45;45;46;45;44;42;44;45;43;43;45;46;45;49;46;46;47;48;42;46;46;45;42;43;43;45;44;45;45;43;43;45;44;46;46;44;43;45;42;47;46;44;43;44;44;43;44;41;45;44;44;51;44;46;46;93;92;92;87;92;89;93;92;89;89;93;95;93;93;88;92;91;88;92;93;93;92;93;92;88;90;89;90;90;94;90;88;94;93;89;92;90;92;89;90;92;90;87;90;90;88;92;90;89;93;91;91;90;93;92;91;91;94;95;190;91;95;94;92
48;48;47;45;47;47;47;47;45;45;43;45;48;44;42;46;46;45;44;46;46;44;46;47;46;45;45;45;43;43;44;43;44;43;44;44;45;44;46;45;46;46;45;45;45;47;45;44;44;46;47;45;44;45;46;44;46;42;46;45;47;45;44;45;91;96;88;92;92;89;91;91;91;91;92;90;91;93;88;93;88;91;89;90;93;90;93;93;89;89;92;177;90;89;90;90;88;89;94;92;88;91;93;91;90;90;91;91;90;90;89;89;90;92;90;91;92;90;89;90;91;92;93;90;91;90;94;93
46;47;47;50;47;49;47;49;44;43;47;44;45;44;43;47;44;44;46;44;45;46;43;43;50;45;45;45;43;46;43;45;47;46;44;46;43;42;45;48;46;49;44;46;47;44;44;45;45;46;46;43;45;44;44;47;46;45;44;47;43;46;45;46;90;90;91;90;93;92;92;92;89;92;91;95;92;92;91;93;92;92;90;90;92;91;93;91;88;92;94;91;92;89;91;92;89;93;90;89;90;93;94;90;89;89;90;96;90;89;91;93;94;94;90;92;93;92;91;91;90;89;93;90;89;92;94;93
46;47;48;47;47;47;49;46;47;44;47;45;47;45;44;49;43;45;45;42;46;48;43;46;42;46;45;43;46;45;48;46;45;45;43;43;44;43;46;43;47;44;45;43;44;45;45;44;45;46;45;44;44;44;44;42;44;44;47;46;44;44;46;45;93;90;92;93;91;92;91;85;94;90;89;89;92;94;91;91;91;91;92;89;88;93;92;93;92;90;90;93;91;93;92;91;90;89;92;91;94;91;93;91;90;89;90;90;86;92;90;93;91;88;89;95;91;90;86;93;91;92;93;91;92;91;91;93
55;47;48;48;46;48;45;48;46;44;45;43;44;47;43;45;46;45;45;44;44;44;44;47;45;45;52;46;46;44;43;45;45;45;44;44;43;45;46;45;44;44;43;47;45;47;46;45;47;45;44;43;49;47;44;46;44;46;46;46;43;44;43;47;91;91;90;89;94;91;88;91;89;90;92;91;93;86;88;88;89;88;91;91;91;93;93;94;90;91;87;91;90;90;91;91;93;87;94;89;94;91;92;91;89;93;92;91;92;93;89;91;92;91;92;89;89;90;93;93;90;91;93;95;91;89;92;90
46;53;48;47;49;45;48;49;46;44;44;43;44;44;45;46;43;43;46;43;44;42;44;46;44;44;44;51;50;45;43;44;46;44;45;45;46;44;45;46;44;44;42;48;45;46;45;45;47;46;47;45;43;52;44;45;47;44;45;47;45;42;44;48;89;89;94;93;92;93;89;90;93;92;88;90;91;91;89;92;91;90;91;90;94;91;92;95;91;91;93;91;90;90;90;93;89;90;86;93;88;92;91;91;91;91;91;91;90;92;93;90;93;94;93;91;93;93;89;93;86;88;89;91;92;94;91;91
47;46;48;47;47;48;46;47;44;44;45;45;43;46;43;44;47;46;45;47;47;43;45;46;44;49;44;46;45;44;44;45;44;45;45;44;43;47;43;46;44;47;42;46;44;44;45;46;45;45;43;44;43;43;45;48;47;45;44;47;44;46;42;45;91;93;91;88;90;90;92;89;183;92;92;90;93;93;89;91;101;92;89;93;87;92;92;90;89;92;94;94;92;90;88;90;91;91;92;91;91;90;94;88;91;93;95;90;89;85;89;89;92;92;91;89;92;91;88;92;91;92;93;91;94;90;94;92
44;45;48;46;48;45;46;47;44;45;44;42;46;45;45;45;42;44;43;47;41;43;45;42;43;47;43;42;46;48;43;45;43;44;43;45;48;43;44;44;49;41;43;46;47;45;46;42;44;44;45;43;44;46;45;44;44;45;47;44;47;45;44;42;91;90;92;92;91;93;90;91;89;91;91;92;92;90;87;89;92;95;91;91;92;88;90;89;95;94;91;90;89;90;93;91;93;90;94;90;93;90;91;86;93;89;100;90;90;91;93;91;91;88;92;91;89;88;88;94;93;91;89;91;91;92;93;91
91;93;89;93;95;93;98;95;93;91;100;101;94;95;94;94;96;102;92;95;95;95;87;94;98;85;103;90;94;102;104;92;91;94;92;96;93;98;88;92;98;88;95;92;90;85;101;96;89;96;93;93;93;101;91;92;94;102;84;94;93;85;93;97;46;62;66;57;62;72;59;62;67;56;65;61;73;72;61;64;72;60;65;69;62;74;63;56;71;58;61;69;60;60;62;61;66;59;62;54;50;64;69;62;61;72;62;73;60;62;68;59;61;69;72;62;74;60;65;67;63;73;63;60;73;54;59;72
91;92;96;102;96;94;100;93;97;95;97;84;100;94;88;93;92;95;88;100;93;91;93;98;92;101;102;93;95;94;104;96;94;95;92;83;93;103;85;104;93;94;93;101;92;96;98;90;95;97;113;95;95;101;95;96;95;92;86;101;98;85;95;98;62;46;63;63;70;63;59;64;61;55;56;66;62;59;63;63;65;65;63;62;50;61;69;53;62;86;60;66;65;60;68;60;63;76;58;65;63;62;75;66;61;62;63;60;73;62;62;64;72;55;69;70;58;76;67;51;61;65;60;58;61;56;62;63
97;95;95;88;97;96;94;94;103;89;87;94;98;96;94;103;84;93;99;92;99;97;92;90;102;104;93;95;96;93;93;104;92;94;95;100;92;94;110;87;89;93;90;92;104;91;91;94;96;91;91;102;94;96;90;102;94;90;98;91;95;93;90;86;74;61;46;57;62;62;68;58;62;58;50;62;59;66;65;60;58;69;73;65;64;74;62;63;58;69;74;60;59;62;63;64;75;60;63;73;56;65;64;76;73;61;61;66;62;65;76;63;58;69;63;56;69;62;64;60;62;62;65;64;60;63;55;64
93;93;85;92;94;87;104;91;93;96;100;93;96;95;98;95;90;102;95;95;91;93;86;90;83;83;100;94;91;101;93;95;99;101;91;96;96;95;92;99;103;90;94;88;91;84;95;93;90;94;96;93;103;104;93;93;92;102;94;96;98;88;84;97;71;63;61;48;63;70;61;67;73;63;68;60;63;64;60;61;73;60;63;75;59;62;75;59;56;60;57;85;59;62;72;59;58;70;61;62;74;61;61;69;62;52;63;63;59;61;65;63;61;59;52;59;62;64;69;51;66;59;64;62;70;57;64;64
89;93;101;87;92;96;88;92;92;93;86;100;88;91;97;98;94;90;98;92;93;100;100;88;89;94;84;98;90;90;93;95;93;89;98;94;92;86;100;92;97;92;100;93;96;102;91;94;92;92;84;92;98;89;97;90;90;105;101;91;96;100;91;92;59;69;61;61;45;65;67;59;71;63;63;70;62;57;67;61;56;63;66;59;62;62;63;62;59;56;60;65;63;69;56;63;62;62;63;74;49;62;66;59;68;68;63;70;62;65;73;58;65;76;61;65;75;69;62;69;58;60;65;59;74;63;63;78
83;89;102;101;90;92;96;93;92;92;100;93;89;89;90;100;93;93;87;99;91;92;95;93;92;84;101;93;103;98;93;90;95;103;88;91;91;93;85;93;99;86;101;92;93;98;95;93;94;98;93;90;94;113;90;90;99;91;95;97;90;85;98;95;52;72;63;62;75;48;54;61;63;63;58;65;60;60;63;63;62;64;63;59;67;64;64;51;60;67;51;63;83;61;66;70;60;64;62;62;70;62;62;66;58;74;72;56;59;73;64;71;63;56;64;63;66;73;64;61;77;59;63;72;64;52;63;60
83;101;93;100;99;102;93;91;99;94;93;91;101;84;93;92;93;92;89;95;84;99;94;91;95;93;89;93;110;91;92;93;99;89;96;107;88;85;94;85;86;103;91;91;95;100;89;93;97;89;89;94;93;95;101;99;84;92;94;93;90;93;92;90;64;61;60;78;64;58;43;63;62;59;68;63;58;60;62;58;68;66;58;61;63;72;62;68;71;59;66;53;64;74;59;59;74;59;65;69;60;63;62;62;68;61;71;73;63;61;67;62;62;71;65;59;64;62;55;70;64;59;59;63;60;61;64;61
90;93;83;93;91;86;101;92;91;94;104;94;87;99;93;88;92;97;85;92;94;91;93;94;91;85;103;86;94;102;100;94;95;99;93;92;94;99;91;94;92;94;103;92;94;85;102;93;94;101;91;95;85;99;93;100;92;103;94;93;100;93;97;92;57;51;58;59;58;62;54;53;67;66;75;56;64;68;62;61;76;66;62;65;60;59;65;60;73;63;53;66;62;57;73;62;61;60;63;62;58;62;60;61;62;64;63;59;60;62;58;60;60;65;65;64;64;57;61;65;61;68;49;62;73;65;60;65
81;95;93;86;91;91;92;83;101;93;93;101;101;89;93;92;92;99;93;101;91;92;99;90;96;99;89;93;96;92;93;99;91;92;92;92;95;91;100;93;93;93;102;91;94;102;87;96;92;93;84;101;91;90;94;109;91;92;100;88;96;97;99;95;65;71;61;63;76;61;61;66;44;74;62;65;72;59;63;63;56;63;66;59;76;67;61;73;60;61;66;62;59;64;74;52;59;62;53;59;62;62;59;63;51;51;65;65;64;68;63;62;64;63;67;64;57;60;51;62;81;64;62;71;61;64;73;59
89;99;86;89;94;99;90;97;93;84;102;95;89;96;90;92;95;107;91;92;93;101;93;92;103;85;92;91;95;85;95;94;91;103;94;92;95;103;91;92;100;90;92;93;100;87;91;88;88;94;88;94;90;99;83;91;102;104;90;93;96;94;94;93;61;54;62;65;55;80;72;63;64;51;62;71;57;60;72;61;60;73;71;71;60;63;77;63;64;71;61;63;69;53;52;63;63;54;60;64;61;62;61;62;69;62;59;60;67;62;59;55;64;62;54;64;72;60;63;64;63;72;73;62;62;56;59;75
90;93;91;102;88;91;99;85;92;94;95;91;100;89;91;97;88;92;92;102;92;92;92;96;94;95;102;87;95;87;95;91;104;93;88;100;92;91;91;103;95;91;91;99;102;92;95;88;91;91;91;93;91;91;83;98;97;103;102;94;91;93;96;96;66;74;54;56;70;62;78;59;56;75;48;59;61;62;58;59;62;62;61;68;65;58;57;61;77;60;63;71;59;63;65;59;72;60;65;71;63;62;74;58;60;66;58;64;70;74;72;65;60;70;65;62;75;63;56;70;59;48;72;67;62;58;64;60
90;98;83;103;91;97;92;96;95;96;102;92;94;93;103;83;93;90;92;90;95;95;83;102;94;92;103;99;93;91;90;89;104;91;101;92;92;103;87;92;89;87;87;97;94;97;98;93;92;97;100;92;96;92;98;90;94;100;91;93;93;92;87;94;62;63;70;62;55;63;74;54;59;59;56;47;56;70;75;55;61;63;57;68;70;50;63;67;57;64;70;62;65;66;56;61;56;71;69;61;62;74;59;62;70;57;73;65;65;74;61;62;70;61;59;71;60;68;71;61;62;71;71;62;73;62;55;62
91;89;99;94;93;90;101;101;96;94;92;95;95;100;94;95;99;85;93;90;101;92;105;94;95;103;94;92;94;98;94;95;98;98;95;93;101;86;93;99;91;92;97;92;92;98;94;90;88;100;94;93;104;92;93;94;98;85;95;92;92;95;97;94;61;68;65;52;62;56;56;63;63;61;62;62;44;71;62;61;68;64;57;76;64;61;68;63;70;59;62;74;64;62;72;61;64;77;57;61;64;64;73;66;65;76;62;60;56;65;67;62;65;53;64;59;62;59;65;50;61;54;66;67;62;63;63;54
91;92;94;84;97;93;88;96;96;95;93;104;90;94;98;98;90;90;99;82;94;100;95;94;98;93;88;106;91;95;93;98;92;93;99;94;95;95;104;92;97;96;95;95;88;95;94;102;93;96;102;91;93;91;101;95;96;95;95;101;90;102;93;96;62;57;64;67;56;62;59;61;76;71;60;62;71;46;76;61;62;71;60;63;64;72;70;62;63;71;63;63;73;61;62;71;55;57;69;59;56;66;63;61;60;60;51;57;64;53;61;73;59;57;65;55;64;63;61;58;60;60;63;55;72;68;57;65
92;85;91;95;94;88;95;93;92;108;94;93;92;102;91;92;93;102;93;93;92;94;93;94;96;86;104;94;93;100;95;91;92;103;100;93;94;97;93;95;105;88;93;90;97;84;92;99;89;105;96;93;102;104;95;93;95;91;94;95;100;86;96;92;60;63;63;59;60;63;52;59;63;62;68;75;69;62;48;63;75;59;62;77;53;61;77;58;65;74;62;63;75;60;61;71;60;64;73;70;63;66;61;63;63;62;75;65;59;70;59;63;61;62;65;64;60;67;62;65;60;66;65;61;60;73;63;61
97;96;94;100;95;92;95;91;85;97;102;85;98;93;97;94;104;93;93;101;95;91;103;103;94;92;93;102;95;96;101;91;95;92;92;104;95;94;85;106;96;93;96;102;96;89;91;101;93;88;100;84;95;100;97;94;99;93;94;101;104;92;94;97;61;66;74;63;66;68;57;60;144;71;69;61;60;77;68;50;62;62;55;64;61;64;65;61;63;57;53;62;68;60;60;62;52;53;63;61;62;70;59;61;67;64;62;63;60;76;59;61;85;60;61;74;58;72;64;62;72;60;63;64;62;73;71;61
88;105;95;92;96;100;93;93;96;99;105;94;102;92;94;95;95;89;91;87;89;106;91;103;106;104;95;95;103;94;97;92;99;87;95;93;95;91;94;93;85;101;94;99;101;93;93;98;110;91;93;103;100;93;93;102;95;98;103;84;98;100;93;95;57;63;67;64;63;62;58;60;59;59;66;60;62;61;62;73;47;63;61;61;75;64;67;85;64;61;64;61;61;63;61;76;61;61;63;63;71;73;58;59;71;60;61;72;59;50;63;63;53;67;66;60;66;63;62;59;60;55;62;65;49;59;74;62
89;94;87;102;93;93;96;96;92;97;95;93;94;94;99;92;90;103;95;93;93;93;86;95;92;91;104;93;92;92;101;93;92;97;98;91;96;102;87;93;93;91;94;94;94;87;97;81;90;103;93;89;95;104;90;95;102;101;96;97;95;85;103;95;62;63;58;64;67;68;54;62;61;57;59;74;57;62;65;58;63;49;64;66;74;56;65;69;76;64;59;63;69;60;64;73;62;61;75;57;61;74;60;65;63;59;74;62;60;73;58;61;63;60;75;70;60;51;59;65;58;69;64;57;58;61;59;85
89;94;91;101;93;94;102;99;90;87;99;94;92;95;93;96;100;93;93;105;93;91;92;101;104;94;94;94;95;93;103;91;94;88;95;88;95;104;86;102;94;93;99;99;95;95;91;96;93;87;97;81;94;94;95;95;94;94;86;105;92;93;99;96;60;72;69;57;75;61;60;72;61;61;70;73;59;67;63;59;75;61;51;56;65;59;63;60;59;72;62;59;60;52;62;74;58;62;60;49;64;71;63;64;75;60;60;73;62;60;74;60;54;62;62;68;62;62;78;61;64;75;62;66;72;61;70;80
90;94;99;93;94;100;104;92;89;101;87;93;95;94;91;94;94;90;94;90;93;92;97;87;92;103;99;94;93;104;94;98;98;93;92;94;96;85;110;95;94;105;103;90;95;104;98;90;90;100;93;94;100;92;95;94;97;93;106;93;93;94;93;100;61;73;55;62;64;60;72;60;63;72;50;62;74;61;58;65;62;61;61;48;63;62;59;54;62;70;63;64;54;67;62;64;64;73;56;63;64;65;63;70;64;63;56;63;73;60;62;74;59;62;73;72;66;77;63;60;72;59;75;61;62;67;56;59
97;92;94;93;103;91;94;103;101;102;96;94;85;102;94;96;96;100;95;94;106;101;88;89;101;95;101;94;103;93;93;102;89;95;97;94;84;101;104;86;101;99;92;98;100;94;95;98;99;93;94;108;93;93;93;93;91;99;95;86;99;92;94;92;73;68;60;159;74;63;60;71;60;64;65;62;60;62;62;70;59;62;76;65;44;76;61;66;55;61;77;63;63;60;66;60;76;74;63;64;67;55;61;62;64;69;65;65;73;61;62;77;63;58;63;63;66;59;64;61;59;65;64;63;59;63;61;55
89;99;91;93;95;92;91;101;91;89;97;95;92;93;102;92;95;92;99;90;93;100;90;92;88;93;95;101;91;91;95;94;93;90;102;91;93;95;97;92;92;88;91;89;96;92;84;101;88;90;89;95;94;94;101;95;91;94;104;91;92;90;89;93;62;66;63;60;64;62;66;61;61;64;54;55;59;62;64;67;58;65;67;62;61;46;62;63;57;60;71;59;62;75;59;64;74;56;61;72;57;54;74;58;75;69;59;73;63;61;72;62;61;75;66;56;72;62;56;78;61;54;70;61;59;70;63;53
98;98;90;92;95;91;93;102;89;92;94;98;84;90;99;92;90;92;90;88;100;92;96;93;94;89;90;103;91;90;92;98;92;90;101;92;92;95;92;84;105;96;92;98;93;92;92;97;89;93;85;98;91;91;101;83;93;90;96;91;93;93;90;96;64;74;70;63;63;76;62;60;69;59;57;64;58;50;62;60;57;59;60;65;60;59;51;71;60;53;67;64;62;69;61;68;62;63;66;67;56;62;57;64;77;61;61;75;59;64;77;61;67;71;60;67;75;74;64;71;58;60;65;65;75;60;60;73
82;93;99;99;92;91;96;97;92;97;97;88;95;88;87;92;98;91;90;97;93;94;93;103;90;81;92;102;98;94;99;86;90;88;93;93;93;91;91;100;98;94;94;100;92;94;104;97;94;91;99;83;90;89;93;82;101;95;88;99;93;94;93;101;49;63;75;63;64;70;64;75;67;61;62;56;61;65;64;73;74;59;60;72;62;64;75;47;59;74;64;60;73;63;58;76;61;62;74;62;59;69;65;56;72;66;60;73;62;63;76;64;58;68;61;61;67;61;66;63;65;55;59;63;60;57;64;62
89;92;85;108;92;92;93;100;92;92;102;92;93;88;103;98;97;96;86;93;94;95;97;98;95;91;90;98;99;93;104;92;94;93;101;94;94;96;87;88;91;101;87;96;93;93;102;96;93;91;87;93;92;95;102;86;93;93;90;93;93;94;84;105;66;64;73;64;61;76;60;57;76;60;61;75;58;57;72;72;64;61;64;63;70;60;61;77;47;62;62;61;57;69;62;65;61;62;63;59;59;60;60;56;65;58;56;60;61;55;63;71;60;65;73;66;58;72;61;60;68;64;62;68;65;61;62;60
95;93;97;90;98;83;94;93;92;93;94;95;85;106;86;90;102;98;90;87;102;92;95;93;105;88;96;94;95;96;95;91;89;100;93;93;93;103;92;87;94;94;97;94;99;87;94;100;93;92;95;93;90;101;102;94;95;101;91;94;102;91;93;90;72;60;63;72;63;60;59;63;74;63;68;75;60;62;59;59;75;67;56;63;61;65;71;65;62;47;62;50;59;70;62;61;63;61;63;63;61;60;63;62;52;51;63;67;59;63;71;63;62;74;68;61;76;59;66;83;63;62;64;61;65;57;65;74
88;91;91;98;100;92;90;92;89;91;92;86;104;93;94;92;94;95;92;102;90;91;92;103;92;94;92;90;93;94;91;83;109;92;92;100;95;92;92;98;90;95;95;97;89;89;98;95;92;90;94;85;98;84;91;101;92;92;95;101;91;97;96;99;60;64;58;59;75;63;64;74;63;65;74;63;63;75;57;62;64;69;67;73;63;61;71;60;63;74;50;76;57;64;74;59;58;76;61;63;72;60;61;69;62;49;63;72;63;60;62;58;63;65;63;63;61;61;59;51;73;74;66;63;72;63;75;58
90;94;101;87;94;103;93;93;96;92;85;102;95;95;99;96;93;94;105;95;95;93;101;94;94;91;97;96;93;95;97;103;91;93;94;104;92;94;105;97;97;94;105;93;94;96;92;88;97;94;83;96;91;95;95;105;93;96;101;90;95;96;103;97;60;69;53;65;71;67;61;74;63;63;63;64;63;62;65;62;65;63;78;61;61;72;58;64;70;57;62;51;59;71;59;69;65;64;51;67;62;53;60;61;64;60;58;61;72;62;60;63;59;66;59;65;63;64;65;65;60;56;62;63;50;64;69;63
90;93;92;83;93;99;88;104;95;92;95;100;92;91;99;89;93;92;107;86;90;101;93;94;89;95;84;101;90;86;91;103;93;92;99;92;91;90;103;95;92;92;86;92;102;93;86;107;91;91;102;92;95;94;95;88;90;92;99;90;94;91;95;95;61;65;65;56;65;64;64;60;63;70;62;64;74;59;64;71;57;65;77;61;62;62;60;68;60;61;73;56;49;62;59;63;62;63;72;62;58;72;62;60;69;61;58;69;74;56;60;62;56;64;65;62;61;63;64;54;65;64;60;63;61;64;65;65
92;92;85;97;86;90;103;94;92;92;100;92;91;99;104;97;93;96;89;101;88;92;87;98;89;93;100;95;93;88;96;92;98;100;91;91;97;102;93;91;92;205;86;90;101;84;100;92;91;100;97;90;95;99;91;92;91;111;89;93;102;92;96;92;64;57;59;63;52;60;74;63;57;59;62;59;59;63;62;56;62;62;52;72;67;56;67;62;66;64;71;61;59;48;64;60;71;61;61;58;65;70;59;63;74;59;61;69;64;72;71;61;65;62;60;72;65;61;73;67;51;63;72;59;59;60;54;61
88;86;102;92;93;95;98;95;92;99;93;94;96;105;94;91;93;90;97;96;96;83;104;94;93;105;95;94;91;100;93;96;94;102;92;93;99;97;93;97;95;87;104;88;93;102;99;94;96;103;93;92;89;98;96;95;91;89;100;96;90;86;105;93;57;73;65;58;64;64;59;84;61;57;76;62;63;74;63;57;72;60;57;61;57;53;60;61;49;57;62;65;61;65;48;62;52;76;72;57;62;68;62;65;75;63;58;71;60;62;71;67;63;59;59;74;60;64;64;60;57;64;61;74;73;59;63;71
91;90;102;103;93;87;92;94;92;95;92;91;97;93;91;103;93;91;94;97;96;91;92;100;91;93;97;91;91;94;94;84;97;96;96;101;92;93;93;103;90;90;95;99;93;93;99;82;90;93;92;94;95;94;87;100;93;93;90;97;92;177;101;91;60;62;57;61;71;58;63;86;60;62;72;64;63;64;58;76;62;63;61;63;74;73;62;65;67;63;60;64;65;52;64;51;62;61;53;63;60;58;63;69;61;63;59;63;54;59;64;62;70;55;63;60;64;62;73;51;62;64;64;69;62;62;74;61
88;91;98;86;93;92;82;87;96;95;89;102;91;94;102;103;91;97;99;94;94;101;101;87;96;92;94;94;90;93;83;92;92;90;100;99;96;94;89;92;96;92;101;89;88;92;96;95;93;93;87;99;92;92;101;94;92;92;99;102;94;94;104;85;58;69;61;64;73;64;59;62;72;68;63;63;73;62;62;73;61;61;65;58;65;69;59;75;66;59;74;64;62;71;60;59;41;61;64;58;63;54;62;62;62;64;64;54;61;55;62;74;53;68;70;54;59;73;63;62;68;60;59;70;74;68;57;61
97;94;92;93;98;87;94;93;94;96;101;91;91;99;95;91;95;104;94;89;95;92;98;93;98;90;90;101;94;96;95;95;83;100;102;89;95;103;93;91;100;96;96;90;104;86;94;94;93;93;91;93;80;96;94;94;94;99;85;95;101;89;94;93;74;60;60;70;59;68;62;61;63;64;65;74;58;63;74;58;63;76;57;55;72;60;76;61;63;74;62;60;70;62;64;67;65;49;64;73;62;58;62;61;63;60;63;63;53;64;62;62;77;75;67;65;72;62;72;59;61;67;59;60;71;62;66;75
88;92;106;102;92;92;97;85;91;93;91;83;99;93;94;101;96;93;90;96;93;88;96;100;91;91;102;87;92;95;92;84;102;88;88;102;93;91;93;101;94;93;93;101;92;91;91;85;100;93;93;91;104;93;93;102;94;91;91;90;96;102;90;102;64;67;68;63;71;62;65;67;63;59;77;59;63;73;64;76;63;58;69;63;61;70;76;63;74;63;63;68;59;59;61;60;58;54;50;60;72;61;61;59;56;60;68;55;62;59;58;62;63;58;64;71;62;64;68;62;61;70;62;55;70;60;63;64
92;92;104;96;96;99;93;96;90;89;99;103;92;93;95;105;93;95;98;94;97;92;105;96;92;94;96;90;92;94;87;104;94;91;94;101;94;95;102;94;95;98;101;95;91;96;85;95;95;94;86;101;95;93;101;98;92;87;105;96;96;96;101;89;64;66;62;60;67;60;64;60;61;69;71;63;74;61;63;68;63;72;62;62;72;57;63;77;64;66;72;66;55;66;60;54;60;69;50;46;73;61;64;53;63;62;63;63;78;54;62;68;61;71;56;66;76;60;60;73;59;64;68;57;61;59;73;71
88;94;94;99;91;94;104;95;96;94;101;101;91;97;93;96;96;93;86;103;91;91;96;98;95;96;101;93;95;96;101;92;93;97;93;91;95;92;88;104;94;92;102;101;92;94;106;92;94;94;98;87;94;89;91;97;92;93;87;103;89;94;104;106;56;60;68;55;71;57;58;63;60;57;69;61;59;70;61;57;71;60;53;59;56;49;64;60;74;63;62;63;59;63;59;65;55;60;64;54;53;80;61;63;70;59;66;73;61;64;61;62;65;60;75;78;59;61;73;57;74;62;60;60;59;56;65;63
89;95;107;91;96;101;96;94;92;102;83;93;103;96;94;93;91;89;104;90;92;91;94;91;93;94;98;95;95;99;95;97;97;93;94;90;91;98;99;94;95;92;102;92;93;100;94;94;92;103;95;93;94;93;96;94;91;85;104;90;97;92;95;97;60;75;60;67;63;57;74;62;61;69;61;64;76;60;57;59;60;62;58;61;62;58;63;59;60;60;63;60;59;59;69;65;63;57;57;56;62;49;72;58;64;62;58;64;74;62;62;160;63;60;73;65;63;73;57;60;73;63;63;70;57;56;62;57
100;98;92;91;102;95;95;92;103;98;92;97;103;94;94;95;86;105;96;93;103;97;94;101;103;102;94;94;99;96;95;102;90;96;96;96;87;96;105;88;103;94;94;105;105;94;95;97;97;93;94;102;87;95;95;94;95;100;95;92;106;96;90;97;74;59;72;60;60;70;63;59;66;64;57;65;74;53;57;61;63;59;62;59;62;61;63;51;60;65;63;53;62;69;63;62;71;61;58;68;62;61;47;75;73;60;60;74;63;73;63;62;73;64;57;72;59;62;71;62;51;69;62;54;58;61;48;58
99;89;102;93;94;100;95;91;95;98;96;93;93;110;93;97;100;88;92;96;94;84;98;95;89;96;96;93;97;100;95;94;101;96;97;97;105;87;95;102;94;94;99;93;97;104;93;94;95;92;92;91;96;95;88;95;97;92;92;97;96;91;95;96;78;72;63;66;72;63;61;75;59;60;65;61;51;62;63;57;62;63;60;56;57;63;62;52;63;62;72;62;63;60;62;74;60;69;62;62;67;54;62;49;61;59;62;59;72;62;65;74;65;60;68;61;66;65;63;49;59;62;60;65;62;51;62;54
89;95;93;86;99;94;93;102;93;95;94;104;88;95;103;103;97;92;93;95;94;93;91;85;97;92;92;102;101;95;95;95;94;94;94;102;89;91;94;104;95;94;94;85;105;95;93;91;102;94;95;97;101;94;94;105;87;95;105;92;96;95;98;86;70;69;52;61;62;57;61;62;62;60;64;64;63;64;74;59;57;61;61;62;63;74;61;63;72;60;61;72;54;63;72;62;63;71;60;62;58;52;60;62;49;75;55;62;67;58;72;65;57;62;63;58;70;70;65;71;61;62;71;59;54;63;59;49
96;93;200;101;94;94;94;102;91;94;95;102;89;96;96;95;94;93;90;86;103;97;93;93;104;96;92;111;93;96;95;99;95;94;105;87;88;94;86;88;105;93;92;94;100;91;92;101;96;95;93;93;84;101;95;92;96;97;94;87;104;93;94;88;76;58;76;60;60;72;60;60;78;60;58;60;64;51;60;62;59;68;65;61;62;65;62;61;56;62;65;64;60;72;62;64;71;63;62;70;57;65;56;62;77;51;61;69;61;62;62;64;72;65;60;69;61;61;76;62;57;75;61;60;75;60;60;63
93;87;101;95;92;97;103;93;95;102;93;91;95;92;84;93;97;89;92;96;94;87;103;93;95;101;92;91;102;100;93;91;96;102;94;88;101;92;95;92;95;94;104;92;95;92;100;93;96;99;93;84;92;100;88;91;97;93;93;91;96;89;95;94;64;73;70;60;66;65;51;62;63;60;62;63;65;54;64;63;59;60;62;58;60;64;70;53;67;74;55;62;77;62;62;59;62;68;63;63;73;59;62;62;60;76;47;61;78;63;58;70;62;55;66;64;53;57;74;61;62;63;63;61;63;60;63;56
89;86;94;91;98;92;93;103;96;91;95;103;92;93;92;98;101;94;99;85;91;91;93;85;97;86;91;93;94;100;93;99;91;93;99;98;92;182;98;86;93;95;92;85;97;92;93;98;90;93;90;102;93;96;103;100;91;92;99;92;93;90;94;84;61;57;57;65;62;65;65;63;63;63;56;65;63;54;62;70;74;64;66;64;60;73;65;64;61;66;66;51;60;73;61;60;80;58;73;65;60;64;63;62;67;63;73;48;64;56;64;60;64;61;63;53;60;55;69;65;62;65;63;53;61;72;61;66
96;84;90;93;99;95;93;92;93;101;91;91;96;97;95;93;94;93;92;91;105;86;95;102;93;94;93;98;86;102;95;94;98;102;91;94;104;93;92;94;98;84;94;91;93;96;92;91;89;104;91;92;93;92;91;99;100;89;93;93;99;90;91;95;65;63;61;51;76;70;60;64;73;62;65;67;61;64;63;62;70;61;63;75;63;59;68;57;71;62;60;65;70;61;85;61;60;72;60;56;62;59;53;60;63;57;57;63;46;59;54;60;61;59;61;72;59;62;66;59;75;64;67;64;56;63;74;65
87;95;94;91;93;103;86;94;104;89;95;96;92;91;105;95;95;93;98;93;93;107;98;93;95;103;87;94;92;93;94;97;95;89;104;95;97;104;99;92;96;97;93;101;97;103;94;94;95;93;94;92;90;85;99;91;99;97;105;90;95;104;95;98;60;62;53;62;59;74;71;56;62;67;60;73;64;63;72;61;59;76;60;58;66;61;52;59;62;61;63;62;53;65;70;65;57;63;62;56;60;64;73;54;63;67;59;65;66;52;71;65;62;77;60;69;67;58;65;60;65;84;59;66;74;63;66;70
89;93;103;92;91;93;101;91;91;92;100;94;96;98;88;92;91;94;94;102;94;94;102;93;90;90;100;88;94;96;102;101;96;94;87;95;95;93;91;103;94;94;97;98;95;95;106;91;92;98;103;93;199;96;89;94;95;95;85;104;95;97;106;93;61;71;64;60;75;69;60;69;63;52;64;61;59;62;59;63;57;60;208;60;60;67;61;62;64;60;50;64;71;50;64;81;63;64;69;65;60;57;63;74;59;62;63;59;75;76;48;72;67;59;73;64;60;69;63;64;69;75;60;72;62;59;65;61
90;105;94;94;94;95;103;93;102;93;98;96;104;94;97;100;90;87;92;105;87;103;93;91;106;98;92;94;97;95;94;95;102;89;92;101;90;94;92;92;89;102;95;93;96;95;94;95;105;94;97;96;101;89;92;98;85;93;98;92;86;104;94;97;72;65;62;71;62;56;67;59;54;62;65;64;62;62;62;54;63;62;59;64;63;62;60;65;73;64;60;71;60;62;61;61;76;64;64;62;59;64;69;61;60;70;63;63;62;71;73;48;58;68;60;61;61;61;53;60;60;59;64;63;62;63;60;62
93;94;186;91;98;87;103;93;95;97;105;91;93;103;94;95;94;102;87;95;103;94;94;95;96;87;101;92;91;97;102;90;96;106;90;95;95;102;96;94;103;87;95;83;94;96;102;93;95;105;98;96;95;103;93;95;90;103;103;92;97;88;92;93;62;61;62;59;60;60;50;71;71;62;64;71;59;63;72;62;63;60;65;63;64;66;76;65;63;76;58;74;65;56;66;63;62;79;59;56;58;63;61;62;62;67;60;60;61;59;52;63;49;63;65;61;62;71;58;62;74;54;62;75;58;59;72;61
90;101;94;94;93;99;95;93;106;85;97;93;96;94;101;91;95;107;93;94;95;100;95;92;95;98;92;92;101;86;94;90;93;98;97;96;88;101;93;93;102;104;93;96;97;98;106;93;99;92;94;94;94;95;99;88;88;106;94;101;101;105;94;93;74;57;66;74;59;58;72;61;78;62;60;69;60;61;71;67;59;64;62;52;62;60;54;61;63;61;64;60;61;62;50;55;59;61;60;68;63;62;70;59;68;62;63;71;60;61;86;57;63;46;62;66;63;61;75;63;55;69;58;61;75;59;58;61
88;94;99;95;91;103;94;91;98;103;94;98;94;104;94;98;94;93;94;90;94;94;105;94;94;95;97;93;94;103;94;95;95;96;103;97;101;95;96;96;90;95;96;93;89;106;94;105;95;105;91;96;103;94;94;96;99;86;93;94;96;96;95;92;58;64;64;62;63;62;57;62;73;59;65;54;64;65;62;63;68;60;68;62;63;82;60;65;75;69;63;75;59;62;68;64;62;61;70;72;63;63;73;59;63;67;61;54;68;56;53;65;64;61;50;52;62;69;67;61;71;63;54;70;63;66;61;63
93;99;94;94;102;84;93;88;94;94;99;99;91;104;92;93;101;105;93;95;96;95;104;94;100;96;95;94;93;95;96;94;87;100;95;100;95;101;94;93;104;90;94;97;103;82;96;94;95;90;96;94;87;103;95;94;96;102;91;85;106;98;96;91;60;59;65;64;51;63;71;58;62;80;61;62;59;64;74;59;60;72;61;63;65;61;75;59;57;75;63;63;77;62;61;63;61;55;60;72;53;63;64;58;62;64;62;58;62;65;55;51;72;74;63;50;58;67;74;64;62;74;59;60;72;68;68;65
89;95;102;93;95;104;95;93;190;104;107;92;93;90;97;95;92;92;106;93;94;95;93;98;93;99;89;91;191;103;96;90;93;85;96;91;91;88;100;92;92;106;94;94;93;104;90;95;97;100;97;93;103;93;94;93;93;88;98;86;94;101;95;92;62;63;58;73;59;61;66;60;54;72;64;57;65;62;50;64;63;58;60;64;63;62;59;74;62;63;60;67;63;63;74;62;63;59;60;60;65;59;65;57;63;76;59;63;72;57;56;64;60;83;62;61;51;59;62;62;62;52;65;60;54;59;72;54
92;93;95;102;93;94;94;95;94;95;93;102;93;95;100;90;95;95;91;86;104;96;94;91;103;93;90;102;93;95;94;100;89;93;97;89;90;95;91;86;103;94;187;107;94;93;94;93;94;104;93;102;96;92;101;86;97;95;95;88;98;93;101;105;65;61;67;60;70;74;62;57;62;65;50;74;63;65;58;61;59;63;64;61;64;52;65;60;59;67;74;62;67;72;60;62;74;59;60;68;62;66;68;63;68;63;59;74;59;57;75;63;63;74;62;66;60;51;65;62;52;60;63;61;60;61;64;71
88;92;94;91;90;102;90;92;102;95;93;94;101;92;94;98;101;93;96;101;85;93;90;93;94;95;93;88;105;94;93;101;103;96;93;94;103;95;91;100;89;91;96;91;95;94;91;89;101;95;103;98;102;92;89;97;94;93;90;96;84;94;94;92;60;58;49;60;72;63;63;68;63;56;71;61;62;60;63;71;61;66;74;60;64;69;57;62;73;68;62;57;74;62;63;75;63;57;62;57;51;61;63;58;60;63;60;62;63;63;58;59;62;62;64;64;59;60;50;69;63;63;58;60;74;58;60;80
89;95;102;95;95;96;100;84;95;99;86;95;96;91;86;103;97;90;104;97;93;95;100;90;96;101;98;88;91;95;94;94;94;91;84;93;95;93;103;98;95;92;100;92;94;99;101;92;91;95;90;92;97;94;86;102;95;95;101;96;96;92;106;104;67;66;58;62;77;60;72;64;59;71;59;63;76;62;61;65;61;64;59;60;52;58;59;55;62;73;61;59;55;62;64;50;63;71;60;63;67;60;76;62;60;71;59;63;74;59;62;74;59;63;63;74;74;61;59;49;62;66;72;63;59;66;55;50
101;96;93;92;99;92;91;102;93;93;90;97;93;102;99;93;96;93;91;87;100;95;93;92;101;92;104;99;92;94;96;102;95;95;104;87;89;97;104;89;102;95;91;104;97;93;97;98;93;94;94;106;94;94;105;90;94;95;96;85;97;91;87;100;71;71;59;59;72;60;71;59;63;64;64;62;67;62;60;77;62;66;67;60;71;64;57;64;65;58;87;58;61;75;64;61;69;63;54;66;61;53;63;62;52;61;65;61;60;58;62;59;60;61;61;63;65;73;66;65;49;68;78;62;63;67;59;65
94;100;94;103;92;94;100;100;96;93;94;88;95;94;94;95;95;94;88;104;95;95;105;99;94;91;117;92;98;101;103;97;95;104;87;94;95;84;86;95;98;90;104;93;95;103;106;95;95;105;89;94;103;103;90;95;97;97;91;87;92;91;95;92;58;84;62;62;70;62;64;58;64;61;62;64;62;60;58;65;58;48;62;70;59;61;75;61;59;69;62;60;63;67;72;57;64;77;59;61;70;58;63;70;57;66;60;63;73;63;61;63;59;56;51;64;63;60;63;64;61;49;60;69;63;63;64;58
88;105;91;91;100;93;93;92;94;96;96;93;91;99;99;96;91;104;93;96;104;97;93;89;100;82;92;91;91;90;99;94;89;99;95;91;95;104;89;95;101;96;96;94;100;94;94;100;95;95;95;93;88;109;96;93;102;98;97;98;104;93;96;89;74;62;62;74;66;63;58;66;77;60;64;74;58;66;83;63;62;63;62;73;62;65;74;61;61;57;62;62;65;60;59;58;61;62;61;64;64;60;55;61;72;72;57;63;74;59;64;72;60;62;62;57;68;62;62;74;63;58;46;69;63;63;63;61
84;95;95;98;94;95;92;99;96;93;101;94;95;97;102;93;92;95;95;88;92;93;89;102;89;93;95;107;94;92;99;102;95;95;104;96;95;100;96;93;92;95;85;102;93;91;102;99;94;91;105;93;94;97;104;91;97;99;96;95;97;93;88;106;60;62;73;63;58;70;59;63;61;60;52;59;60;59;59;73;67;58;57;62;70;62;62;72;64;62;55;62;73;61;59;73;58;64;75;59;62;67;63;63;61;73;74;62;60;74;65;64;67;62;62;63;62;59;70;62;62;62;63;44;71;61;63;70
90;90;101;96;93;94;94;84;96;94;86;103;90;94;93;100;90;95;97;94;95;91;104;96;98;94;91;95;95;93;88;105;95;94;106;101;96;89;101;91;95;99;102;92;93;103;92;97;96;97;86;104;89;93;104;98;92;93;102;92;87;91;103;92;66;60;66;75;70;62;60;58;59;71;63;59;75;65;62;63;72;67;61;60;59;62;60;74;60;55;66;62;60;71;60;63;60;63;59;58;63;60;65;52;61;60;61;63;74;60;64;70;63;68;57;59;66;58;59;74;62;75;63;59;45;59;53;60
87;86;100;92;104;103;102;93;94;99;90;94;96;101;88;91;95;94;92;91;93;86;103;92;93;94;98;95;89;107;94;91;94;101;91;93;99;94;82;95;87;89;99;91;91;104;94;96;96;105;92;94;98;89;92;103;101;94;96;94;92;93;93;93;54;57;59;56;72;64;65;63;63;64;68;56;62;63;51;63;75;66;66;57;62;62;62;60;75;60;62;62;61;68;61;60;74;59;59;73;61;52;67;61;52;58;71;63;62;67;63;57;66;64;63;54;63;55;52;64;72;65;61;76;61;51;62;60
90;100;86;93;94;90;92;95;94;88;102;94;92;104;92;93;97;111;92;93;98;100;93;95;100;86;91;94;83;86;108;92;91;101;95;92;98;106;94;94;101;92;95;103;102;94;98;96;96;95;91;94;90;99;94;95;116;95;95;96;98;91;92;95;73;60;54;73;66;64;68;62;61;60;62;67;59;56;77;59;68;87;60;62;65;62;65;67;64;74;63;65;61;62;72;72;66;63;74;61;66;65;59;50;75;62;61;72;63;59;73;61;63;66;59;56;59;65;53;65;75;60;61;60;63;60;47;62
99;85;93;90;89;96;94;97;89;105;93;94;104;102;95;96;92;93;102;94;102;94;93;102;87;96;95;96;93;93;93;100;100;93;93;96;105;95;94;96;98;87;95;96;87;97;94;92;98;89;92;90;95;93;93;94;113;92;92;102;98;88;91;105;51;64;75;53;63;81;61;63;71;59;62;69;65;64;62;62;59;62;74;70;60;63;72;65;65;74;60;65;65;51;65;64;63;76;61;64;71;64;55;57;59;55;57;63;72;64;66;64;58;62;62;74;62;64;75;61;67;72;62;61;62;65;76;47
