110,70105.879048,75483.261094,65195.692820,62517.373701,61363.780016,85969.287609
154,68804.229276,64629.550425,66963.053436,89908.615914,62608.832029,59911.094580
216,74213.409280,90608.502850,61963.611583,66710.881778,85992.162069,65791.888123
303,71892.581320,63250.517994,58685.408962,80512.492435,92058.249546,64956.237665
424,81673.671371,78424.840567,90222.800369,67143.990054,83059.790740,89516.935128
594,67077.899866,63391.521660,61186.562457,85915.917585,62269.246493,62626.251136
832,81006.963941,88669.615195,85818.596082,63860.349324,83242.640586,83443.618520
1165,69077.229674,63338.019558,89975.298992,64832.533459,61895.830280,65344.466082
1630,70763.261585,84447.101876,61492.318246,58729.082512,60692.486304,88455.318990
2282,65876.228340,60619.866457,61530.513211,89951.486679,59855.727509,57423.547844
3195,69342.692198,77506.875012,79009.873511,57606.548206,61385.323955,71204.840309
4472,59975.937087,54240.583845,50373.495222,54391.570306,62686.053357,78187.982708
6259,57255.276644,51053.287646,77616.791850,57205.338263,48212.511063,52188.454399
8761,51182.342909,63053.654683,48619.971797,49466.414617,48787.465180,45984.208272
12262,48324.389614,44807.425991,46318.534968,62453.087017,45687.621709,42355.278388
17163,44491.429477,42068.228527,62744.381352,38546.716593,39326.754457,39771.066457
24022,47395.224796,54006.610194,58369.365069,32991.160045,34623.134115,56985.854557
33623,31374.081510,23682.150772,24554.084287,22746.223098,41605.336746,44282.612651
47060,10919.748171,4748.606989,7159.907799,30629.802894,5374.769146,6685.654031
65868,5619.019116,1608.731232,1872.364459,21344.869444,1607.945880,1661.184565
92193,1530.744215,1570.891432,1565.307888,1507.462730,1515.401246,1494.657782
129039,1518.186973,1483.622620,1516.441472,1499.076410,1507.781366,1584.012998
180609,1470.124203,1449.363274,1369.298551,1409.587929,1643.117009,1479.254254
252791,1374.146432,1415.711431,1349.137810,1334.047424,1358.316383,1413.519115
353820,1347.428402,1335.662287,1332.324680,1327.467084,1345.389506,1396.298457
495225,1348.372707,1389.230728,1424.981211,1381.072339,1288.889589,1257.689670
693144,1261.180594,1298.434248,1241.004729,1254.707183,1249.892792,1261.864020
970162,1328.402216,1315.632091,1319.835665,1309.361976,1339.151248,1358.030101
1357891,1200.058354,1222.477131,1157.533954,1196.748950,1227.991818,1195.539921
1900578,1427.550045,1208.205740,1230.074485,1186.683550,1183.605332,2329.181121
2660151,1177.739157,1156.229317,1158.935278,1218.216594,1155.093441,1200.221156
3723291,1137.143052,1097.490441,1142.498643,1128.486244,1148.394392,1168.845542
5211318,1136.892197,1144.517953,1097.182724,1146.577976,1124.333139,1171.849197
7294040,1091.401440,1128.414919,1079.212354,1096.458939,1077.600757,1075.320235
10209131,1099.682601,1108.780704,1101.089226,1116.587548,1089.289644,1082.665887
14289248,1075.996042,1087.551156,1045.028316,1090.128089,1061.095087,1096.177565
20000000,1085.928954,1134.564076,1077.359186,1072.740102,1069.912334,1075.069073
27993074,1121.277181,1162.087035,1121.285555,1115.108943,1122.741660,1085.162713
