110,5423513.067231,5876776.627977,5249032.631227,5300174.043796,5482615.040950,5208966.992206
154,4769044.377249,3917664.253559,4708345.992048,4791354.250394,5447816.669757,4980040.720491
216,5815634.247109,7197061.193269,4856676.477924,5853742.159446,5983030.643305,5187660.761603
303,5214144.506481,5554136.019104,5377739.628544,5383112.309138,4076920.468341,5678814.107281
424,5145816.292777,4245059.872737,4288586.151430,5108986.401160,4915232.503697,7171216.534863
594,5749488.634632,5223598.493687,5413666.417317,5854401.147680,7375801.329634,4879975.784842
832,5398446.996854,5369914.009806,6116700.541067,5006790.367264,5047955.414335,5450874.651799
1165,5081358.971961,4714683.224356,5807968.248363,4623010.251824,5782545.466657,4478587.668605
1630,6144379.533830,5151440.675234,7491641.956106,7373141.669009,5661389.378005,5044283.990798
2282,4946730.810179,5329053.076461,4178271.900583,4404337.114955,4933399.914844,5888592.044054
3195,5240082.866781,6450332.099086,4908667.074480,5355610.052155,5547692.471109,3938112.637078
4472,5548653.385208,5153912.268649,5820657.713083,4931054.847723,6628524.165559,5209117.931026
6259,6312540.244795,9010360.026046,5519872.822051,6082105.794361,5076248.745723,5874113.835797
8761,5557666.361596,5306125.908611,4745900.523093,6567063.450303,5879302.858415,5289939.067562
12262,5041116.917044,5309243.673352,5099028.798676,4709894.229714,5604086.042289,4483331.841191
17163,5057643.625527,5510248.114587,5581889.993128,3654700.074279,5026725.919050,5514654.026594
24022,6382028.232969,5507416.148557,7137020.942194,5632573.968661,6934712.913198,6698417.192239
33623,5314814.219166,5362799.865441,4327465.063076,5175031.939369,5347658.007373,6361116.220574
47060,5376417.063029,5271761.780917,4544980.353900,5346117.797867,4981457.099848,6737768.282617
65868,5231482.519341,4336753.831731,5175100.835198,5666581.287407,5389476.046202,5589500.596171
92193,5721779.562571,6302049.599467,6088614.178276,6378752.029565,5393143.038347,4446338.967203
129039,5965004.847212,5734918.401887,5980550.925305,5477448.582919,7101584.705814,5530521.620139
180609,5898442.460927,7089645.784531,5457159.264142,5436405.909527,5099411.188927,6409590.157511
252791,6484622.772303,7247052.724508,6889800.600698,5542444.787695,6166908.296047,6576907.452569
353820,5406491.101193,4956990.621860,3884003.289531,5008837.228440,7284784.021431,5897840.344704
495225,2017540.178740,3615751.822073,1562.725457,1577.523818,1613993.982551,4854814.839803
693144,4312382.032488,2862912.110743,3456675.506627,5106202.071583,5277069.779470,4859050.694017
970162,525484.890391,1581.186213,1608.468331,52104.170587,1671.949827,2570458.676997
1357891,1561.250839,1566.737022,1565.422768,1565.335676,1554.953749,1553.804982
1900578,1561.057525,1603.245688,1577.627825,1543.487476,1519.768124,1561.158515
2660151,1525.205967,1529.861773,1518.487991,1541.855412,1506.830889,1528.993774
3723291,1518.899541,1508.318976,1509.358983,1532.591207,1515.655380,1528.573161
5211318,1513.357386,1515.837394,1520.293684,1492.570697,1515.019695,1523.065460
7294040,1520.894041,1535.469704,1512.363374,1520.592776,1503.341712,1532.702640
10209131,1531.977089,1546.727900,1524.816138,1528.030641,1530.591302,1529.719465
14289248,1472.971620,1458.581667,1505.468271,1491.159302,1426.302423,1483.346440
20000000,1503.427614,1453.118692,1525.003878,1510.885427,1508.102871,1520.027205
27993074,1550.342265,1530.316789,1516.087554,1576.797600,1566.220858,1562.288524
