1,.98878060857039971191,248819.200000,248244,249312,248597,248354,249589,
2,1.76523817997095576206,139373.600000,138434,138674,140258,139347,140155,
3,2.50930787589498806682,98046.000000,97209,97710,97459,99991,97861,
4,3.19696556240790263603,76956.600000,78856,74842,78356,76035,76694,
5,3.88085533289586593306,63395.200000,63349,63532,63775,63590,62730,
6,4.38935255392410483309,56051.000000,57268,55418,57417,55082,55070,
7,4.82960095481885139061,50941.600000,50158,51899,50414,51266,50971,
8,5.08571570317635531521,48376.200000,49560,48035,48960,47513,47813,
9,5.37325989245949759104,45787.400000,45288,46727,44643,46917,45362,
10,5.71994922370862220486,43012.200000,44232,42320,42417,41751,44341,
11,5.92474967128552644887,41525.400000,40775,42631,42637,40822,40762,
12,6.15182808819631631851,39992.600000,40476,39239,40780,38864,40604,
13,6.44088402997031242637,38197.800000,37635,37188,37748,40625,37793,
14,6.61073075310884448791,37216.400000,37597,36928,36342,36474,38741,
15,6.86204376711832071714,35853.400000,35635,35782,35796,35869,36185,
16,6.44422442244224422442,38178.000000,37948,38139,38112,36032,40659,
17,6.82405347682578426205,36053.000000,35793,35817,35435,37792,35428,
18,6.65284688270670185609,36980.800000,37549,34911,39040,35690,37714,
19,6.66813746747614917606,36896.000000,38838,35874,36236,37561,35971,
20,6.62947034857401539157,37111.200000,36968,35857,38907,37168,36656,
21,6.48584609706587931352,37933.000000,36661,37082,42128,37460,36334,
22,6.32269902703036097019,38911.800000,38384,39077,37957,40246,38895,
23,6.13259883344134802333,40118.000000,40516,41709,39277,40539,38549,
24,6.04451804061656994884,40702.600000,40861,39597,42941,39073,41041,
25,5.96205071536582528789,41265.600000,42903,41524,39237,40803,41861,
26,5.82793875191874016941,42215.200000,42192,39805,41948,41053,46078,
27,5.99909292186448447725,41010.800000,39560,41867,39804,41199,42624,
28,5.82757983599334877705,42217.800000,42249,43236,41229,42075,42300,
29,5.71375885997751911339,43058.800000,46403,40763,42076,43185,42867,
30,5.84011280123055887882,42127.200000,43176,40541,42831,40886,43202,
31,5.77667892312243776678,42589.800000,41822,44303,40696,43195,42933,
32,5.59234979633401221995,43993.600000,43874,44133,43528,46027,42406,
33,5.63518342067651262505,43659.200000,41761,44332,44494,45302,42407,
34,5.56442245060432800173,44214.400000,44967,43946,44644,41924,45591,
35,5.49006989012166058214,44813.200000,43063,46112,42183,44305,48403,
36,5.33041854257573328364,46155.400000,46107,43873,46036,46803,47958,
37,5.63185532791576055854,43685.000000,43199,43634,43220,45265,43107,
38,5.41433978873239436619,45440.000000,48250,43622,46168,44876,44284,
39,5.22391520370983769460,47096.400000,45941,47342,48093,47705,46401,
40,5.10403173272811010194,48202.600000,48284,45251,51068,46430,49980,
41,5.14995143680085739165,47772.800000,46094,47334,48949,49418,47069,
42,5.11491891891891891891,48100.000000,48407,47338,48149,47563,49043,
43,5.02992263783713056704,48912.800000,47318,53191,47160,49140,47755,
44,4.77389785780813411983,51536.000000,51919,52222,50779,51653,51107,
45,4.88506687422562505956,50363.200000,50359,50084,51835,49264,50274,
46,4.70763508057572127803,52261.400000,53139,51747,50891,53383,52147,
47,4.80740491785340232292,51176.800000,50689,51726,50105,52117,51247,
48,4.66249237218434108938,52767.400000,52804,51874,52677,53282,53200,
