1,1.00470114719099104691,244876.400000,245126,244829,244632,244720,245075,
2,1.89710808293287766721,129685.600000,129666,129330,129258,129159,131015,
3,2.75062049720273152930,89444.400000,88848,89708,88925,90658,89083,
4,3.54227941705804943085,69454.600000,70062,68693,69254,69193,70071,
5,4.22163499651668388305,58277.800000,58109,58660,57997,58727,57896,
6,4.72056978176529504088,52118.200000,51264,51701,55163,50746,51717,
7,4.87415009113241936762,50476.000000,50141,52102,49444,51532,49161,
8,3.57795875628981123294,68762.000000,80196,61903,80768,63503,57440,
9,3.35298013786561781949,73375.800000,59495,69984,81725,71459,84216,
10,2.63963384017200757039,93205.200000,80652,74949,124571,102412,83442,
11,2.06229442237086958708,119298.000000,141992,140838,93635,95797,124228,
12,1.91383422454069241911,128552.200000,142165,110189,110032,139172,141203,
13,1.56178450045642157864,157529.800000,160581,175229,158906,131302,161631,
14,1.60035021621818522431,153733.600000,146730,149917,150032,169092,152897,
15,1.37696979737308113360,178673.200000,186425,164885,185757,168480,187819,
16,1.17159458993551238179,209993.800000,245330,185552,235333,195928,187826,
17,1.09129765574752156845,225445.000000,211277,251641,201340,251850,211117,
18,1.12879894583841082938,217955.200000,209818,220211,219769,218052,221926,
19,.94743773798814526365,259676.800000,294812,286539,236633,241136,239264,
20,.94353825503355704697,260750.000000,258141,258672,260135,268761,258041,
21,.84867128853173571063,289897.400000,290732,280733,280696,320989,276337,
22,.79286399331748642614,310302.400000,329059,288872,300233,296938,336410,
23,.76623392802195543385,321086.800000,309400,332069,314160,332438,317367,
24,.68901976928828881812,357069.000000,373329,332784,377151,345745,356336,
25,.67150716248541136936,366381.200000,373439,369317,348562,396884,343704,
26,.64508750180918879121,381386.400000,365263,368564,406437,365542,401126,
27,.62431003717019319974,394079.200000,386561,403774,384296,409369,386396,
28,.60233090599991382248,408459.200000,435309,388305,392496,393397,432789,
29,.55244023199886829820,445347.000000,478615,461133,415769,437793,433425,
30,.54492852491550125585,451486.000000,478842,428101,476749,420133,453605,
31,.53684199501273001971,458286.800000,451321,472173,438404,479240,450296,
32,.50196355908550051170,490130.400000,512409,467011,504880,465266,501086,
33,.47387799819407248980,519179.200000,532271,528047,535866,481491,518221,
34,.44531026860780856268,552485.800000,566520,526765,572668,523129,573347,
35,.43459573352590005984,566106.800000,538881,528417,605728,625304,532204,
36,.41540373895715641775,592261.400000,567403,562234,626238,643706,561726,
37,.40134759360382431560,613003.800000,583267,582973,655135,584162,659482,
38,.39709680553703900376,619565.800000,704074,600988,595680,606457,590630,
39,.35779566749328553952,687620.400000,734425,737076,728514,619472,618615,
40,.35177273569560830982,699393.600000,641655,643325,765723,751858,694407,
41,.33399699870841830521,736616.200000,796362,654601,781838,789505,660775,
42,.36120866239763966342,681123.200000,673427,682219,679256,686805,683909,
43,.35169107262320671969,699556.000000,698091,700137,703018,699091,697443,
44,.31060247595625793778,792098.000000,879687,725930,713336,756383,885154,
45,.30807247155345021243,798603.000000,910453,918298,731225,716469,716570,
46,.31049201405689544332,792379.800000,767739,759289,754987,932249,747635,
47,.28300640557998416722,869335.800000,787933,961774,972235,809160,815577,
48,.29339694801231556525,838548.600000,798519,792900,999018,802583,799723,
