1,3509089.000000,3499296,3503517,3521562,3505466,3515604,
2,1762029.200000,1748675,1766387,1777161,1751704,1766219,
3,1198001.200000,1199149,1193824,1196691,1197941,1202401,
4,912039.800000,913813,912559,913720,905110,914997,
5,741796.800000,743001,744455,739340,741988,740200,
6,628848.000000,626277,630320,629862,628702,629079,
7,534371.200000,535684,538679,530863,533999,532631,
8,464098.200000,466106,461562,467403,463209,462211,
9,416858.200000,416010,415062,416896,417062,419261,
10,376798.200000,376597,376172,376868,378668,375686,
11,345329.800000,345613,344775,344782,345012,346467,
12,318511.800000,317735,320356,319445,319287,315736,
13,295045.600000,294667,295285,294843,294746,295687,
14,275386.600000,276451,276707,273727,276879,273169,
15,254878.400000,254484,255591,253399,254444,256474,
16,242273.600000,242038,242271,241862,242750,242447,
17,232588.600000,231409,230564,234801,232820,233349,
18,219426.800000,219959,220417,220145,219251,217362,
19,208821.600000,210620,208080,208188,208778,208442,
20,199463.600000,199783,199419,200044,199331,198741,
21,191925.800000,191823,191250,191821,193262,191473,
22,187795.200000,187396,188578,188503,185414,189085,
23,183484.200000,183132,183348,184548,183502,182891,
24,178874.400000,179636,179435,178255,177678,179368,
25,172678.800000,170712,172231,174396,173263,172792,
26,165342.400000,166011,167034,165225,163900,164542,
27,161023.400000,162497,160030,162110,160156,160324,
28,158217.800000,158189,158928,157944,158385,157643,
29,157506.400000,157664,158003,158097,156245,157523,
30,156405.200000,156317,155532,156513,154842,158822,
31,154845.200000,154030,155346,155491,155848,153511,
32,157530.200000,159277,156960,158170,156913,156331,
33,161048.400000,161680,162258,160530,161988,158786,
34,159120.800000,159432,157032,159398,159083,160659,
35,161290.800000,160618,161877,160811,161671,161477,
36,164829.800000,163833,167082,162683,164888,165663,
37,169609.000000,169285,167850,168719,169681,172510,
38,175362.000000,174520,179074,175257,173700,174259,
39,178333.600000,175061,180131,181324,178335,176817,
40,182860.800000,181340,179731,184232,183434,185567,
41,192393.400000,190702,193501,190442,194982,192340,
42,197668.200000,199679,195967,196655,197780,198260,
43,199290.000000,199753,199672,198656,198451,199918,
44,204021.600000,201047,204293,203461,206148,205159,
45,209730.800000,207822,209815,209841,210181,210995,
46,213711.000000,215059,212159,213554,212677,215106,
47,219561.200000,220771,226439,217945,217800,214851,
48,228075.800000,227976,226480,228290,230011,227622,
