2,311866.600000,311551,310739,311324,312305,313414,
3,157531.000000,157119,157451,163616,151520,157949,
4,107817.000000,105723,107437,106027,110026,109872,
5,81818.800000,83620,80441,80774,80029,84230,
6,65840.800000,66573,68316,65039,65605,63671,
7,56705.600000,58944,53932,56101,56232,58319,
8,50100.800000,48892,51258,50904,51350,48100,
9,44364.800000,43957,43925,46579,43051,44312,
10,40931.800000,40506,41404,40508,41365,40876,
11,37544.400000,38434,37311,37353,36165,38459,
12,34705.400000,33965,35581,34092,35647,34242,
13,32279.800000,32252,31990,32222,32622,32313,
14,30902.200000,30971,31597,30824,30261,30858,
15,29911.600000,30269,29537,30129,29039,30584,
16,28374.400000,27391,29135,28243,28981,28122,
17,27809.200000,27498,27595,27403,27994,28556,
18,27296.800000,26890,27555,26398,28445,27196,
19,26853.000000,26481,26245,26795,27780,26964,
20,26741.400000,25809,26360,27151,26641,27746,
21,26095.400000,25951,26111,26850,25892,25673,
22,26267.400000,26697,25602,26944,26454,25640,
23,26111.400000,25631,26946,25698,26771,25511,
24,28040.400000,30967,26799,27276,26960,28200,
25,27100.600000,26423,27424,26245,27391,28020,
26,26720.400000,26722,27281,26402,26751,26446,
27,26837.600000,25081,28559,26088,27481,26979,
28,26896.400000,27609,25759,26367,28078,26669,
29,26911.400000,25804,28206,26281,27809,26457,
30,26414.400000,26245,26923,26124,26233,26547,
31,26087.800000,25990,25897,26194,26589,25769,
32,27275.600000,27201,27045,28183,26929,27020,
33,27811.000000,28180,27950,28131,26808,27986,
34,28611.000000,28053,28467,29700,29070,27765,
35,29854.800000,30244,29941,29205,30123,29761,
36,29403.600000,29098,29032,29689,29933,29266,
37,29513.600000,29200,30464,28846,29509,29549,
38,30376.400000,29187,30193,30444,30189,31869,
39,30175.200000,29708,31238,30026,29843,30061,
40,30859.000000,31875,31391,30890,30923,29216,
41,31039.000000,31023,29803,31781,32199,30389,
42,31800.200000,32156,31910,30959,32100,31876,
43,32349.800000,32954,32632,31736,32995,31432,
44,32680.200000,33178,34078,32307,32667,31171,
45,32642.800000,32025,33815,31494,32592,33288,
46,34078.000000,34669,33748,33285,35048,33640,
47,33880.000000,33602,33035,33598,34499,34666,
48,34538.600000,35832,33220,35864,33984,33793,
49,35668.200000,35407,36606,34493,35243,36592,
