2,3601745.600000,3635276,3585099,3593804,3613296,3581253,
3,1807603.200000,1801867,1809037,1827074,1790643,1809395,
4,1220824.400000,1214388,1211031,1219325,1232860,1226518,
5,929665.000000,931619,933775,933041,922143,927747,
6,754692.000000,757524,749491,760826,747726,757893,
7,624773.400000,627005,622221,627010,629681,617950,
8,535920.600000,537019,533221,538241,536263,534859,
9,469654.200000,471465,472008,467278,471858,465662,
10,421229.200000,420640,417987,423454,421101,422964,
11,382015.800000,379210,383552,381938,383144,382235,
12,348630.400000,346270,347238,352212,349113,348319,
13,320752.400000,322585,321303,320506,320134,319234,
14,294818.600000,295853,295559,295000,293928,293753,
15,276636.400000,275678,276328,276930,278420,275826,
16,256810.600000,258155,256685,258225,254069,256919,
17,243182.000000,243422,241211,243846,244765,242666,
18,232636.200000,233680,235279,231975,229472,232775,
19,219531.400000,219806,220331,219338,218704,219478,
20,205700.800000,204865,207715,204692,206159,205073,
21,196725.600000,196326,195511,197369,197142,197280,
22,189457.400000,187542,189810,188853,190788,190294,
23,185131.600000,183874,186468,183902,184629,186785,
24,179663.200000,179429,181440,178673,179492,179282,
25,172386.200000,172755,170764,175568,171848,170996,
26,165840.400000,165756,167016,165719,164712,165999,
27,158062.000000,156946,161680,157369,155525,158790,
28,152693.000000,152655,152879,150930,151168,155833,
29,148677.400000,149151,148372,150816,147019,148029,
30,146116.600000,146157,146792,145677,144671,147286,
31,142604.800000,143965,141415,142945,142583,142116,
32,137030.200000,136420,136552,139241,136177,136761,
33,137143.000000,137004,137792,136667,137033,137219,
34,136875.800000,136762,138474,136735,134540,137868,
35,130037.600000,128560,130236,129553,131530,130309,
36,125468.800000,124621,125911,124106,126092,126614,
37,123117.800000,120896,123345,125049,123077,123222,
38,121249.800000,122292,120760,118836,123598,120763,
39,116678.000000,119253,115597,114813,116315,117412,
40,114603.000000,115532,112944,114367,116065,114107,
41,111528.000000,112154,110509,112038,110707,112232,
42,109619.200000,108995,109438,109841,110770,109052,
43,109002.200000,107881,110722,108438,108505,109465,
44,106623.600000,107149,106447,107146,106750,105626,
45,105394.200000,105618,108025,103425,105675,104228,
46,102670.600000,102730,103008,102951,102443,102221,
47,103458.600000,103809,103096,103451,102875,104062,
48,102509.600000,102260,102711,101416,104548,101613,
49,102395.200000,101085,102318,104426,102530,101617,
