1,3471470.200000,3466869,3462900,3465035,3482846,3479701,
2,1824659.200000,1823869,1824098,1828159,1825753,1821417,
3,1201916.600000,1212655,1199332,1198554,1199384,1199658,
4,902110.800000,908850,918389,895415,895251,892649,
5,749821.600000,762991,749257,746980,749352,740528,
6,622842.600000,649574,613046,622751,614446,614396,
7,555682.400000,563710,560634,549835,547677,556556,
8,494193.000000,498475,487761,497895,502023,484811,
9,443863.200000,437997,434980,437551,459014,449774,
10,403838.000000,403391,406381,403757,399755,405906,
11,371269.600000,375650,351007,361202,391416,377073,
12,358143.800000,361191,351785,349955,363892,363896,
13,331854.200000,312702,345685,344524,329362,326998,
14,322311.800000,325733,329064,310081,326599,320082,
15,303979.000000,298076,311657,304437,310299,295426,
16,289500.400000,296916,283708,271791,299575,295512,
17,277155.600000,269615,288027,267929,288818,271389,
18,264139.200000,279995,262516,261381,263703,253101,
19,266889.000000,272639,270468,272049,261793,257496,
20,251713.800000,254763,255108,249341,254618,244739,
21,255460.200000,261109,260285,263684,245668,246555,
22,248084.000000,236354,258109,244196,243770,257991,
23,241821.800000,228915,256848,231950,249903,241493,
24,241436.000000,239340,240080,240892,254510,232358,
25,242636.200000,236493,250357,240558,250777,234996,
26,234445.600000,235506,228046,247468,226360,234848,
27,233721.200000,243507,228904,237024,234826,224345,
28,230456.000000,226213,245949,229669,222672,227777,
29,233041.400000,246879,230282,230001,229004,229041,
30,232945.400000,229900,241314,227624,241703,224186,
31,235476.000000,241592,244594,230216,231762,229216,
32,228758.400000,211731,245403,229645,230758,226255,
33,234903.600000,227774,241184,247584,230371,227605,
34,239245.000000,230131,239456,232128,245586,248924,
35,236634.800000,230471,243961,247584,229528,231630,
36,236214.400000,235218,236023,245327,218765,245739,
37,233573.200000,231381,231124,227889,236686,240786,
38,247346.000000,247551,249358,250197,249209,240415,
39,242491.800000,240771,235903,248969,242850,243966,
40,236833.200000,240628,240104,237267,229976,236191,
41,242442.200000,235959,238661,239357,248205,250029,
42,239602.800000,240769,233717,234479,242948,246101,
43,239845.000000,236581,232418,241562,235660,253004,
44,240794.400000,232671,238155,256293,235401,241452,
45,240652.000000,239466,238493,229301,241355,254645,
46,245586.800000,239688,250718,240823,251759,244946,
47,253627.400000,255393,260195,234511,260947,257091,
48,248909.000000,246183,242786,246654,248706,260216,
