1,256875.000000,257391,256854,257092,256298,256740,
2,141594.800000,142543,141410,142684,141102,140235,
3,100744.800000,100963,101980,98477,101664,100640,
4,83928.200000,83257,81932,88425,82674,83353,
5,74207.200000,72771,79213,72266,73646,73140,
6,66439.800000,65913,65198,64951,65124,71013,
7,60518.200000,56450,59815,60402,65506,60418,
8,55301.000000,54923,56032,55116,55238,55196,
9,51895.400000,51962,55239,49499,51037,51740,
10,47624.200000,47508,46371,50547,46546,47149,
11,45090.000000,45455,46844,44104,43894,45153,
12,43312.400000,44806,42760,44810,42271,41915,
13,40526.600000,39949,42588,39612,39890,40594,
14,39936.800000,41004,39138,41136,39143,39263,
15,38033.200000,37586,37351,37539,40251,37439,
16,38492.400000,39052,39650,37120,37019,39621,
17,36860.200000,36650,38891,36776,35661,36323,
18,35687.000000,35873,35677,35681,35650,35554,
19,36133.400000,36555,36190,35777,36275,35870,
20,36485.800000,36057,36310,36270,37369,36423,
21,37790.800000,39173,36888,36793,39843,36257,
22,37802.000000,39596,36541,36903,38407,37563,
23,39523.600000,39300,40833,38295,41346,37844,
24,41841.800000,41519,39454,42147,44364,41725,
25,40242.800000,38308,40722,40375,41179,40630,
26,40396.600000,41500,39331,41305,38747,41100,
27,39843.800000,39009,40729,41418,38871,39192,
28,40521.000000,41856,39024,40755,39570,41400,
29,42119.600000,41793,41895,40424,41888,44598,
30,42705.200000,42736,43694,42462,40489,44145,
31,42123.000000,40481,42680,43288,43594,40572,
32,43518.000000,44527,43608,44735,42027,42693,
33,44347.000000,43793,44644,43537,44900,44861,
34,43381.800000,43456,43134,43650,44382,42287,
35,44149.200000,47076,44847,41808,44551,42464,
36,45377.200000,44197,46244,44664,47552,44229,
37,45794.200000,46079,47341,43055,45690,46806,
38,44592.400000,44810,44468,44598,42774,46312,
39,45588.800000,44567,47389,44597,45900,45491,
40,47576.400000,49253,47600,47728,43971,49330,
41,46376.200000,45038,48545,44638,45782,47878,
42,48201.400000,49275,47143,49078,45889,49622,
43,48192.600000,48623,48907,50895,46072,46466,
44,48381.800000,49719,47005,47279,49121,48785,
45,48851.200000,46931,49515,49420,50209,48181,
46,49757.800000,50484,48331,50819,49477,49678,
47,50697.000000,49850,52411,51000,51028,49196,
48,52805.600000,55168,50237,52093,52787,53743,
