1,16815400.000000,16499000.000,17178000.000,16515000.000,17158000.000,16727000.000,
48,11950200.000000,11893000.000,12027000.000,12015000.000,11911000.000,11905000.000,
128,11911600.000000,11863000.000,11788000.000,11842000.000,12047000.000,12018000.000,
