1,133413.846308,133016.038143,132677.876591,133408.367517,133722.601538,134244.347755
2,75966.668487,70609.267268,77557.226040,77665.711136,76725.786411,77275.351583
3,55168.278827,55257.258611,54525.852996,55306.007600,55259.156672,55493.118257
4,46543.948106,46252.509994,46455.717336,46758.053302,46629.119887,46624.340015
5,39414.789351,39382.812072,39442.848238,39315.571496,39400.555315,39532.159636
6,35958.908948,36409.470526,36143.924238,36485.371296,36307.816515,34447.962166
7,35476.105507,35375.991168,35049.804657,35572.535804,35787.913081,35594.282828
8,35488.453757,35254.181519,35476.905917,35751.330877,35148.826555,35811.023917
9,35228.115934,35326.717238,35240.116145,35217.640821,35122.720066,35233.385402
10,35495.138611,35644.047621,35668.259706,35290.379555,35438.053494,35434.952681
11,35053.627615,35561.149491,33070.756187,35491.537323,35751.917157,35392.777917
12,35411.002183,35711.723089,35297.440091,34924.459660,35652.389055,35468.999023
13,34824.573944,35448.279779,35425.565562,34883.903394,33371.699070,34993.421917
14,35775.538090,35554.729432,35491.124196,36689.681634,35503.133481,35639.021709
15,35223.546661,34810.980798,35327.436851,35190.752302,35317.705338,35470.858017
16,34899.491306,33276.170155,35377.047791,35191.329853,35464.905257,35188.003477
17,35313.102152,35075.702845,35358.732919,35480.015579,35376.271774,35274.787647
18,34808.672265,33291.589223,34867.391634,35404.575187,34987.653223,35492.152060
19,35126.679455,34822.223434,35466.994596,34835.122189,35236.577181,35272.479877
20,35353.624280,35440.756409,35208.039962,35503.205504,35241.978768,35374.140760
21,34844.399369,35453.208457,32902.375215,35222.170872,35558.026636,35086.215666
22,35351.547904,35445.788385,35350.936670,35367.871540,35250.684217,35342.458709
23,35203.040818,35234.124672,35394.275628,34752.980351,35369.992955,35263.830487
24,35254.055794,35014.098470,35375.078755,35502.061219,35019.367726,35359.672804
25,35322.986031,35411.853168,35405.337283,35133.382821,35394.494717,35269.862168
26,34408.509962,35338.263066,35298.846849,33000.350670,35375.540947,33029.548281
27,34720.332394,35028.455962,33015.146757,34751.988900,35690.500536,35115.569817
28,35227.186706,35251.369602,35050.344577,35194.192370,35303.410030,35336.616955
29,35221.044361,35076.959443,35529.617296,34956.568119,35292.457987,35249.618962
30,35204.344160,35186.235162,34805.312474,35475.857338,35000.818147,35553.497681
31,35292.522840,35210.041681,35552.435421,35088.283970,35541.088736,35070.764396
32,34991.336623,33227.510664,35290.956089,35602.813513,35315.313649,35520.089202
33,35335.649854,35296.397319,35490.376628,35191.470594,35303.848521,35396.156209
34,35355.937212,35781.952309,35243.787513,35711.862021,35131.237355,34910.846866
35,34817.473206,34800.785904,35815.181311,35304.561436,33257.035777,34909.801602
36,35227.496917,34886.107855,35166.457438,35402.881304,35100.492881,35581.545109
37,35551.380488,34829.091570,35502.807606,35317.185472,36841.049909,35266.767887
38,35045.821651,34982.335809,35197.799038,35105.335557,34873.177872,35070.459981
39,35011.891185,35134.678702,35172.411896,34671.553026,35021.656253,35059.156049
40,34793.118716,34866.913040,34801.072609,34974.909687,34428.889796,34893.808451
41,35012.920939,35031.871000,35226.389536,34467.847740,35382.368187,34956.128234
42,35210.469625,35513.981957,34843.313479,35436.802357,34955.696719,35302.553617
43,34710.469759,33485.498285,35355.595649,34547.953717,35197.788060,34965.513085
44,34842.083867,35233.953500,35221.780155,33410.283096,34950.410819,35393.991768
45,35089.088251,34837.437232,34926.189987,35121.662160,35553.584860,35006.567019
46,34930.339286,35035.008472,34613.375177,34990.902468,34708.033402,35304.376915
47,35120.276734,34747.686745,34842.534272,34904.681106,36289.276496,34817.205051
48,35207.140766,35193.390817,34988.427740,35128.245766,35206.944621,35518.694889
49,35010.715324,34779.421374,35124.282791,35143.971106,35224.923143,34780.978209
50,35168.900752,35433.766906,34889.295628,35197.905302,35022.560415,35300.975509
51,35112.120072,34977.933909,35513.000632,34947.189045,35570.549462,34551.927313
52,34818.859647,35354.175598,35278.182643,33316.745740,34633.423585,35511.770672
53,35237.198478,35259.049598,35492.889647,35100.995338,35416.757362,34916.300449
54,35167.872213,35223.351921,35021.530189,35452.021677,34950.668632,35191.788649
55,35138.730933,34938.192951,35239.441989,35110.218045,35354.527826,35051.273855
56,35089.112057,35204.677134,35192.328206,34973.208755,35388.206072,34687.140119
57,35124.219025,34890.021591,35237.887287,35228.749038,35353.142777,34911.294432
58,35164.486478,35476.612657,34511.325964,35241.406360,35300.819440,35292.267972
59,34214.703218,35197.592509,32957.931047,34842.908398,33156.908794,34918.175345
60,34990.425775,34642.248853,34732.414119,35396.378477,34922.548855,35258.538572
61,34950.601593,34902.825262,35084.183926,34691.116217,35221.504398,34853.378162
62,35180.867444,35348.126774,35033.686900,34993.649940,35104.056038,35424.817570
63,35080.185638,35128.410781,35161.767506,35270.139598,34790.625249,35049.985060
64,35095.603814,35231.075357,34883.952611,35136.249081,34957.141881,35269.600140
65,35025.594544,34733.280896,35427.927930,35069.418383,35081.302804,34816.042711
66,34295.793240,32923.690994,35127.766857,35382.319764,34959.712694,33085.475894
67,35125.708241,35130.972936,35439.278187,34882.123170,35249.658119,34926.508794
68,34799.954002,35059.721266,34522.829896,35069.126311,34520.444277,34827.648260
69,35022.530650,34947.703177,35316.947617,35102.901738,35257.664138,34487.436583
70,35095.895508,35102.361566,35238.681474,35127.217670,35083.072821,34928.144011
71,34613.384638,34648.625998,35305.562026,35039.365500,33265.418774,34807.950896
72,34672.841938,32975.299287,34972.882132,35177.571304,34929.694457,35308.762511
73,34457.608479,34578.960089,33011.456928,34524.236802,35345.643198,34827.745379
74,35041.319527,35288.866094,34700.745768,35177.336423,34862.167315,35177.482038
75,34866.677145,34906.721913,35181.159330,34694.847198,34858.057985,34692.599302
76,34575.280214,35110.469636,34663.719526,35243.600864,34757.988304,33100.622743
77,35309.170612,34782.340243,35206.161562,34915.453168,36504.131321,35137.766768
78,34933.480907,34728.369636,34725.735400,35177.670753,34940.229572,35095.399177
79,34902.613905,35027.689332,35173.339611,34483.884000,35229.556619,34598.599966
80,34969.051686,34994.371074,35055.726332,34828.370136,34785.152660,35181.638232
81,35068.960994,35013.349651,35183.865604,34906.321530,35077.769245,35163.498940
82,35081.315939,35051.893783,34790.056926,35409.849794,35120.747898,35034.031298
83,34728.396165,34793.764238,34684.034553,34437.234645,34791.504985,34935.442404
84,34918.873043,35162.445700,34655.857728,34951.079030,35045.776768,34779.205991
85,34442.487855,34606.569166,35232.639966,34727.773253,32946.631543,34698.825347
86,34656.903548,32987.751857,34939.123330,35189.376155,35030.499989,35137.766409
87,34962.207463,34998.344915,34974.139687,34751.569932,35178.462381,34908.520400
88,35077.495499,35308.381589,34549.041953,35453.245081,34752.518251,35324.290621
89,34913.392146,34792.785311,35152.491700,34774.280281,34850.238562,34997.164879
90,35151.494190,35354.401640,34681.881502,35253.096687,35024.662015,35443.429106
91,34859.545380,34818.658172,34802.901828,35001.528840,34925.614249,34749.023813
92,34457.524883,34560.465757,34431.480685,33045.962096,35113.342415,35136.373466
93,34970.422370,34928.889979,34695.097979,34925.885955,35515.113034,34787.124904
94,35146.338285,35204.042674,34729.741804,35406.242798,34935.797004,35455.867149
95,34950.703598,34755.238677,35244.040298,34791.478228,35241.921009,34720.839779
96,35012.898069,34655.025457,34812.198372,35425.944964,34935.364706,35235.956847
97,35220.491105,34973.602098,35214.470185,34460.983919,36441.560221,35011.839104
98,35115.299132,35149.181274,34856.650460,35276.912734,35074.487496,35219.263698
99,35038.218205,35106.869472,35197.393226,34719.633740,35405.086728,34762.107860
100,35156.976085,35265.368164,34747.776736,35419.967145,34926.527604,35425.240779
101,35015.869388,34914.307438,35182.223304,35167.581530,34943.658200,34871.576472
102,34887.425811,34592.861400,35177.252255,34774.606638,34724.539709,35167.869053
103,34894.902166,34610.399830,35103.197887,34823.765362,35042.237321,34894.910430
104,34577.270595,34983.338519,34772.963372,35189.154932,34886.114009,33054.782147
105,35006.401951,34686.482464,35109.495132,34820.047647,35517.429313,34898.555202
106,35139.415514,34832.806502,35118.629796,35374.293279,34904.705670,35466.642326
107,34958.649596,34934.633581,34866.004238,34891.426138,35431.397209,34669.786815
108,35115.768379,34953.627415,34976.577177,35417.792689,35043.666704,35187.177913
109,34983.482364,34763.804049,35180.701681,34762.986134,35124.655028,35085.264928
110,35164.630501,35068.342694,34945.472804,35329.549796,35162.314383,35317.472828
111,35075.589568,35368.531906,34974.018336,35017.699615,34986.833070,35030.864913
112,34600.753006,35211.176289,34672.730115,32994.748536,34826.686826,35298.423268
113,34972.657993,34958.075762,35380.241545,34757.568874,34808.967528,34958.436257
114,35049.198422,34837.595909,34829.502866,35403.327532,35023.898509,35151.667296
115,34698.737447,35092.243768,35338.187747,35043.180262,35015.319083,33004.756379
116,34666.154944,33086.938021,34922.437874,35334.107983,34648.885994,35338.404849
117,35002.337702,34661.470540,35298.512987,34966.310800,35152.864321,34932.529866
118,34861.489560,34547.099860,35148.553670,35354.258815,34472.291302,34785.244155
119,34649.136501,34591.375251,33201.424774,35154.448011,35291.692064,35006.742409
120,34995.846020,35196.867987,34681.625557,35268.114234,34962.229306,34870.393017
121,34189.718756,32725.888502,35337.223632,34963.764621,33096.047232,34825.669794
122,34696.948271,33101.397221,35025.214879,34968.636904,34955.153183,35434.339172
123,34885.523587,34899.626068,35111.674496,34572.796257,35327.979645,34515.541472
124,35122.421422,35004.169168,35058.577304,35256.079570,34971.302255,35321.978817
125,34991.627315,34794.481628,35053.859945,35061.133440,35020.113015,35028.548547
126,35015.753849,35000.602474,34863.978217,35186.585209,34838.427402,35189.175947
127,35198.525159,35021.743287,34978.684455,34824.424838,36197.402523,34970.370696
128,35091.509366,35229.849621,34664.873047,35248.835389,35041.491081,35272.497694
129,34827.634401,34426.495489,35098.032272,34754.483419,34812.153566,35047.007262
130,35084.481869,35259.207340,35030.838077,35083.261683,34733.590857,35315.511389
131,34513.948123,34944.477879,35151.524700,34800.291738,32932.820936,34740.625364
132,34645.901519,35059.618628,34924.645855,33267.578443,34857.099617,35120.565055
133,35008.508717,35074.353323,35356.607498,34695.939777,35164.083968,34751.559019
134,34538.724883,35147.147913,34705.639126,33272.662872,34718.650494,34849.524011
135,34925.041930,34763.267572,35250.058149,34779.729172,35301.945887,34530.208870
136,34564.733192,32948.277151,34993.571013,34844.837009,34950.944828,35086.035962
137,35027.587073,34554.025451,35041.287343,34633.853372,36139.324326,34769.444877
138,34825.734164,34687.032926,34681.508855,35156.844670,34782.886217,34820.398153
139,34927.358645,34683.092638,35173.468604,34775.285432,35131.097487,34873.849066
140,34268.281011,34821.477187,35105.339991,33084.953255,34954.669983,33374.964640
141,34931.949930,34740.565230,35116.399600,34917.398394,35225.916770,34659.469657
142,34807.897841,32956.224766,35743.330113,35406.272272,34800.905447,35132.756611
143,34976.375686,34932.961177,35236.480515,34768.492091,35232.894828,34711.049819
144,35191.667753,35203.774979,34976.537662,35358.171681,35081.770062,35338.084383
145,35000.281714,34781.151485,35138.781062,34972.909317,35462.939132,34645.627577
146,34695.260206,35166.541813,34874.741728,33248.563000,34894.955277,35291.499213
147,35282.843406,34767.700936,35172.702006,35105.150396,36495.083109,34873.580583
148,35100.819568,35404.010500,34737.684034,35186.236983,34865.045277,35311.121047
149,35000.933399,34536.265991,35436.584060,35022.588819,35244.642109,34764.586019
150,34735.621950,35325.027240,35012.005426,35114.649670,35407.273294,32819.154123
151,34067.760905,34767.964338,33238.032349,34838.613898,32934.707806,34559.486136
152,34243.734281,34765.244474,33247.417789,33257.025257,35006.412996,34942.570889
153,34646.648903,34961.064294,33005.294851,35003.568977,35174.169238,35089.147157
154,34607.445571,33133.639009,35092.289309,34523.650183,35088.371057,35199.278298
155,34788.052078,34583.031598,34991.260257,34674.200443,34847.080868,34844.687226
156,34856.454985,35034.823781,34820.711672,34903.164111,34668.866302,34854.709062
157,34884.615206,35010.798170,34960.548183,34708.128232,34819.003313,34924.598132
158,35003.293697,35518.716336,34573.803883,34939.020815,34867.833523,35117.093932
159,35002.776915,34695.508055,35207.366840,35013.265432,34951.348011,35146.396240
160,34439.425420,34913.437328,34636.004932,34742.218140,34759.520123,33145.946579
161,34828.647867,34708.119915,34752.440600,34731.045113,35115.339494,34836.294217
162,35054.193746,35435.569374,34909.969272,35295.138666,34738.513134,34891.778287
163,34473.598022,34736.595355,34771.002530,34809.280585,32938.668915,35112.442728
164,34407.974872,33153.246030,34497.102160,35001.118211,34434.095864,34954.312096
165,34868.081036,34926.956191,34939.744828,34714.653660,35051.312138,34707.738364
166,34992.912864,35153.687798,34639.425104,34930.102268,34812.354896,35428.994257
167,34881.986532,34789.284336,35305.611832,34940.972609,34979.281204,34394.782679
168,34876.468850,35298.554543,34599.491796,34763.593181,34552.345083,35168.359651
169,35155.347304,34998.675779,35378.771026,34976.596768,35345.841215,35076.851736
170,35050.439650,35440.024609,34991.692668,34949.373068,34752.398647,35118.709262
171,34543.146272,35001.690626,32914.893200,34989.400609,34749.054721,35060.692204
172,35010.272748,35489.301991,34843.816947,35093.162396,34916.940294,34708.142115
173,35009.894309,35048.597336,34630.195860,35154.725321,35287.326951,34928.626077
174,34858.763191,35135.120930,34821.071347,35027.365655,34582.061715,34728.196309
175,34993.583219,34717.428343,35084.020874,35067.062604,35254.811957,34844.592317
176,34609.778725,35107.714606,34495.405857,35380.816904,34935.761315,33129.194945
177,34905.186098,34712.216251,34958.300528,35173.349926,34782.063602,34900.000183
178,35007.455344,34953.604864,34763.337936,35314.439389,34717.139815,35288.754719
179,34758.081697,34988.995285,35359.982194,35121.991777,35068.237098,33251.202132
180,34523.200682,35185.381517,34578.762504,33040.070853,34983.638132,34828.150406
181,34992.299432,34804.580813,35316.996709,35019.844723,35176.110589,34643.964330
182,34989.776603,35116.592291,34991.417453,35193.817362,34942.420645,34704.635264
183,34949.767932,34735.695630,35042.769353,34709.092551,35222.886462,35038.395668
184,34930.177421,34755.423566,34847.127919,35118.565153,34864.959528,35064.810940
185,34645.452695,34737.625406,35425.003096,34910.691455,33190.371757,34963.571762
186,35060.159400,35029.464023,35216.496562,35103.773411,34796.573145,35154.489862
187,34558.583025,34977.586562,33265.325845,34771.739281,35089.178855,34689.084583
188,35134.335893,35032.058479,34908.499932,35356.456370,34976.977426,35397.687260
189,35022.007110,35020.780598,34970.160153,35011.888183,35439.183794,34668.022826
190,35036.633938,35356.828234,34999.594481,35276.956813,34602.218089,34947.572077
191,34986.142850,34881.354194,35074.030745,35113.137840,34970.900704,34891.290770
192,34446.242545,33279.981689,34428.783721,34570.030794,34846.096540,35106.319983
193,34912.646080,34744.391853,35293.571628,34633.085906,35320.877717,34571.303300
194,35078.808886,35108.585779,34808.130474,35192.508872,35018.789911,35266.029396
195,34811.423167,34733.760645,34821.858972,34733.406370,35068.912338,34699.177511
196,34989.968190,35012.733123,34929.694743,35037.773021,34921.726513,35047.913551
197,34868.255292,34525.192309,35283.119777,34813.846540,34624.115166,35095.002670
198,35074.156757,35391.597336,35081.006347,35217.515668,34419.151336,35261.513102
199,34946.217936,34616.726619,35318.479423,34631.688685,35313.078034,34851.116923
200,34833.780210,35095.529689,34631.681279,35100.599685,34761.344013,34579.746387
201,35106.513119,35049.009815,35273.698689,35077.205181,34903.031272,35229.620640
202,34891.429387,34510.908726,34810.727757,34889.241519,34883.110870,35363.158064
203,34767.567813,34588.576043,34829.913547,34832.276298,34928.572372,34658.500806
204,34563.668146,35131.295623,34840.526551,33327.600226,34816.941221,34701.977109
205,34577.779898,34945.233828,33016.466394,35010.673532,35100.345587,34816.180149
206,34639.122354,35174.610300,34580.202268,33214.679409,34939.990430,35286.129364
207,34903.062753,34990.933700,35085.000253,34695.065645,35058.343423,34685.970747
208,34685.639020,35076.845047,34782.137440,35440.396309,34715.023674,33413.792632
209,34886.958815,34581.116872,35071.743338,34874.294983,35098.726596,34808.912287
210,34989.737496,34656.395655,34936.329719,35362.266666,34956.095504,35037.599936
211,35087.771812,34865.341060,35235.284838,35447.225400,35296.707185,34594.300581
212,35021.317797,35023.663749,34986.607445,35266.846109,35034.391711,34795.079974
213,34875.570821,34949.272023,35067.252579,34957.218311,34745.729043,34658.382149
214,34652.079970,35383.528206,34909.547232,33070.283989,34489.670315,35407.370109
215,34804.598780,34985.793400,34747.378700,34730.979900,35202.039926,34356.801977
216,35127.855292,35429.116951,34842.497317,35180.102428,34960.576028,35226.983740
217,35002.972965,34619.501251,35197.949247,34965.424770,35332.728160,34899.261400
218,34925.324620,35114.003981,34749.503619,34505.950006,34856.827851,35400.337643
219,34925.850669,34714.968726,35307.986485,34808.587730,35062.575055,34735.135349
220,35068.463904,35172.735509,34842.273513,35400.943566,34826.741787,35099.625145
221,34992.179052,35006.338115,34966.204245,34907.970717,35095.118821,34985.263364
222,35029.470446,35003.543321,35046.282462,35112.775557,34977.191528,35007.559362
223,34795.125496,34740.704315,35072.286977,34454.994023,34836.112468,34871.529698
224,35026.712821,35352.906379,34779.622228,35363.648147,34921.301311,34716.086043
225,34910.186326,35019.024449,35066.296730,34764.321053,35163.960219,34537.329181
226,34872.569206,34635.881268,34841.640947,34889.666268,34980.832838,35014.824709
227,35205.017814,34813.671651,34655.379581,35094.355215,36508.975266,34952.707357
228,34895.483534,34766.902881,34814.632215,35109.621432,34942.695789,34843.565357
229,35067.782998,35129.637421,35297.406660,34491.975228,35196.402028,35223.493655
230,34730.565776,33370.290783,34732.244174,35172.272198,35025.839185,35352.182540
231,34961.257035,34957.548483,35093.809489,34822.936657,35257.144077,34674.846470
232,35063.046941,35060.149326,34982.041430,35115.030315,34871.131657,35286.881981
233,34827.061051,34471.121223,35169.974226,34765.810160,35000.600240,34727.799409
234,34564.373786,33181.999266,35016.673285,34490.089821,34712.186032,35420.920528
235,34523.444280,34762.720253,33026.541415,34798.202800,35074.168049,34955.588883
236,34061.066521,32738.099106,34714.213440,35125.571051,34645.407370,33082.041640
237,34967.885020,34852.141534,35120.122685,34970.694670,34910.391013,34986.075200
238,35031.834356,35393.524153,34954.809500,35022.684772,34690.629491,35097.523866
239,35121.960581,34953.821274,35225.765472,34943.819253,35328.442087,35157.954821
240,34897.967547,35178.733832,34575.008383,35100.014594,34668.305115,34967.775813
241,34971.851037,34897.846794,35229.315681,34785.112553,35308.544528,34638.435630
242,34936.513741,35190.359340,34555.107247,35211.074498,34683.556377,35042.471243
243,34527.767865,34967.189381,35181.668336,34891.734815,32826.474340,34771.772457
244,34960.129409,35072.957032,34760.887660,34848.783151,34826.123862,35291.895343
245,34864.677711,34557.023153,35426.752938,34566.227557,35047.726660,34725.658247
246,35000.685628,34821.387789,34911.340600,35265.193043,34654.373749,35351.132960
247,34566.068394,34959.036736,33140.705760,35013.981730,34894.584351,34822.033396
248,34599.687448,35377.770987,34742.364228,34751.875553,34988.380974,33138.045502
249,35054.859372,34865.889919,35266.553304,34908.966034,35326.660515,34906.227091
250,35072.696920,35031.482306,34733.864130,35206.598268,34998.871851,35392.668047
251,34936.932490,35022.704213,35197.300779,34742.430449,35068.301796,34653.925215
252,35108.932584,34884.586430,34950.173538,35348.442934,34961.057845,35400.402177
253,34945.195143,34925.906340,35052.416743,34780.885066,34967.055664,34999.711904
254,34958.406265,34773.019455,34817.352828,35346.489306,34403.879438,35451.290300
255,34399.499352,34908.596136,34688.472602,34492.611336,33160.147664,34747.669026
256,34566.714825,35058.075934,34392.650332,35293.465406,35192.530655,32896.851798
257,34941.384677,34607.790385,34987.560989,34858.257028,35276.587419,34976.727564
258,35012.834523,35220.030930,34833.033004,35087.416215,34758.822160,35164.870309
259,34939.116574,34972.741185,35166.894136,34818.190181,35185.192272,34552.565096
260,35091.185361,35080.419479,34861.322787,35347.701936,34910.396713,35256.085891
261,34948.609941,34883.462047,35207.620289,34443.137636,35397.250751,34811.578985
262,34956.528638,35424.162962,34764.422936,34632.179904,34794.443894,35167.433496
263,35003.198117,34749.258523,35150.761053,34824.981332,35227.371602,35063.618077
264,35028.867257,35023.272383,34729.567228,35120.548877,34820.995396,35449.952402
265,34873.951310,34993.987770,35169.702974,34355.614923,35159.571630,34690.879257
266,34963.499188,34837.968615,34828.714053,35194.494874,34975.160019,34981.158383
267,34751.168804,34445.186732,34665.783753,34957.667706,35123.248317,34563.957515
268,35025.210310,35459.177657,34971.805272,34810.498955,34853.442934,35031.126734
269,34987.768230,34874.115009,35153.367909,35079.282855,35005.557626,34826.517753
270,34180.143794,33178.897172,34382.827006,35383.556319,34867.045738,33088.392738
271,35020.224144,34818.915402,35247.211162,34746.202949,35282.853466,35005.937743
272,34994.826258,35251.293972,34631.588285,35012.009302,34744.041891,35335.197840
273,34955.890962,34956.442626,35032.115149,34787.111489,35359.768238,34644.017311
274,35172.912968,35194.263077,36049.877117,35339.664904,34442.156564,34838.603179
275,35027.859865,34687.497772,35267.970374,35082.839336,35086.010032,35014.981813
276,35172.965287,35088.699877,35345.116343,35292.334900,35009.049151,35129.626164
277,34915.461046,34721.833391,35308.273068,34761.298868,35227.973519,34557.926387
278,34526.408284,34985.663719,34823.529600,34732.273562,35048.968987,33041.605553
279,34748.929388,34610.082747,34827.728519,34794.063940,34914.820549,34597.951185
280,35118.050937,35215.205009,34898.365081,35128.224817,34954.313611,35394.146168
281,34831.548080,34765.140385,35148.571947,34686.696940,34837.276415,34720.054715
282,34844.056577,34760.249634,35235.345762,34680.187119,34699.934987,34844.565385
283,34488.936238,34704.617174,32975.302691,34931.318523,35042.155640,34791.287162
284,35014.077051,34993.147691,35036.598619,34996.171251,34643.814885,35400.652809
285,34837.758731,34535.165638,34582.652766,34950.295902,35128.438868,34992.240485
286,34964.641598,35312.361372,34649.301219,35264.791304,34441.060819,35155.693277
287,34945.698571,34927.648132,34875.099560,34979.379134,35167.987466,34778.378564
288,34477.414737,32618.423479,34740.244823,35128.952274,34729.647228,35169.805885
289,34913.678148,35017.717289,34993.804519,35047.419423,34982.381045,34527.068468
290,34815.157132,35078.703423,34402.806755,35004.091245,34454.195917,35135.988321
291,34810.718038,34496.936411,34627.865430,34938.218657,35383.309943,34607.259751
292,34171.976328,34507.674804,34694.537745,33049.018432,33194.374368,35414.276294
293,34820.760846,34925.314536,34838.162634,34440.883726,35049.598160,34849.845177
294,35005.454100,35365.863804,34901.198772,34879.553672,34988.824770,34891.829485
295,34820.735497,34979.278374,34792.515543,34898.506432,34683.755813,34749.621323
296,35172.683900,35409.273396,34965.670566,35149.932564,34909.196502,35429.346474
297,34974.649510,34780.538889,34952.491617,35032.423894,35243.345268,34864.447883
298,34941.381180,35400.767202,34916.380557,34656.385164,34664.389583,35068.983396
299,34919.570772,34920.246260,34728.265034,34859.764028,35378.514885,34711.063657
300,34868.919055,34989.935553,34674.747455,35217.502804,34739.083496,34723.325968
301,34814.188382,34822.587664,34686.810566,34310.360245,35285.333002,34965.850436
302,34714.539359,33043.762179,34972.617677,35457.799260,34745.375836,35353.141843
303,34581.032699,34845.199313,32810.211311,34868.336321,35324.468851,35056.947700
304,34910.187563,35125.799002,36229.093277,33116.665791,34845.419100,35233.960649
305,34960.775475,34884.507945,35047.296279,34873.641806,35021.820662,34976.610685
306,34917.186540,34823.407115,34747.930840,34985.079721,34693.591245,35335.923781
307,34835.229305,34330.766272,34676.560549,34897.371728,35292.461760,34978.986219
308,35030.077445,35265.946604,34786.667036,35029.420623,34998.680683,35069.672281
309,34674.059869,34880.961370,35180.722411,34911.389932,33293.568383,35103.657253
310,34804.169767,34677.211591,34452.818043,34927.424943,34823.225264,35140.168996
311,34850.019209,34370.275815,35257.704115,34502.993815,35397.947102,34721.175202
312,34789.582312,35449.998349,33199.689996,35229.911247,34710.775689,35357.536281
313,35000.012351,35055.039568,35404.992385,34378.676713,35263.711691,34897.641400
314,35032.173963,35194.083970,34759.176947,35149.478647,35017.275426,35040.854826
315,34430.040423,34678.646615,34802.170049,34981.320285,33298.556051,34389.509115
316,34738.387782,33221.442583,34917.252574,35303.004011,34836.336600,35413.903143
317,34938.433773,34937.999255,35287.530598,34987.464677,34820.225162,34658.949177
318,34678.099593,33147.745483,34870.289494,35167.669889,35136.565383,35068.227717
319,34928.278396,34793.893653,35019.781662,34717.051902,35253.554355,34857.110409
320,34798.977607,35206.734866,34985.979138,35320.381168,34689.753972,33792.038891
321,34951.045323,34822.426162,35118.317283,34804.074449,35212.109372,34798.299349
322,34219.682836,33062.168551,35002.433017,34953.083526,34985.130668,33095.598419
323,35118.482049,34895.665136,35488.517615,35164.945623,35246.533077,34796.748798
324,34924.304695,35351.393717,34599.801721,35127.415483,34616.177287,34926.735270
325,34878.736911,34491.074077,35339.822585,34933.524189,34876.305185,34752.958519
326,35046.512055,34930.677317,34863.756800,35284.745898,34940.243894,35213.136368
327,35035.589107,34718.390723,35492.832474,34992.788334,35348.091572,34625.842432
328,34872.314453,35140.486319,34760.239249,35054.154579,34732.698696,34673.993426
329,35006.550895,35063.043466,35341.142994,34653.703272,35407.758947,34567.105798
330,34570.111563,32890.808453,34926.940481,35124.615891,34812.056140,35096.136853
331,34933.535931,34963.861213,35052.280634,34743.617381,34869.696200,35038.224230
332,34548.592718,35376.381664,34674.085162,33200.804440,34930.878330,34560.813996
333,34173.078231,34992.433104,33217.214034,32932.379932,34709.216960,35014.147126
334,34527.432283,35192.665281,34557.958062,34856.163770,34886.627602,33143.746700
335,34914.689500,35113.892121,34895.029183,34676.374268,35236.096034,34652.055894
336,34892.414246,35061.473298,34703.631879,34890.688521,34975.922268,34830.355264
337,34020.021694,34473.386589,32688.457551,34815.357338,33172.859647,34950.047345
338,34119.200453,35247.534432,34955.436417,32930.086809,34753.587387,32709.357221
339,35116.009855,34813.725789,35315.268898,35053.253487,35545.597134,34852.203968
340,34771.656244,33316.388126,34937.196672,35391.016474,35085.325500,35128.354451
341,34832.524628,34799.795179,34800.907438,34825.448915,34771.940011,34964.531598
342,35063.387254,35026.596291,34920.975530,35280.418457,34986.399481,35102.546515
343,34392.111911,34823.115166,34957.668734,34863.135551,32580.257243,34736.382862
344,34843.049511,34932.834447,34700.738198,35110.795874,34395.312236,35075.566804
345,34469.103937,34849.338296,33148.584302,34732.680013,35033.470191,34581.446887
346,34922.733842,35264.908962,34480.449536,34965.199230,34749.954734,35153.156751
347,35031.546511,34876.757953,35403.923330,34622.707391,35394.100185,34860.243700
348,34928.205847,34783.636570,34813.309449,35066.234491,34894.890577,35082.958151
349,35108.775692,35262.652017,35015.936900,35021.153749,35355.972919,34888.162877
350,34947.096584,35247.005547,34672.901577,35051.890685,34837.804217,34925.880898
351,34058.432201,34941.854177,33161.239030,34672.997947,32952.241266,34563.828589
352,34836.031496,34874.534619,34475.436611,35031.386164,34765.296883,35033.503204
353,34993.450573,34868.612783,35412.442070,34763.648345,35183.966964,34738.582704
354,34949.121236,35363.990806,34777.543181,34627.654115,34820.849934,35155.568145
355,34449.476783,34784.966977,32929.300674,34812.224753,34829.757123,34891.134391
356,34678.075975,34663.943311,34585.147445,35122.027191,34458.141928,34561.120004
357,35021.469196,34802.353021,35370.590577,34773.538202,35350.617249,34810.246932
358,35037.989016,35357.792815,34854.192062,34802.481851,34786.969494,35388.508862
359,34937.754013,34335.838728,35232.463279,34802.339523,35491.892128,34826.236409
360,35024.200558,35121.379230,34993.778347,35302.424274,34474.966977,35228.453964
361,34127.311748,35122.249715,33000.273811,34928.991387,32847.366540,34737.677291
362,34615.072963,35053.784298,35054.415223,32808.711111,35036.091911,35122.362274
363,35073.830362,34887.102413,35392.123243,34852.154347,35372.772845,34864.998966
364,34937.779618,35224.525596,34424.289938,35092.417160,34740.358966,35207.306434
365,34381.523939,34530.182877,34630.217113,34628.574596,33285.458477,34833.186632
366,34540.487564,34916.850200,34923.940351,35138.023689,34741.098936,32982.524645
367,34862.711882,34846.290070,35366.130281,34597.484523,34830.995785,34672.658751
368,35048.562877,35327.003483,34743.711702,35173.659955,34597.124966,35401.314279
369,34863.815583,34552.363847,35315.998326,34873.566132,34880.365711,34696.783900
370,34867.904266,35149.616826,34557.803664,35093.890428,34414.181928,35124.028487
371,34869.295040,34351.088343,35126.475291,34832.396179,35182.289868,34854.225521
372,35067.358209,35403.045302,35005.631432,35146.765745,34670.949570,35110.398998
373,34904.720812,34828.426855,35019.864489,34804.229379,35350.089245,34520.994094
374,34703.821208,35085.419011,36074.599455,34932.051772,34466.953119,32960.082683
375,34920.613184,34865.403853,34987.236077,34702.438632,34952.368574,35095.618785
376,35046.383420,35530.998862,34807.510143,34767.005009,34921.379011,35205.024077
377,34997.890775,34853.651017,35318.350389,34804.040543,35275.156087,34738.255840
378,35015.587480,35288.916126,34991.301257,34889.978700,34715.691338,35192.049983
379,34455.378147,34803.812860,35145.743047,34989.004913,32943.042523,34395.287396
380,34675.161764,35025.662883,34800.203296,33368.843715,35004.148515,35176.950411
381,34821.219532,34698.032574,34966.878728,34466.431387,35191.357753,34783.397221
382,34993.344446,34981.860917,35039.244953,34864.732262,34831.030970,35249.853132
383,34999.878798,34884.851026,34861.242117,34842.909102,35299.369845,35111.021902
384,35035.808892,35106.856321,34702.989640,35349.407843,34985.844579,35033.946081
385,34810.353459,34648.493900,34996.705100,34363.574630,35320.815051,34722.178615
386,35029.536345,35031.525477,35056.636128,35161.241485,34974.624779,34923.653860
387,34981.725095,34864.900909,35327.991677,34750.916670,35011.048766,34953.767453
388,35050.893185,35301.538013,34703.681432,35010.938987,35052.212743,35186.094751
389,34985.922965,34928.076009,35415.094970,34979.083262,34983.394726,34623.965862
390,34976.096810,34908.786121,35274.244662,35401.027355,34566.914104,34729.511811
391,34485.684172,34831.512904,35030.879298,34864.461847,32957.815849,34743.750962
392,34659.630100,35133.860870,34849.937677,35226.461560,34838.850123,33249.040270
393,34869.527673,34716.902143,34593.846643,34897.565372,35362.751260,34776.572947
394,35015.417339,35420.611996,34780.360777,34715.648372,34926.909872,35233.555681
395,34854.789747,34463.067668,35077.605389,34642.519179,35048.729989,35042.026513
396,34573.922356,33009.399985,34955.580134,35107.635553,34731.307874,35065.688236
397,35027.248459,34854.833362,34848.227855,35307.053185,35288.366951,34837.760945
398,34225.761784,33038.816089,34966.230060,34867.046343,35237.307700,33019.408728
399,34465.417058,34470.654874,32950.577462,34772.243496,35376.761826,34756.847634
400,34586.871417,32812.255355,35033.296481,34833.418423,34935.951374,35319.435453
401,34749.015885,34940.340798,34611.853136,34817.083470,34972.012311,34403.789713
402,34512.080145,34927.954013,34678.081266,32897.224985,34949.419104,35107.721357
403,34916.170445,34737.666066,35088.302770,34876.607898,34921.319460,34956.956034
404,35146.164198,35420.270249,34756.069234,35238.869451,34821.585145,35494.026911
405,35048.507435,34785.676257,35267.653419,34951.028847,35294.845111,34943.333545
406,34949.849190,34799.314862,34532.057030,35291.284768,34735.398281,35391.191011
407,35034.338796,34772.726317,35416.854494,34699.095430,35271.638062,35011.379681
408,34954.624965,34996.254747,34727.285417,35209.561766,34694.115187,35145.907709
409,34880.255898,34703.123432,35137.783162,34894.161523,35309.912834,34356.298543
410,35107.813493,35263.715532,34958.010979,35589.793636,34567.430721,35160.116598
411,35060.400104,35246.918211,35075.666738,34982.400970,35298.578911,34698.435694
412,34554.730346,32964.381653,35215.420660,35239.922111,34532.765500,34821.161809
413,34462.366123,34688.201545,33170.289445,34645.816426,34771.591247,35035.931955
414,34924.735920,35167.406094,34733.326898,35422.053440,34401.984491,34898.908681
415,34958.354139,34671.322251,35146.800162,34984.948460,35267.796768,34720.903057
416,35053.145171,35097.488617,34716.345570,35289.520989,35342.164911,34820.205770
417,35014.595040,34983.381832,35188.625174,34690.174357,35228.831543,34981.962296
418,34126.763717,34945.883528,34789.354072,32798.338289,34862.589051,33237.653647
419,34957.305658,34818.932013,35018.631436,35091.756530,34866.555804,34990.652511
420,34822.961041,35049.634496,34376.897217,34814.914498,34812.628379,35060.730615
421,34510.490047,34694.819106,32991.937843,34856.402049,35280.506645,34728.784594
422,34273.184492,35011.894113,34645.299289,33889.728662,34898.489445,32920.510955
423,34394.327788,34737.502249,35242.347217,34888.407574,32685.394838,34417.987066
424,34483.609551,33328.345349,34435.010291,35116.178494,34720.799089,34817.714532
425,34540.117978,34783.942470,33236.885049,34701.610634,35080.699460,34897.452281
426,33743.752491,32868.437291,35020.752611,33003.417017,34590.641002,33235.514538
427,35135.765074,34702.638532,35187.817257,35397.985726,35059.475236,35330.908623
428,34877.801155,34993.649489,35169.221432,34649.361960,34396.813083,35179.959815
429,34965.878954,34870.752000,34973.228332,34879.589951,35253.766672,34852.057815
430,34984.078626,34959.398502,34820.967760,35237.445783,34843.380413,35059.200672
431,34743.656708,34648.990809,35288.221064,34560.846038,34476.385553,34743.840077
432,34961.130812,35427.356711,34684.395943,35329.168049,34443.317343,34921.416017
433,34470.109636,34863.114140,32755.048411,34908.404402,34885.581619,34938.399611
434,35201.534316,35191.170832,35768.831272,35360.085764,34401.867721,35285.715991
435,34964.897893,35065.349143,34714.555591,34832.632111,35387.082581,34824.870043
436,34734.802246,33093.021632,35022.784326,35259.798766,34920.460966,35377.945540
437,34540.421265,34891.244343,35159.551334,34875.764640,32956.461677,34819.084332
438,34367.320918,34723.905555,35012.385547,34624.811215,34785.802798,32689.699477
439,35027.594009,35008.192609,34982.536413,34832.008796,35365.678068,34949.554160
440,34997.042340,35213.196409,35075.144004,35019.591557,34549.771491,35127.508240
441,34747.925585,33544.145962,35129.393787,35025.074672,35263.328055,34777.685453
442,34550.055561,35253.550083,34735.168087,34974.444255,34740.150419,33046.964964
443,34496.981782,34317.030840,35092.866117,34873.786553,33284.256734,34916.968670
444,35063.129454,34883.218538,34968.810257,35012.097934,35029.974528,35421.546015
445,34901.323009,34786.976057,35043.145860,34458.912251,35382.864047,34834.716832
446,35008.879343,35292.653115,34364.051074,35289.368562,35281.679351,34816.644617
447,34630.320568,34870.393911,35264.512098,34856.060104,33144.293670,35016.343060
448,34590.745547,32708.814383,34661.219236,35285.488643,34859.586179,35438.619294
449,35026.612207,34940.418647,35211.387506,34622.776077,35382.692996,34975.785809
450,34654.598865,35114.834862,34951.472043,33299.208479,34468.389228,35439.089715
451,34901.936924,34784.273402,35043.862664,34767.229647,35049.875023,34864.443887
452,34822.244588,34798.014349,34386.744428,34497.515168,35160.701534,35268.247464
453,34915.329019,34861.583051,35289.849232,34399.303887,35183.747104,34842.161821
454,34655.887613,34893.039883,34871.512802,35298.813115,35027.567800,33188.504468
455,34903.220680,35026.186428,34813.710670,34723.447768,35093.864915,34858.893621
456,34678.806478,35432.248289,34720.672621,35289.171206,34785.827355,33166.112919
457,34936.892311,34878.163955,35318.712832,34936.462955,34742.337723,34808.784091
458,35080.830067,35079.575353,34833.232030,35381.769519,35104.008917,35005.564517
459,35006.983301,34628.461528,35103.552064,34635.499189,35462.355379,35205.048345
460,34306.942650,35304.649491,34837.043255,33245.615255,34950.509106,33196.896147
461,34614.405529,34987.183494,33078.850698,34803.780336,35392.344343,34809.868777
462,34950.611871,35027.790323,34588.099572,35096.459577,35003.204902,35037.504981
463,34952.894368,34733.764643,35293.853166,34605.495413,35228.288774,34903.069847
464,34913.288318,35000.163857,34829.286215,35005.691902,34671.218113,35060.081506
465,34894.434606,34849.010572,35265.577128,34600.704821,35115.957870,34640.922643
466,34593.101568,32922.715498,34815.956581,35070.762228,35083.133404,35072.940130
467,34907.386922,34939.600291,35326.773511,34895.135345,35013.911296,34361.514170
468,34946.086137,35141.501443,34409.644287,35064.918298,34866.309472,35248.057185
469,35030.684338,35020.463113,35214.907479,34935.412313,35258.309657,34724.329130
470,35156.808235,35433.957153,34928.265694,35324.359417,34660.800968,35436.657945
471,34049.564841,34565.589702,32803.157226,34928.610128,33083.141247,34867.325906
472,34606.321667,32967.291481,34634.138019,35253.603323,34844.154085,35332.421428
473,35057.392337,34717.627583,35388.044332,35167.355774,35115.948979,34897.985017
474,35070.338284,35204.301649,34949.616702,35332.645234,34855.038279,35010.089560
475,35122.502280,34992.817674,35191.961591,34915.256515,35413.986845,35098.488777
476,34968.467956,34938.990523,34640.291726,35209.255432,34821.959621,35231.842481
477,34521.198046,34709.761168,33085.178894,34768.943987,34812.656421,35229.449760
478,34933.911650,35118.863126,34748.903449,35122.588411,34989.418694,34689.784572
479,34854.413049,34746.171638,35268.213313,34725.067560,35113.343823,34419.268913
480,35057.974999,35097.949223,35058.053717,35122.114755,34730.408419,35281.348881
481,34967.606870,34839.792857,34887.180079,34770.434834,35270.143364,35070.483217
482,34627.710263,33019.891681,34964.645568,35392.024853,34650.997194,35110.992019
483,34746.735353,34462.157953,34688.514191,34940.218936,34965.613283,34677.172406
484,35140.604804,34732.771751,36196.757264,35098.397551,34845.416340,34829.681115
485,34442.434200,34831.218338,35162.435736,34626.850747,33067.107468,34524.558715
486,35141.351441,35060.324736,35009.778083,35024.362026,35168.964094,35443.328266
487,34966.269095,35013.469581,35065.408279,34866.064732,35058.204453,34828.198434
488,34974.646103,35001.234243,34823.191732,34999.339570,34952.030279,35097.434691
489,35077.743378,34851.812015,35269.927862,34922.945572,35277.600036,35066.431406
490,34997.028853,35178.273089,35027.965787,35005.028915,34391.094685,35382.781789
491,35042.289077,34829.833274,35151.648404,35228.633715,35291.863345,34709.466649
492,34482.637296,35110.860245,34839.420440,33209.118700,34456.890432,34796.896664
493,34805.775028,34618.145317,35070.510649,34721.110853,34557.941021,35061.167304
494,35266.568576,34547.152406,36223.278136,35435.316855,34726.190974,35400.904509
495,34826.889511,34490.863804,35282.441238,34802.860291,35036.284562,34521.997662
496,34994.234437,35131.006936,34959.020391,35022.612102,34805.572613,35052.960145
497,35034.882478,34598.338698,35077.414832,35052.703662,35459.157321,34986.797879
498,34986.090749,35043.789047,34721.531749,34976.316817,34826.451234,35362.364900
499,34908.771568,35104.840726,34975.463481,34667.326445,35122.046332,34674.180857
500,35167.452623,35365.059496,34841.148843,35284.813715,35039.179713,35307.061351
501,34433.150546,34873.544704,34814.867070,34937.531643,32773.906577,34765.902738
502,34939.841090,34994.264174,34724.999751,35240.353204,34328.788072,35410.800249
503,35001.553301,34939.967226,35418.386511,34900.791309,34914.964538,34833.656923
504,34546.044509,35110.853274,34697.630643,35113.644249,34885.449385,32922.644994
505,35026.918571,34710.572926,35136.874383,35189.473996,35096.900879,35000.770674
506,34611.183642,35072.609413,34902.425102,33170.598864,34803.414840,35106.869991
507,34943.006641,34933.699019,35270.580955,34724.763115,34790.769845,34995.220272
508,34868.278052,35141.707517,34421.733355,34816.334300,34809.968091,35151.646998
509,35024.833301,34703.915430,35450.393191,34796.216087,35232.008115,34941.633685
510,34955.413025,34721.823974,34661.219894,35277.313679,34931.070417,35185.637164
511,35175.159250,35054.692236,35436.003140,35035.307513,35388.351032,34961.442330
512,35139.073132,35146.571753,34745.400809,35369.221249,34997.114140,35437.057711
513,34851.715742,34622.995630,35319.617406,34747.842134,35024.727470,34543.396072
514,34967.474016,35411.123072,34940.084155,34602.430564,34451.921006,35431.811287
515,35079.386695,35268.163932,35308.073285,34645.441609,35259.133528,34916.121121
516,35176.415316,35274.436438,35331.863243,35273.641981,34865.174643,35136.960277
517,34880.410592,35079.057187,35323.508153,34913.866451,34550.429615,34535.191555
518,34941.412576,34737.319719,34997.680296,35350.534374,34534.047955,35087.480540
519,34969.637856,34665.670330,35161.486938,35079.444762,35328.102230,34613.485023
520,34875.338592,34609.792417,34739.359134,35188.870447,34709.682885,35128.988077
521,35042.126735,34999.697664,35429.929217,34840.634798,35383.288289,34557.083711
522,34482.156836,33235.313111,34782.258477,34528.265402,34867.961060,34996.986130
523,34871.521512,34830.588157,34962.740411,34833.377591,35201.694064,34529.207338
524,34536.781372,32781.452247,34726.958347,35263.129828,34737.535594,35174.830847
525,35038.193689,34808.681740,35261.711326,35059.599955,35394.371217,34666.604211
526,34863.367421,34814.035606,34854.115409,34802.279636,34835.497436,35010.909019
527,34990.004975,34669.792779,35159.628811,34918.992296,35164.747928,35036.863064
528,34614.914338,34999.191481,35195.193583,33003.937115,34749.712113,35126.537402
529,34897.770747,34571.531847,35415.649023,34718.106668,35088.708102,34694.858098
530,34869.069015,35086.506240,34821.932274,34717.294206,34501.377485,35218.234870
531,34914.686347,34991.848557,34949.713245,34670.158691,35341.529077,34620.182166
532,35031.311497,35351.289343,34628.080919,35115.836872,34953.594800,35107.755551
533,34970.670685,34805.740206,35364.898243,35049.444740,34803.273394,34829.996845
534,35004.818420,35115.895428,35064.189313,34753.393760,35017.838104,35072.775498
535,35096.461936,35105.451632,34863.303836,35108.195409,35352.877694,35052.481113
536,34572.476194,33178.056855,34731.812334,35372.322464,34512.881462,35067.307855
537,35014.686981,35234.551785,35112.273798,34689.234615,35305.531217,34731.843491
538,35023.422995,35142.336383,34571.752113,35192.902657,35001.400313,35208.723511
539,34929.739403,34988.079062,35237.024040,34724.652864,34835.605498,34863.335551
540,35040.643820,35090.812196,34850.131613,34992.350270,34960.007330,35309.917691
541,34875.966618,34715.205191,35114.059511,34713.647153,34809.330585,35027.590653
542,35302.886519,35299.804785,35378.886089,35459.307691,35021.106404,35355.327628
543,35023.736553,34778.199957,35162.679321,34961.162674,35185.569113,35031.071702
544,35038.739170,35065.570045,34981.329432,35395.318153,34979.525115,34771.953106
545,34801.045488,34540.925906,34993.578098,34332.289238,35402.291296,34736.142904
546,34938.335099,34930.656409,34829.411491,35155.795221,34763.980060,35011.832317
547,34716.420488,34838.676566,35168.890366,35866.570921,33090.566821,34617.397768
548,34975.105759,35058.352698,34768.808906,35054.959036,34560.111666,35433.296489
549,35012.744096,35022.671500,34806.052628,34958.118685,35340.281838,34936.595832
550,35064.081897,35281.511538,34720.158870,35278.847109,34909.368785,35130.523187
551,34843.370405,34920.956498,34993.935411,34530.094964,34918.147891,34853.717262
552,34505.325927,33137.948104,34861.648821,34893.027074,34699.436883,34934.568753
553,34826.942258,34723.395017,35203.855691,34917.182491,34601.078819,34689.199274
554,34515.538261,35010.903764,34695.991470,32680.652394,34946.450987,35243.692694
555,34802.788821,34677.394685,34875.271321,34680.072830,35074.461655,34706.743617
556,35106.104320,35351.686723,35276.065660,34922.112379,34662.266928,35318.389911
557,34873.422863,35012.103487,35329.513766,34384.057894,34887.801443,34753.637728
558,35053.834153,34770.876315,35047.295204,35133.769066,34887.431540,35429.798640
559,34479.227788,34748.637555,32573.240743,35028.143983,35252.699523,34793.417138
560,34966.357931,34816.133140,34739.979549,35210.879677,34674.261004,35390.536289
561,34466.186763,34937.459234,32928.737909,34584.706706,35189.219157,34690.810811
562,34934.494679,35223.911174,34407.369481,34976.455404,34809.857238,35254.880102
563,34671.505645,35037.953943,32916.027260,35186.112989,35284.299855,34933.134181
564,34946.745204,35209.607868,34800.244774,35318.574081,34761.763762,34643.535536
565,34931.888716,34910.766481,35084.767760,34585.252577,35136.920421,34941.736345
566,35096.304660,35385.203596,34839.108002,35301.714802,34870.133670,35085.363230
567,34951.699400,34684.717606,35146.518026,34990.559874,35416.663728,34520.037770
568,34782.363387,34894.392706,34900.063134,33386.132730,35408.490953,35322.737415
569,34864.510983,34850.272160,34750.815983,34782.362255,35263.381828,34675.722691
570,34634.169175,35153.716111,34987.598470,32841.889694,34920.584391,35267.057209
571,34841.918086,35101.811596,35299.048651,34587.717051,34771.989006,34449.024130
572,34966.463029,35146.860517,34682.681389,34777.646932,34968.097666,35257.028643
573,34904.363582,35190.660949,34899.101251,34896.572906,34513.394764,35022.088043
574,34664.664609,35439.808879,34832.340055,35192.353532,34765.662906,33093.157677
575,34938.880076,34998.107421,35143.365121,34964.280002,34907.473132,34681.174704
576,34523.965071,33161.448549,34567.289219,35152.082723,34573.630311,35165.374555
577,34431.397585,35059.667604,35067.667500,34552.172338,32916.361553,34561.118932
578,34608.116227,34872.203519,34679.153619,35123.725036,35247.077104,33118.421857
579,34605.148801,34681.773757,33119.546160,35002.983362,35203.306351,35018.134377
580,34553.118330,35239.449660,34727.757519,33187.376672,34492.139760,35118.868040
581,34913.639393,34981.998689,34625.842264,34847.270323,35426.143011,34686.942679
582,34657.957685,33066.421523,35122.678334,34956.584568,35160.037747,34984.066257
583,34344.816853,34708.856019,35065.659570,34933.515398,32361.030447,34655.022834
584,34542.721520,33090.812909,34578.994762,34892.430826,34793.372366,35357.996738
585,35010.700232,34957.973187,35089.645255,34690.396374,35378.181187,34937.305157
586,34904.249918,34902.806379,35007.096870,34785.772409,34661.593332,35163.980600
587,34806.108914,34735.363611,34888.928768,34792.140613,35122.305440,34491.806138
588,35051.213723,34740.311855,34876.551217,35419.096745,34844.646038,35375.462760
589,34875.132070,34744.879574,35117.133147,34783.588206,35001.451749,34728.607674
590,35027.397218,35338.921468,34288.068711,35314.608902,35084.678540,35110.708470
591,34889.051929,34787.883104,35129.841047,34769.252683,34999.283500,34758.999313
592,34925.134662,34873.372094,34822.552891,34777.627855,34807.773179,35344.347291
593,34875.015623,34696.741534,35325.128649,34645.687562,34866.685983,34840.834387
594,34920.196432,35170.326906,34710.182015,35031.790451,34872.129572,34816.553219
595,34458.498929,34790.040262,35285.268864,34742.868738,32721.957328,34752.359457
596,34973.367174,35326.056553,34311.529272,35295.743423,34697.556109,35235.950515
597,34947.967114,35083.517636,34631.964419,34955.117062,35385.893534,34683.342919
598,34843.645497,34953.043643,34489.750360,34912.908389,34666.636062,35195.889034
599,34806.382477,34607.564555,35138.116564,34669.202596,34952.586466,34664.442206
600,34992.404138,35078.548098,34661.094247,35305.686283,34746.910015,35169.782047
601,35046.639933,34963.305021,35336.845036,34967.261687,35216.267655,34749.520270
602,35163.175053,35358.372764,34856.347649,35501.085026,34828.924426,35271.145400
603,34847.951408,34700.202972,34893.528777,34745.672162,34906.655760,34993.697370
604,35004.027605,35290.430149,34954.268713,34965.679109,34676.834455,35132.925602
605,34607.799825,34957.822649,35163.274760,34848.089689,33358.681694,34711.130334
606,34558.051169,33015.771970,34936.062819,35086.646798,34833.382030,34918.392228
607,34924.564082,34970.499555,35054.376832,34661.629209,35196.099300,34740.215515
608,34839.536740,34972.914013,34723.057006,34976.387060,34696.349740,34828.975881
609,34843.745825,34482.787232,34820.487264,35061.697362,35248.672534,34605.084734
610,34693.839582,35123.969628,35014.061664,35090.886343,34966.203464,33274.076815
611,34535.261322,34394.307283,35467.434109,34942.130253,33005.637698,34866.797270
612,34427.835059,32697.767900,34763.689696,35379.895317,34328.458640,34969.363743
613,34913.631542,35010.446960,34967.340694,34813.241011,34822.562547,34954.566500
614,34571.075147,32852.031598,34901.686500,35249.418249,34979.526589,34872.712800
615,34968.335537,35049.719415,35222.690560,34959.558081,34783.869670,34825.839962
616,34887.776026,35173.783704,34841.736713,35146.485781,34710.805947,34566.067987
617,34652.315370,34896.737953,35319.326577,34739.153232,33385.472866,34920.886223
618,35001.811252,35078.045317,34695.760557,35126.827745,34977.544526,35130.878119
619,34765.463814,34354.597751,35158.042438,34688.912538,34951.399479,34674.366864
620,34490.459922,35408.785909,34459.529332,35072.427364,34901.670568,32609.886438
621,34968.243732,34455.396753,35307.618832,34732.121513,35403.472877,34942.608685
622,35005.476835,35076.480477,35060.984085,35192.806270,34671.525615,35025.587730
623,35041.304875,34580.093043,35299.268502,35008.879136,35363.936783,34954.346911
624,35274.915859,36511.030006,34731.001021,35406.625479,34901.839468,34824.083323
625,34862.430564,34437.225940,35121.303155,34543.025474,35304.134338,34906.463913
626,35100.779755,35251.522094,35038.928936,35165.851209,35188.806266,34858.790274
627,35037.384028,35022.745874,35416.397532,34858.273530,35108.511821,34780.991383
628,34532.772431,35019.155140,35110.098632,34923.282651,34744.281391,32867.044343
629,34444.036501,35036.012904,35064.881247,34505.571872,33153.442845,34460.273638
630,34701.282395,35376.574866,35019.446491,35416.375909,34687.426577,33006.588132
631,34927.250015,34556.021274,34966.288021,35004.406138,35346.057702,34763.476940
632,34790.266877,34879.475381,34924.162666,34815.243117,34845.810904,34486.642319
633,33976.519732,34603.331585,33092.587004,34292.198004,33157.314472,34737.167598
634,34439.542375,35311.104253,34414.726153,32945.702666,34858.436802,34667.742002
635,35048.887676,34834.978923,35428.037930,34888.564870,35410.182260,34682.674398
636,35077.769443,34737.980417,35962.108919,34842.384164,34892.358838,34954.014879
637,34974.700579,34586.206477,35378.634500,35068.600828,35137.442287,34702.618806
638,34462.473476,34789.901217,35007.345115,34917.227834,32692.936521,34904.956696
639,35051.473968,34924.683079,35211.337957,34719.020898,35391.289845,35011.038064
640,35027.504319,34956.648887,34989.530038,35029.050983,35058.912964,35103.378726
641,34946.689923,34805.988077,35204.562128,34771.026081,35354.628904,34597.244428
642,35057.429291,35332.896117,34777.418262,35416.074494,34737.903349,35022.854234
643,35034.728328,34937.327594,34820.066466,35073.873523,35410.383264,34931.990796
644,34744.539047,35204.427674,35018.217936,35044.338030,33325.019109,35130.692487
645,34837.264805,34924.222591,34954.052121,34595.501791,34920.887360,34791.660164
646,34932.941926,34817.821098,34521.932047,35203.701302,34890.790574,35230.464611
647,34488.169622,35063.821121,35253.244921,34720.295534,32607.892553,34795.593983
648,35049.335615,35328.389230,35144.329621,35111.881834,34888.387919,34773.689472
649,34782.901770,34617.840964,34705.461868,34751.014172,34806.293289,35033.898560
650,34454.614997,32947.788119,34572.811434,34964.745198,34706.519121,35081.211115
651,35191.920415,34814.969977,35218.808296,35418.292519,35368.687666,35138.843619
652,35049.790141,35085.651098,34793.016557,35274.831468,34851.276998,35244.174587
653,34993.260821,35170.060681,35286.656734,34511.791828,35403.059015,34594.735849
654,34443.448436,35092.188849,34613.660996,32937.801366,34570.440553,35003.150417
655,34951.374500,34702.620528,35066.047296,34785.835768,35390.100147,34812.268762
656,34725.263640,33376.265809,35029.287228,35373.591006,34998.813687,34848.360474
657,35082.675696,34939.343762,35471.775179,34808.398796,35389.160436,34804.700309
658,35003.300004,34978.701909,34887.563951,34819.468766,35026.036734,35304.728662
659,35028.347032,34855.894757,35246.784804,34759.081891,35218.441332,35061.532377
660,34407.982154,32499.787900,34701.428611,35062.991045,34678.868917,35096.834298
661,34985.961852,34899.710779,35250.674906,34691.703457,35340.945609,34746.774509
662,34921.272654,35051.913053,34691.679926,35122.108368,34929.757377,34810.904547
663,34947.848642,35018.008696,35028.368223,35089.976666,35073.545021,34529.344606
664,34715.713805,35465.707398,34906.362051,33186.997613,34942.349587,35077.152377
665,35002.916522,34800.193660,35039.991036,34988.818485,35139.500738,35046.078691
666,34912.161316,34398.449553,34852.704253,35113.667900,34845.058398,35350.926477
667,34984.037829,34662.702315,35187.857009,35170.078679,35183.215432,34716.335713
668,35018.433542,35364.059153,34536.716836,35078.927202,34955.586311,35156.878211
669,34967.052743,34735.098153,35393.060945,34637.807011,35226.608283,34842.689326
670,35031.145502,35328.614943,34586.536226,35127.311087,34878.612477,35234.652781
671,34860.632540,34887.368466,34778.345700,34618.749109,35047.098274,34971.601151
672,34824.646320,34680.743034,34784.503534,35077.778921,34696.563162,34883.642949
673,34977.948162,35176.228711,34811.490743,34914.316117,35071.012281,34916.692960
674,35147.560431,36047.563066,34604.900777,35050.044549,34673.886794,35361.406972
675,34536.330460,34992.943413,35230.029885,34859.531970,33108.278440,34490.868594
676,34577.625629,32587.846734,35050.810562,35209.452660,34673.173804,35366.844389
677,34787.568986,34903.045957,35134.861168,34500.922919,34582.275572,34816.739317
678,34885.158400,34762.686657,34443.251864,35280.350649,34979.540604,34959.962226
679,34908.890988,34979.936906,34784.060811,34741.038287,35250.202823,34789.216115
680,34872.273405,35158.540028,34957.708804,34828.099696,34591.521236,34825.497262
681,34915.349757,34758.897885,35212.805189,34865.909323,34715.096147,35024.040243
682,34850.935192,34722.252504,35078.276945,34808.120294,34728.054477,34917.971740
683,34778.114739,34391.380451,34653.739574,35150.645074,35238.819649,34455.988947
684,34922.693020,34867.229164,34843.380474,35280.937940,34844.976972,34776.940551
685,34859.353626,34348.744013,35092.958172,35005.066077,35204.479421,34645.520449
686,34883.162471,34688.267311,34960.375430,34969.988228,34420.611996,35376.569391
687,34959.076677,35049.288751,35224.151636,34717.256766,34889.802932,34914.883304
688,35108.569908,35106.326570,35029.495436,35126.645819,34914.761368,35365.620349
689,34981.885846,34960.407587,35345.619455,34533.765911,35082.837468,34986.798811
690,35045.590793,35200.326051,34898.853911,35152.062589,34833.207417,35143.504000
691,35014.939654,34834.610568,35460.945836,35011.798451,35071.109881,34696.233538
692,34603.712505,35383.675715,34532.042521,32928.891402,34808.048904,35365.903983
693,34972.725847,34776.690345,35172.729709,34930.204972,35163.300791,34820.703421
694,34963.744476,34664.219943,34915.171483,35297.937409,34691.328598,35250.064949
695,34943.664016,35025.828491,34851.315287,34766.329626,35215.343683,34859.502996
696,35092.919164,35480.034223,34918.621898,35103.530206,34917.154330,35045.255164
697,34832.501671,34673.433834,35198.144166,34524.405351,35051.847919,34714.677087
698,34606.515750,34941.313379,35027.079102,35151.032079,34833.123653,33080.030540
699,34451.128002,34666.884311,34880.587400,34382.860153,33099.018700,35226.289447
700,34522.615472,32966.077974,35088.995198,34658.059681,34656.996028,35242.948483
701,34881.254091,34673.981581,35247.598274,34947.562932,34709.193398,34827.934270
702,34826.396052,35263.387081,34854.102094,34617.044630,34672.987277,34724.459179
703,34931.987332,34954.188651,35052.418496,34380.521491,35246.638106,35026.169917
704,35112.034388,36294.923855,34765.714998,35143.501070,34700.971726,34655.060291
705,34566.569789,34689.347423,35046.328666,35149.537621,32951.456885,34996.178353
706,34889.005558,35190.059323,34663.873323,34785.547402,34697.398132,35108.149611
707,34169.775281,33097.441540,34994.456232,34850.814717,33057.443711,34848.720206
708,34618.632673,35372.493134,34948.944640,32767.171247,34868.963132,35135.591213
709,34946.892954,34818.355874,34772.710413,34597.959530,35503.119817,35042.319140
710,35127.244590,35434.847066,34988.714702,34842.984913,35008.228911,35361.447362
711,34928.855909,34698.011604,34869.246406,34973.352202,35279.259011,34824.410326
712,34855.354694,35037.197798,34764.940172,35133.803260,34478.254066,34862.578174
713,34487.534171,34750.975087,32893.591923,34974.752351,35145.161460,34673.190038
714,34519.859103,35159.291494,34724.255194,32896.007317,34727.742374,35091.999140
715,34532.916649,34814.637881,33285.949334,34612.791389,35397.838298,34553.366345
716,34927.705814,35161.862032,34975.500428,34581.699894,35015.741436,34903.725283
717,34893.743020,34732.983119,35213.827291,34726.578470,35101.107311,34694.218911
718,34964.474711,35214.913066,34973.136434,34694.468204,34774.892570,35164.963283
719,34928.424078,34904.197791,34958.477926,34943.291934,34857.959268,34978.193474
720,35278.925862,35407.536464,34803.379557,34885.892240,36218.690985,35079.130066
721,34597.249292,34993.318423,35055.501698,34844.397074,32938.966106,35154.063162
722,34585.243866,32892.329636,35120.591089,35132.708026,34725.283277,35055.307304
723,34730.098676,35011.322570,34728.900957,34561.797381,34618.285447,34730.187026
724,34579.097482,33041.036491,34849.754385,34928.417285,34631.348332,35444.930917
725,34507.516495,34916.196502,33235.799851,34724.591026,34954.871598,34706.123500
726,34564.867955,34668.058696,34983.533594,35424.176106,34612.924879,33135.646500
727,35100.375277,34596.605460,35330.314006,35109.978117,35382.465228,35082.513577
728,35137.090697,35359.265868,34742.030474,35319.341985,34909.196511,35355.618651
729,34848.835246,34532.374860,34900.885077,34737.057626,35240.777149,34833.081521
730,34531.635148,35250.449294,34951.440028,32978.206470,34459.010145,35019.069804
731,35019.603823,34991.133843,35388.008017,34523.650149,35178.198994,35017.028115
732,34948.882277,34991.711323,34683.157885,35447.566972,34480.380689,35141.594517
733,34513.648656,34698.443547,33037.971623,34466.781238,35356.062157,35008.984715
734,34541.553574,32802.084651,34485.093409,35304.978174,34900.516026,35215.095613
735,34704.151683,34804.902583,35103.833902,35011.370381,33120.249772,35480.401781
736,34502.377496,34664.858962,34805.395104,33285.258419,34886.212989,34870.162009
737,34810.340138,34612.259409,35134.368581,34744.785264,34822.392394,34737.895045
738,34676.327225,33099.604934,34855.071915,35426.677534,34964.268947,35036.012798
739,35001.624433,35000.957417,35334.138766,34936.724370,35102.623366,34633.678247
740,34571.531654,35015.813181,34789.470885,35310.672311,34659.261155,33082.440740
741,34550.811694,34863.456568,35283.594502,34785.393221,33015.409872,34806.204309
742,34457.342463,35038.814696,34723.714806,34979.639904,34967.293657,32577.249255
743,35060.690912,35123.671602,35074.440168,35023.872694,35312.521719,34768.948381
744,34106.292015,32614.708543,34391.328774,33307.289534,35020.184611,35197.948613
745,34927.517473,34886.679860,35028.411415,34547.947534,35332.977538,34841.571019
746,35079.040964,35419.347238,34857.880262,35051.264911,34868.942606,35197.769806
747,34530.431263,34954.642660,33207.943085,34927.155453,34459.546738,35102.868381
748,35067.936787,35322.098494,34719.207862,35241.029426,34763.261598,35294.086557
749,34476.325294,34750.348804,32912.475762,34816.198615,35098.241728,34804.361564
750,34979.355359,34978.213951,35009.196849,34995.933806,34857.921115,35055.511077
751,34928.155328,34775.176902,35226.698532,35059.772189,34923.878034,34655.250985
752,34983.390163,35381.506762,35004.192389,34470.946030,34978.280315,35082.025319
753,34745.853412,35182.750240,35178.555896,35441.227549,33221.194783,34705.538594
754,34559.603763,33191.215772,34662.715326,35165.214553,34767.886426,35010.986740
755,34971.239214,35107.590183,34956.635917,34662.390726,35155.600513,34973.978734
756,34878.499539,34587.103574,34972.599943,34813.207136,34878.267806,35141.319236
757,34918.026085,34902.332385,34737.915398,34946.530445,35048.302487,34955.049711
758,34509.558721,35375.328521,34682.488311,32849.792949,34588.007687,35052.176140
759,35033.038880,35149.667215,35198.940279,34641.976981,35152.056485,35022.553443
760,35107.364643,35261.470057,34649.519530,35421.007709,35056.701243,35148.124679
761,34817.119773,34691.508534,35054.132653,35136.547762,34597.076240,34606.333679
762,34651.009889,35083.834240,34891.154166,35235.395889,34957.793023,33086.872130
763,34752.852630,34762.779451,34507.709366,34639.957279,35045.664887,34808.152168
764,34968.011972,35403.990762,34676.991121,35060.552013,34626.646217,35071.879747
765,34527.728070,35039.137753,35311.529828,34451.683768,33001.401870,34834.887132
766,35054.979851,35309.207189,34736.530470,35044.246296,34846.038840,35338.876460
767,35141.206635,35242.876872,35280.830800,34980.056221,35304.507496,34897.761787
768,35080.030667,35267.867247,34967.080645,35169.344379,35002.831898,34993.029166
769,34518.627277,34404.264413,34939.499255,35048.011245,33182.981560,35018.379915
770,35121.740363,35122.907547,35320.886483,35402.395068,34784.201755,34978.310964
771,34962.223985,34730.414891,35342.112906,34796.766889,34977.184079,34964.641160
772,34893.157040,34577.427234,34571.679289,35096.571847,35033.301394,35186.805436
773,34834.759872,34848.075711,35005.472121,34719.327174,34869.106191,34731.818164
774,34413.141091,34748.819155,34941.112643,32950.625926,34453.929211,34971.218523
775,34912.709927,34730.829553,35224.317164,34584.044087,35139.731200,34884.627632
776,35030.166372,34919.725134,34596.350691,35241.305079,34982.555662,35410.895298
777,34836.268520,34883.520609,34998.042755,34361.598181,35145.190302,34792.990753
778,34336.688591,34489.513972,34957.005983,32642.228268,34815.679402,34779.015332
779,35113.115409,35044.730047,35308.963164,34961.727662,35322.937572,34927.218600
780,34889.516917,34412.167491,34912.839921,34824.798379,35439.439009,34858.339785
781,34352.934596,34610.132517,34944.516640,34702.065915,32823.558570,34684.399340
782,35110.869698,35352.151894,34991.728923,35095.329019,35012.565226,35102.573428
783,34901.961090,34770.018898,34858.905564,34851.303260,35324.811430,34704.766298
784,34508.367696,33005.406247,34932.649666,35201.825615,34703.092251,34698.864704
785,34960.015539,35051.919781,35275.532855,34667.907423,35115.442109,34689.275530
786,34615.195159,35163.943460,34724.076955,33154.728615,34972.972455,35060.254311
787,34911.126750,34819.025621,34766.603121,34768.031770,35263.530030,34938.443209
788,35109.128406,35256.275113,34955.545828,35007.988936,35040.828051,35285.004104
789,34932.692965,34768.519704,35088.012700,35056.266313,34902.540496,34848.125613
790,35057.261455,35194.656700,34948.721806,35105.671828,34950.590591,35086.666353
791,34322.080346,34815.296587,32697.899511,34747.523689,34954.340996,34395.340949
792,34868.301022,35021.950396,35094.765666,34987.712643,34713.934215,34523.142194
793,34888.681400,34922.369794,34887.597413,34782.829196,35087.780281,34762.830319
794,35166.759444,34959.481000,35350.059921,35427.877187,34961.722894,35134.656219
795,34678.675477,35452.258634,32803.970402,34975.581534,35211.489981,34950.076834
796,34964.366390,34933.916811,34367.093411,35293.487366,34840.154204,35387.180162
797,34860.588209,34629.732534,35260.644362,34833.309057,34867.913530,34711.341564
798,34577.700572,34790.748940,34769.006102,33232.170964,34731.607509,35364.969349
799,34891.013288,34966.494813,35270.177479,34401.564019,35066.975972,34749.854157
800,34962.626448,34425.988957,34753.795689,35329.427834,34934.942738,35368.977023
801,34958.318341,34939.438357,35161.354977,34982.651326,34965.101587,34743.045460
802,35085.142096,34956.692145,35047.496038,35350.290389,34665.818523,35405.413385
803,34722.355965,34745.290572,35070.736672,34597.785957,34516.053111,34681.913517
804,35006.710594,35246.516704,34693.469657,34993.297364,34940.380519,35159.888728
805,34858.267121,34793.935111,34944.268128,34871.407077,34843.565711,34838.159579
806,35073.511840,35315.590115,34779.362685,35150.924353,35005.041881,35116.640168
807,34829.623690,34902.442696,36591.474811,34526.496540,33262.546189,34865.158217
808,34174.972221,35325.959764,34974.171285,32950.967119,34780.275583,32843.487357
809,34960.525615,35191.072300,34989.140051,34690.743628,35094.200313,34837.471783
810,34498.631497,35253.157030,34559.043364,32879.239611,34791.832255,35009.885228
811,34510.743968,34681.209104,34706.945157,34779.120028,32958.943711,35427.501843
812,34940.745457,35113.421487,34822.284230,35033.544368,34683.246396,35051.230806
813,35097.158565,34977.634962,35295.796062,34951.548181,35258.351277,35002.462345
814,35010.541573,35110.103449,34882.231679,35095.752330,35001.421317,34963.199091
815,35120.667493,34658.641683,35371.261602,35295.711770,35357.017113,34920.705300
816,34936.003682,35029.893877,34772.612928,35033.310917,34521.709632,35322.491057
817,35281.391430,35009.717213,36514.414230,34932.478402,35363.787368,34586.559940
818,34982.497092,34962.424706,34609.015106,35271.225715,34821.402277,35248.417660
819,34837.099950,34608.600632,35271.899689,34537.292981,35116.110074,34651.596377
820,35060.565845,35129.857317,34717.749681,35256.131302,34755.054955,35444.035970
821,34956.171241,34810.061006,35058.227219,34990.739198,35339.746164,34582.082619
822,35107.067942,35214.587891,34930.756068,35242.848800,34863.070023,35284.076932
823,35025.316240,35058.997049,35229.517653,34987.518285,35238.745194,34611.803019
824,35129.107663,35435.505866,34708.989498,34865.660553,35133.272932,35502.109468
825,34564.660870,35044.143638,35049.924657,34745.318087,33238.295296,34745.622674
826,34877.189308,34954.717091,34862.784260,35298.443174,34455.436234,34814.565785
827,34921.212550,34470.282926,35313.804138,34930.136060,35110.334655,34781.504974
828,35097.772953,35320.815694,34917.972377,35345.305689,34506.862832,35397.908174
829,35003.603286,34945.393113,35086.577449,35218.229283,34997.424355,34770.392230
830,35010.751826,35256.316802,35065.560964,35018.968815,34801.641389,34911.271160
831,35068.702279,34942.028619,35076.760060,34946.814577,35463.214296,34914.693845
832,34492.424887,35066.751479,34509.389953,35409.772538,34721.623906,32754.586562
833,35112.198347,34745.326896,35152.894189,35015.076909,35384.627791,35263.065951
834,35028.821198,35180.790272,34749.773002,35266.572394,34764.043228,35182.927094
835,35043.763159,34822.372796,35419.233828,34772.479709,35112.546438,35092.183026
836,35045.020032,34824.798730,34785.860502,35167.155706,35007.839760,35439.445462
837,34907.950971,34758.262506,34840.070606,34875.852317,35271.031045,34794.538383
838,34667.759619,35305.221128,34672.366779,35252.986898,34711.021351,33397.201943
839,33967.320372,34698.618543,32544.758202,34833.724385,33130.088185,34629.412545
840,34559.943738,34803.244194,34951.429806,35223.845302,34579.697864,33241.501528
841,35042.317901,35034.062006,35134.280447,34932.414009,34960.074962,35150.758085
842,34558.044388,35016.341823,34513.734687,32926.465338,35128.852960,35204.827136
843,34841.565014,34629.851253,34780.287421,34858.465711,35236.722945,34702.497740
844,34961.552820,35163.160834,34378.770609,35448.553391,34558.118738,35259.160530
845,34929.439327,35027.068417,34967.738179,34863.875204,34858.506706,34930.008132
846,35279.845065,36605.738219,34664.728228,34985.530319,34696.074232,35447.154328
847,35010.352903,35362.307491,35159.999983,34837.966047,35245.746179,34445.744819
848,34558.113947,32908.725704,34938.772870,35115.683589,34996.219528,34831.168045
849,34497.441999,34731.992689,33094.525696,34639.051272,35202.851574,34818.788766
850,35159.415565,35228.082947,35238.245874,35128.523855,35187.476926,35014.748226
851,35012.802631,34983.753698,35106.803117,34538.635323,35564.673889,34870.147132
852,35029.160104,35203.062096,34748.786919,35300.885645,34539.586417,35353.479445
853,34825.915814,34745.170085,35109.088806,34365.865885,35122.290798,34787.163498
854,34547.391517,35113.660432,34952.737526,32918.157736,34605.143819,35147.258074
855,34945.305720,34670.953083,35228.365255,34913.230353,35049.766315,34864.213594
856,34822.482986,34688.124974,34437.594623,34830.893315,34826.553409,35329.248611
857,34590.899578,35030.677440,35277.419836,34911.101798,32885.674368,34849.624451
858,34875.377906,35136.844994,34703.105900,34990.794134,34940.639213,34605.505289
859,34871.587408,34561.941949,35349.907202,34955.634628,34506.865662,34983.587602
860,35129.238607,35248.028832,34821.352836,35251.724838,35303.160526,35021.926004
861,34641.582972,35045.826245,33110.021491,34923.864283,35335.297083,34792.905762
862,35092.750535,35357.192874,34853.682413,35086.469983,34938.435136,35227.972270
863,34484.715300,34617.238019,33015.150957,34703.119613,35356.465268,34731.602647
864,35035.201800,35087.970168,34728.789998,35091.810113,34981.911713,35285.527011
865,35019.748626,35059.926109,35261.440864,34857.097279,34958.294636,34961.984243
866,34521.332160,35205.062662,34879.582172,32903.373221,34973.039034,34645.603713
867,34708.128776,34586.685234,35244.864664,34529.373415,34824.952502,34354.768066
868,35193.773336,35328.000134,34712.579951,35283.729149,35260.958066,35383.599383
869,35009.103607,35019.124555,34936.074115,34857.449413,35340.640168,34892.229787
870,34996.922902,35207.552768,34999.948445,35118.667526,34739.452232,34918.993540
871,35058.114650,34996.486583,35468.601236,35026.789868,34926.983381,34871.712183
872,34410.292666,32965.859970,35046.720009,34494.482781,34937.102249,34607.298321
873,35033.142502,34986.655623,35040.074855,34776.346672,35350.034936,35012.600428
874,34931.449867,35017.840034,34758.878872,35001.071453,34935.271406,34944.187572
875,34808.158507,34809.098902,35136.885117,34809.876285,34946.880840,34338.051391
876,34502.672513,35264.465796,34980.592413,34895.759234,34533.268064,32839.277060
877,35032.439337,34870.670555,35387.211160,34921.929736,35188.956074,34793.429164
878,34972.123396,34902.108349,34812.692491,34976.283879,34985.712630,35183.819634
879,34942.769267,35062.937285,34933.880328,34924.625934,35115.452560,34676.950228
880,34462.826549,34704.343500,34911.430255,32883.020732,34904.976226,34910.362034
881,34939.176171,34699.120934,35171.400974,34559.392030,35246.671023,35019.295898
882,35026.769539,35164.104583,34703.306628,35484.404751,34946.593528,34835.438206
883,34541.068410,34978.016866,33168.863813,34848.594936,35284.213217,34425.653221
884,34338.220515,35154.891713,34663.251426,34873.282068,34421.565053,32578.112315
885,35186.156528,34950.608255,35422.469770,35022.807609,35412.468034,35122.428974
886,34548.400151,35149.029247,34891.049345,32821.395923,35174.866672,34705.659568
887,35022.025078,34941.494879,34869.174000,35222.235166,35110.898606,34966.322740
888,34930.119462,34973.356613,34936.273511,35352.711357,34446.348066,34941.907766
889,35102.204966,34698.822683,35299.645385,35004.358253,35435.963328,35072.235183
890,35192.218002,35375.055632,34832.344694,36574.390147,34622.202623,34557.096915
891,34949.438692,34732.971357,34978.794362,34971.131619,35378.287694,34686.008428
892,34952.214908,35385.860274,34654.015660,34834.840104,34818.498670,35067.859832
893,34910.107627,34987.245898,34798.750334,34911.181472,34957.874349,34895.486085
894,35088.416600,35419.852340,34873.611862,35186.680523,34637.351238,35324.587038
895,34863.554177,34571.103094,35051.680628,34718.655785,35034.653860,34941.677519
896,35118.360848,35427.660196,34505.673504,35268.091260,34991.877636,35398.501647
897,34946.042430,34760.921974,35122.503660,34614.298613,35076.627619,35155.860287
898,34846.910383,34649.462291,34648.827570,35000.390981,34806.124509,35129.746568
899,35006.052324,35076.426938,35261.333168,34711.922887,35057.469753,34923.108874
900,34852.350303,35042.636685,34530.390502,34704.035087,34896.746383,35087.942862
901,34868.244272,34810.066679,35107.902911,34907.168757,35044.500787,34471.582228
902,34986.353002,34954.784698,34812.306894,35295.288740,35064.039128,34805.345551
903,34463.500636,34675.569468,32880.908834,34920.782389,35439.624309,34400.618183
904,34566.550443,35014.772921,34648.024619,35360.836215,34550.987636,33258.130828
905,35049.277680,34982.795666,35209.025930,35040.679798,35351.732500,34662.154506
906,34823.318438,34634.817930,34728.394377,35070.535770,34976.244653,34706.599464
907,35000.027570,35045.351172,35461.344291,35092.368457,34628.172468,34772.901464
908,35080.088995,35265.967426,34922.573147,35128.008966,34751.886691,35332.008749
909,34977.960212,34769.665396,35095.100728,35178.024432,35014.004506,34833.006002
910,35063.409953,35190.375021,34748.376047,36329.864706,34294.686681,34753.747311
911,34925.531969,35031.946153,35098.428389,34969.445149,34953.842474,34573.997683
912,35009.785944,34795.988415,34847.595872,35054.759523,35331.248811,35019.337100
913,34854.697337,34987.072472,35198.070755,34841.785960,34783.939351,34462.618147
914,34931.621182,35117.224468,34575.458440,35326.047436,34607.228587,35032.146979
915,34922.927037,35007.368260,35291.696964,34753.664411,34944.429070,34617.476481
916,34981.941053,35218.065883,34679.088906,35151.595404,34834.258604,35026.696470
917,35243.103461,35847.617174,35296.944560,34835.058117,35155.662711,35080.234743
918,34573.886907,34833.173953,34971.048521,32733.681440,34820.319209,35511.211415
919,34536.786589,34996.707828,34528.761653,35103.186340,33184.337015,34870.940113
920,34988.369600,35313.766389,34943.968104,34793.440326,35052.949202,34837.723981
921,35000.322348,34923.303855,35168.898560,34836.810513,35443.763170,34628.835643
922,34547.523046,33187.086257,34641.366262,34983.343749,34993.832166,34931.986800
923,34856.294090,34697.007936,35343.157787,34675.097677,34915.030700,34651.176351
924,35063.356476,35262.808743,34917.909715,35277.701804,34684.179504,35174.182615
925,35000.182047,35029.920579,35122.230043,34730.798560,35307.013323,34810.947732
926,34928.053959,35348.753751,34926.337894,34675.750966,34778.151336,34911.275849
927,35306.288433,36263.329383,35521.863640,34992.350909,35137.278670,34616.619564
928,34956.485877,35042.819455,34759.584715,35298.561887,34667.667632,35013.795696
929,35091.020234,35065.048228,35229.419157,34979.230457,35123.870896,35057.532432
930,35177.997491,35403.111949,35081.588591,35246.317613,34767.665083,35391.304219
931,34942.008070,34900.191689,35270.771453,34890.348568,34901.437245,34747.291398
932,34430.359914,32954.201209,34676.367015,34437.286617,34759.212830,35324.731902
933,35006.421486,34654.455477,35176.399187,34774.892687,35247.860902,35178.499177
934,35176.075684,35205.704228,35229.184479,35334.404768,34772.129566,35338.955383
935,34039.170815,34957.190885,32878.396636,34758.704083,32815.032185,34786.530287
936,34594.834327,35243.932891,34726.250287,32948.980477,34826.747300,35228.260681
937,34987.537064,34742.401004,35349.666196,34907.263374,34952.012991,34986.341755
938,35114.808808,35333.096643,35009.806721,35147.869330,34756.044534,35327.226815
939,35040.611018,34730.640381,35091.674657,34989.950504,35405.767477,34985.022074
940,34652.013109,35243.738647,34957.320351,35340.745560,32901.213334,34817.047655
941,34890.153813,35015.613698,34825.929215,34965.816394,34717.436781,34925.972979
942,34851.749231,35235.955243,34781.640262,34815.510362,34424.803519,35000.836770
943,34793.820841,34788.446445,34908.392926,34649.060594,34946.431391,34676.772853
944,35209.128865,35240.063251,35318.878202,35328.519804,34892.071828,35266.111240
945,34959.967220,34528.343757,35247.408728,35078.783621,35108.649977,34836.650021
946,34517.427411,34873.932813,34992.916787,35140.153913,34711.949168,32868.184377
947,35080.185739,35914.789032,35112.864147,34704.883077,34913.489453,34754.902989
948,34666.268571,35326.048143,35161.477445,35329.192257,34775.598030,32739.026981
949,34901.832850,34896.968891,34842.125315,35027.684057,34684.413419,35057.972570
950,35031.986875,35314.704772,34830.901457,34906.217815,34681.401423,35426.708911
951,33935.837769,34712.020577,32901.013417,34686.005343,33050.238638,34329.910874
952,34873.428103,35135.955579,34506.000702,34813.235204,34814.865800,35097.083234
953,34671.679336,34720.837715,33349.797645,34954.302255,35478.791777,34854.667291
954,35188.809693,34950.440477,35235.367577,35391.235089,34957.085711,35409.919611
955,34486.001808,34939.098070,34867.952772,34863.216155,33048.310149,34711.431896
956,34973.027130,35003.461143,34880.062579,35397.042051,34584.542430,35000.027447
957,34950.088456,34902.455549,35390.500719,34806.096221,35172.728891,34478.660902
958,34038.361546,34726.211977,34378.759062,33090.753834,34831.354504,33164.728353
959,34894.849925,34973.201545,35425.175217,34659.822887,34965.622568,34450.427411
960,34866.200400,35018.112764,34738.872764,34826.899623,34556.369032,35190.747817
961,34950.998015,34813.391562,35041.860768,34719.172538,35225.932362,34954.632849
962,35079.306037,35063.359443,35043.404632,35109.060370,34883.667004,35297.038736
963,34825.507392,34789.789006,34660.344455,34646.218774,35065.665962,34965.518766
964,34552.740946,34869.161474,35006.922494,33018.269955,34927.966562,34941.384247
965,34961.353096,34711.116326,35456.450585,34703.434781,35142.759930,34793.003862
966,34954.732265,34961.853404,34918.232666,35185.988974,34781.737338,34925.848945
967,34878.488426,35074.685823,35214.091900,34766.357123,34977.223521,34360.083766
968,34570.764432,35389.924304,34771.201766,34675.831187,34902.893143,33113.971760
969,34945.829325,34922.107745,35038.074040,35228.746760,34716.716668,34823.501415
970,34369.523399,34765.154372,34571.770281,34679.244777,34878.824355,32952.623211
971,34935.002990,35004.327389,35003.402117,34821.481253,35019.689432,34826.114762
972,34720.866154,35131.882987,33373.526172,34721.103966,35099.137430,35278.680219
973,34951.334227,34341.644889,35073.390945,35056.303272,35348.306111,34937.025921
974,35014.733089,35069.717666,34592.300615,35281.084930,34766.751000,35363.811234
975,34948.440654,34547.889081,35326.291977,34651.672206,35280.817081,34935.532926
976,34788.241328,34641.155277,34679.951172,34663.209915,34851.828311,35105.061966
977,34993.221968,34820.322436,35332.599874,34847.075502,35157.447728,34808.664300
978,34686.247909,35280.465932,35029.345045,35235.834077,34961.306549,32924.287943
979,34541.587212,34935.495587,32899.292685,34995.265785,35046.632540,34831.249466
980,35117.406081,35146.646800,34858.212470,35318.892385,35020.242191,35243.036562
981,34915.432863,34683.826462,35256.070428,34975.612664,35192.234038,34469.420726
982,35038.798843,35415.932736,34659.023670,35391.691177,34669.941432,35057.405200
983,34603.680582,34866.885017,33215.031277,34917.391385,35016.325574,35002.769660
984,34754.226040,34730.124028,34809.981155,35091.882543,34605.172070,34533.970404
985,35022.838046,35212.167996,35258.466719,34774.860477,35146.155706,34722.539334
986,35009.187009,35290.965391,34531.864472,35212.841040,34620.456228,35389.807917
987,35022.137931,34989.092096,35166.270866,34526.133470,35660.566657,34768.626570
988,34632.945866,35124.978538,35029.269002,33149.306547,35274.403445,34586.771798
989,35082.966029,35064.489468,35159.745800,34776.366485,35341.882868,35072.345528
990,35015.547092,35177.660079,34489.709904,35152.288860,35014.593964,35243.482655
991,34913.034177,34680.951136,34795.650751,35013.932272,35139.047983,34935.588747
992,35033.302737,34908.501343,34345.965657,35424.093611,35049.314772,35438.638306
993,34325.564128,34843.307706,32550.866304,34554.617217,34914.628349,34764.401066
994,35109.862158,35363.812119,34947.389911,35370.270023,34584.316089,35283.522649
995,34738.437394,34332.262894,35091.751511,34524.196038,35119.752040,34624.224489
996,34583.918321,35149.743738,35110.015157,35232.354009,34492.631832,32934.846870
997,35020.095256,35179.917162,35082.080281,34727.207245,35110.193077,35001.078515
998,35120.212773,35051.872249,34978.493987,35388.433972,34975.796074,35206.467585
999,34758.066116,34705.263700,34807.715406,34682.638521,34799.761406,34794.951547
1000,35052.103271,35179.887468,35038.946696,35276.598957,34392.814506,35372.268728
