1,135946.369529,138784.866096,135116.905860,136318.606153,134240.654070,135270.815466
2,76089.178403,77384.691438,76863.721964,72310.949326,76798.326957,77088.202332
3,54440.021145,54497.017423,54781.562240,54728.635572,53906.885855,54286.004638
4,46683.197321,46730.594094,46274.747434,47049.588928,46728.857636,46632.198517
5,38830.124068,38798.601813,38790.910343,38769.560221,38746.973602,39044.574362
6,35837.977248,36153.730051,36460.883717,36048.324555,36145.801815,34381.146102
7,35184.226849,34997.348168,35464.562836,35016.937191,35377.898615,35064.387438
8,35149.678610,35539.691481,34986.818649,34963.404679,34937.905428,35320.572817
9,35236.687779,34848.772357,35557.609470,35178.912245,35512.485589,35085.659234
10,35498.652155,35402.797406,35529.215736,36049.780091,34960.729996,35550.737549
11,34823.830397,34998.752345,32966.641638,35698.398502,35300.066557,35155.292947
12,34331.927044,32815.779406,35098.415064,35449.043726,35276.963536,33019.433489
13,35174.788335,35020.351436,34691.014683,34966.926862,35749.777766,35445.870930
14,35283.019345,35129.698783,35023.560072,35529.786687,35260.053513,35471.997674
15,35320.320289,35231.954281,35772.988694,35210.174413,35152.481745,35234.002313
16,35221.629703,35579.282426,35200.466866,34824.104026,35082.321374,35421.973826
17,34668.336858,35349.548604,32453.112211,35139.308879,34998.355398,35401.359202
18,35087.509698,35108.541966,35038.609636,35191.346164,35287.757419,34811.293309
19,34810.438970,35090.937228,33328.327134,35384.542179,35042.459977,35205.928334
20,35283.192741,35652.993864,35085.606370,35256.401594,35000.872323,35420.089555
21,34844.614808,35382.722472,33103.545409,35369.370398,35085.864596,35281.571166
22,34762.897913,33140.135317,35117.285336,35202.874851,34981.293989,35372.900074
23,34882.831326,34677.205615,35325.945847,34496.354785,35163.710806,34750.939577
24,34667.875110,34953.036402,34841.292787,32961.840223,35354.107136,35229.099004
25,35306.385778,35366.179874,35347.029238,34771.748913,35663.785104,35383.185762
26,34735.860910,34942.186953,35367.094028,32696.391183,35276.502662,35397.129726
27,35124.839792,35153.990674,34977.489709,34914.113955,35268.635277,35309.969345
28,35106.032414,35114.494111,35275.321745,35334.427538,35005.109355,34800.809323
29,35166.501766,34918.461034,35117.738140,35219.562287,35706.458277,34870.289096
30,34065.731063,35093.293981,34673.891336,34726.419915,33197.980736,32637.069351
31,35202.630116,34972.025238,35333.855026,35175.879243,35373.532181,35157.858896
32,34855.295790,35532.287117,35117.841809,32999.138721,35387.581157,35239.630149
33,35227.659413,35117.049623,35271.959272,35330.700906,35387.576070,35031.011194
34,35319.258493,35798.970545,35155.826734,35053.906247,35200.650166,35386.938777
35,35193.654383,35201.821802,35444.406596,35182.532947,35012.307853,35127.202717
36,34865.552973,33061.671943,35162.659666,35629.074285,35148.799119,35325.559855
37,35261.591358,35357.048715,35483.001323,35073.664400,34925.785055,35468.457300
38,35090.297666,35496.600362,35113.666453,34862.827485,34661.346840,35317.047191
39,35097.859968,35332.383226,35279.989351,34504.165264,35338.054013,35034.707989
40,35053.748881,35320.448138,34670.018694,34999.325613,34870.103789,35408.848172
41,34752.668198,34547.136383,35121.664262,34497.863638,34865.618177,34731.058530
42,34487.965458,35028.373613,34998.926223,33045.147462,34820.321283,34547.058713
43,34442.740498,34665.469068,32797.533136,34518.246349,35270.946917,34961.507023
44,34957.756817,34626.991151,34933.010972,35297.059851,34823.212591,35108.509523
45,34747.404856,34377.074589,35243.162770,34796.117085,34740.523262,34580.146577
46,34728.600237,34584.161966,34710.665509,35164.606372,34454.002734,34729.564606
47,34928.000083,34739.303164,35274.855377,34653.665121,34992.624021,34979.552736
48,34894.151020,34600.480485,34939.087906,34814.858811,34890.432366,35225.895536
49,34888.952719,35069.330317,34706.215017,35212.372262,35083.047104,34373.798898
50,34918.781975,35249.484911,34913.954130,35096.683000,34593.514481,34740.273357
51,35018.959542,34722.078626,35246.717674,35122.620262,35398.164919,34605.216230
52,34420.137149,32619.352034,34802.896536,34719.255911,35059.332817,34899.848449
53,35068.256863,34985.811336,35147.933598,34996.376681,34821.955874,35389.206826
54,34833.145635,34966.321998,34664.588577,34639.269006,34741.300321,35154.248274
55,34987.511950,35001.479534,35216.559694,35159.459032,34889.604883,34670.456609
56,35033.381688,35192.051085,34855.387734,35268.840953,34579.119291,35271.509379
57,35214.912521,34997.463740,35287.238034,35119.267270,35281.210060,35389.383504
58,34598.571315,35022.972709,34948.345391,33039.341643,34912.589751,35069.607085
59,34494.204297,35317.167372,34693.093770,34814.427281,33277.867679,34368.465387
60,34435.333515,33192.774123,34618.608745,35073.321696,34648.192194,34643.770819
61,35042.109815,34855.859877,35306.930119,34743.228781,35418.462989,34886.067311
62,34980.889333,35140.103706,34974.447557,35163.923255,34558.874630,35067.097517
63,35009.974102,34342.849504,35392.698264,34643.904170,36002.549698,34667.868874
64,34169.719425,33402.802755,34894.477177,32771.596349,34452.869200,35326.851645
65,34803.972295,34448.081113,34691.423504,34748.383621,35313.900743,34818.072494
66,35011.925499,35203.450245,34756.050749,35072.692000,35017.324589,35010.109913
67,35077.663508,34887.020445,35011.130087,35023.429834,35202.038109,35264.699066
68,34795.874115,34659.773143,34525.149396,35031.222753,34838.280630,34924.944657
69,34573.821378,35122.264857,32851.948849,34983.564698,35140.556747,34770.771743
70,35027.628369,35294.392051,35093.363843,34858.715872,34655.510166,35236.159913
71,35097.953152,34924.973626,35131.559196,35084.788304,35314.501189,35033.943445
72,34909.267833,34973.690860,34305.091581,35156.235468,34767.463862,35343.857396
73,34349.956864,35009.963366,35038.681028,34732.029011,32429.102026,34540.008891
74,34803.043491,35316.952181,34245.615304,34455.867934,34809.812809,35186.969230
75,34781.797389,34495.693181,34896.179036,34727.940015,34870.979347,34918.195368
76,33988.638631,32801.037434,34488.667409,33052.456357,34799.752753,34801.279202
77,35015.043117,34658.799289,35303.274657,35046.178947,35065.256806,35001.705887
78,34893.052633,34928.501894,34665.962413,35164.426566,34826.471764,34879.900532
79,34961.843643,35108.154845,35341.927877,34686.841589,35074.605004,34597.688900
80,34583.047190,35265.379772,34612.658649,33054.891898,34953.518409,35028.787226
81,34780.930908,34611.764455,35042.866370,34900.650836,35240.954630,34108.418251
82,34793.614133,34966.249534,34752.921704,35055.699751,34286.011609,34907.188068
83,34610.786311,34635.089077,34500.396123,35001.035498,34287.347591,34630.063266
84,34876.928268,35369.698921,34585.813070,34794.771370,34447.892223,35186.465760
85,34466.166604,34772.896640,32980.891030,34810.819879,35173.539247,34592.686228
86,34804.879032,34970.373021,35037.838251,35033.372104,34252.316374,34730.495411
87,34839.079318,34505.761760,35179.519994,34635.000560,35292.820421,34582.293855
88,34868.969431,35066.092783,34719.954604,35047.641921,34239.857509,35271.300338
89,34844.372091,34774.967368,34807.947519,34827.866372,35006.044985,34805.034213
90,34766.218046,34708.822626,34723.391643,34954.084766,34534.973264,34909.817932
91,34314.344842,34270.688470,32801.864560,34895.615385,35004.666930,34598.888866
92,34805.292219,35272.132089,34613.803734,34683.910526,34395.990040,35060.624709
93,34760.104383,34639.693585,35021.211683,34804.387704,34710.143517,34625.085430
94,34955.879441,35163.910298,34834.307970,34889.296151,34770.669057,35121.213730
95,34823.872677,34804.639357,34818.739998,34494.580577,34926.039087,35075.364370
96,34590.863512,35076.820351,34769.656347,32943.793849,34838.027438,35326.019579
97,34462.555207,34793.091264,32759.531077,34892.796564,35061.597211,34805.759919
98,34972.282823,35271.135353,34709.313253,34889.182291,34715.401023,35276.382198
99,34799.458484,34748.884089,34821.213385,34857.689260,34828.986826,34740.518864
100,34742.940533,34715.014626,34585.177843,34935.237121,34553.065174,34926.207902
101,34831.860694,34524.216055,35182.237287,34465.801751,35258.129566,34728.918811
102,34629.183030,34576.231130,34617.413049,34534.029306,34794.832645,34623.409023
103,34779.917512,34723.369898,34890.815353,34808.533430,34775.199321,34701.669560
104,35093.251842,35192.504000,35037.675168,35064.468991,34939.045640,35232.565411
105,34825.974559,34381.927009,34968.302366,34957.535500,35009.046121,34813.061800
106,34542.985447,35242.565747,34762.911438,33248.674749,34697.253055,34763.522249
107,34424.813046,34838.001128,32981.831547,34869.875600,34709.459566,34724.897391
108,35036.145457,35125.463372,34670.711560,35182.498574,35029.268200,35172.785579
109,34826.795438,34654.433179,35066.431947,34854.350768,34859.570094,34699.191204
110,34493.649819,35022.426545,34760.078870,34560.990726,35089.115449,33035.637509
111,34969.020372,34746.764128,35135.712998,34787.707370,35187.353704,34987.563662
112,34967.865706,35117.988704,34929.578915,34984.157621,34819.852717,34987.750574
113,34891.116376,34822.059372,35180.199968,34660.026045,35243.459885,34549.836613
114,34963.083583,34836.970974,35056.871219,35382.578115,34599.284191,34939.713419
115,34867.946050,34648.788277,35329.854819,34432.118009,35191.585462,34737.383687
116,34767.513688,35009.864015,34590.662581,34872.777883,34564.501364,34799.762600
117,34761.590738,34578.422155,35030.186857,34687.073694,34560.257213,34952.013774
118,34808.472090,34982.738498,34825.790357,35021.443404,34459.183732,34753.204460
119,34882.009513,34622.171340,35356.058319,34412.614351,34931.175085,35088.028474
120,34943.286008,34996.220711,34518.927628,35137.762317,34858.401579,35205.117806
121,34739.810419,34824.916372,34854.595555,34808.878455,34367.495447,34843.166268
122,34603.205286,35152.617681,34773.968898,33156.446585,34918.794121,35014.199149
123,34633.281793,34403.495581,34857.587685,34853.611281,34403.997815,34647.716606
124,34832.549259,35194.026306,34286.759240,35241.153291,34570.460026,34870.347432
125,34839.893775,34623.479851,35595.132651,34398.463617,35140.305636,34442.087123
126,34882.197019,34910.147615,34794.541572,35060.800528,34476.554974,35168.940406
127,33941.947799,34846.397577,32749.344038,34576.054040,33172.193630,34365.749711
128,34419.453944,33140.919513,34582.763021,35003.335585,34601.859785,34768.391819
129,34742.616522,34165.419240,34925.412500,34658.333453,35251.342204,34712.575213
130,34602.960307,35283.983757,34976.661715,35068.667753,34627.102740,33058.385574
131,34667.062239,35027.315691,35153.901489,34030.795598,34832.070130,34291.228291
132,34807.710527,34907.485753,34457.830457,35058.367068,34805.311202,34809.558157
133,34715.832187,34953.289891,34617.046506,34897.823330,34863.931098,34247.070111
134,34871.526102,35008.200374,34661.563772,35043.815023,34728.808166,34915.243179
135,34881.034732,34811.913172,34941.541343,34840.810419,35192.547172,34618.361557
136,34679.362517,34622.670762,34493.282266,34761.609726,34579.273830,34939.976002
137,34780.392772,34677.646730,34705.595706,34959.096138,34915.188638,34644.436649
138,34615.856464,33160.467209,35049.998274,35033.098447,34817.256830,35018.461564
139,34868.241473,34680.969791,35054.317300,34936.872662,34968.280502,34700.767111
140,34500.134573,35146.412396,34915.047832,35067.642474,34521.545747,32850.024417
141,34762.103188,34889.448472,35010.242115,34550.968868,34653.408674,34706.447813
142,34789.308618,35047.487889,34618.567087,34956.130872,34551.939883,34772.417360
143,34540.667012,32826.369534,34905.121572,35100.654549,35242.763794,34628.425613
144,34790.768904,35265.031713,34237.019560,34964.794338,34952.809598,34534.189313
145,34852.810795,34753.333417,34919.653932,34770.453057,35228.109226,34592.504347
146,35005.204206,35197.669038,34765.759115,35160.603838,34933.636160,34968.352883
147,34833.872310,34715.434768,35170.225726,34888.271394,34790.829213,34604.600449
148,34718.461634,34823.155683,34543.842040,34857.564413,34917.933632,34449.812402
149,34290.285845,34741.181345,32852.576960,34525.448553,34889.903702,34442.318668
150,34852.645891,34757.561091,34623.205181,35153.337909,34909.912136,34819.213138
151,34589.498521,34467.733547,35176.775828,34233.702457,34797.414768,34271.866009
152,34363.880776,35035.914579,34430.719604,32582.417357,34495.695815,35274.656526
153,34956.635494,34896.671202,34962.800357,35408.825955,34903.424702,34611.455257
154,34672.784361,35264.434264,34726.209185,33120.640996,35122.950757,35129.686604
155,34919.154913,34666.317583,35311.535111,34810.569811,35048.617655,34758.734409
156,34854.985993,34917.769179,34684.437747,35162.999368,34485.827532,35023.896143
157,34667.252428,34463.782570,34892.554457,34568.385764,34670.155443,34741.383906
158,35047.603332,35319.938934,34527.956028,34891.185696,35058.272247,35440.663757
159,34791.346094,34673.204815,35093.247391,34824.688709,35178.187857,34187.401698
160,34934.222362,34561.965768,34468.594926,35164.739583,35219.636228,35256.175309
161,34705.864333,34612.082232,34822.369849,34297.687051,35048.618783,34748.563753
162,34586.346288,35275.552115,34556.053615,35263.498436,34792.127213,33044.500062
163,34502.208336,35062.792204,33215.059462,34544.501706,34706.736853,34981.951457
164,34929.333417,35133.039966,35133.820300,35230.919189,34623.889702,34524.997932
165,34797.904334,34864.485140,34935.558730,34579.478468,34955.280979,34654.718357
166,34832.639973,34646.881302,34615.080974,34798.124623,35030.906479,35072.206491
167,34911.390059,34594.563302,35210.569174,35023.913640,34946.658632,34781.245547
168,34886.860980,35270.738323,34423.497298,35230.753609,34914.035874,34595.279800
169,33939.674298,34920.011806,32602.378800,34851.660123,32809.381964,34514.938798
170,35016.671032,34970.248377,35111.358332,35057.048828,35133.074545,34811.625081
171,34277.563906,34755.234451,32958.013483,34369.192351,34424.681579,34880.697666
172,35004.724674,35101.272160,34858.218696,35026.648826,34931.648691,35105.835000
173,34768.917937,34663.963470,34842.669070,34511.833589,35008.648245,34817.475313
174,34909.347112,34890.591177,35023.492949,34871.422506,34866.490043,34894.738885
175,34869.882307,34667.585664,35170.722000,34639.225955,35033.482898,34838.395019
176,34826.924973,34781.630998,34996.918943,34822.166568,34543.952419,34989.955940
177,34885.055564,34987.964428,35196.598866,34876.920034,34881.653996,34482.140496
178,34862.181005,34990.598968,34668.422911,35018.420717,34395.949594,35237.512836
179,34398.059252,34988.766145,32856.777162,34676.280026,34919.892415,34548.580515
180,34513.018001,35003.678513,34555.218538,33054.487245,34880.741564,35070.964147
181,34853.167643,35034.922723,35053.636251,34788.522555,35037.194632,34351.562055
182,34708.598190,34580.278489,34448.853340,35350.394062,34378.067974,34785.397085
183,34846.066978,34702.272870,35182.528281,34909.347872,34830.107604,34606.078264
184,34662.782451,35037.432094,34950.659638,35083.258655,34857.190798,33385.371074
185,34644.503763,34547.490451,34867.653226,34182.817355,34965.354532,34659.203253
186,34687.919169,34691.861353,34601.397300,35037.081774,34844.937462,34264.317957
187,34851.549896,34851.556891,35095.123436,34515.877764,35153.841651,34641.349738
188,35003.049318,35103.890589,34888.491936,35216.922747,34742.250370,35063.690951
189,34876.509968,34608.589870,35284.115417,34672.941189,35021.550266,34795.353098
190,34387.066225,32593.301123,34639.802449,35402.189594,34556.067677,34743.970285
191,34893.223600,34941.878111,34961.253245,34380.785328,35229.797640,34952.403677
192,34571.901136,35323.099428,34850.946068,32646.919049,34822.609228,35215.931911
193,34791.877146,34527.122249,35129.890953,34302.161660,35217.009760,34783.201111
194,34499.887199,32816.166660,34700.994649,35031.630772,34866.071177,35084.572740
195,33958.186637,34563.843789,33292.795098,34495.276121,32865.159845,34573.858336
196,34811.042106,34780.599602,34667.205966,34790.663543,34695.469832,35121.271587
197,34884.886791,34805.312728,35135.633502,35078.348464,34602.002221,34803.137043
198,34989.561625,35174.293262,34532.292936,35218.441736,35157.410406,34865.369787
199,34781.250679,34513.253151,34703.813309,34750.820447,34943.216626,34995.149866
200,34356.858440,34599.510440,34923.779394,34946.531021,34582.991613,32731.479734
201,34277.922250,34635.779613,34776.299570,34770.125760,32470.978579,34736.427732
202,34775.934644,34634.194577,34758.625972,34929.970681,34605.410913,34951.471081
203,34351.860582,34973.861434,32565.249870,34795.825311,34584.577757,34839.788538
204,34445.878478,34972.422851,34389.235398,35210.174228,34885.407491,32772.152423
205,34632.177257,34210.604304,34677.886474,34623.251821,35053.610866,34595.532823
206,34848.462018,35297.265055,34456.754947,34774.590194,34686.123362,35027.576532
207,34865.894403,34865.090947,35086.855672,35022.263815,34827.375304,34527.886277
208,34861.412941,35312.309153,34849.777730,35292.071874,34339.331338,34513.574613
209,34694.829739,34740.419638,35310.991483,34548.242996,34618.794447,34255.700132
210,34708.166791,34757.189981,34192.832543,35083.096072,34351.792506,35155.922853
211,34533.652335,34605.412147,35057.638649,32803.600781,35361.479798,34840.130300
212,34349.428483,35162.978268,34343.772360,35116.341377,34480.335683,32643.714728
213,34725.078173,34419.068151,35017.167472,34682.904234,34815.939921,34690.311091
214,34094.589553,32754.006468,34784.520898,35380.586989,34243.534606,33310.298806
215,34743.791670,34941.106345,35195.522566,34314.294874,34517.704643,34750.329923
216,34800.127765,35211.355126,34445.951264,35021.615555,34653.952515,34667.764368
217,34651.541626,34845.499636,34778.043677,34491.818887,35004.527677,34137.818255
218,34852.020041,34641.263609,34597.225330,35272.497517,34883.997772,34865.115979
219,34518.034850,34458.353496,34714.816936,34372.682379,34867.277866,34177.043577
220,34921.611985,34743.331751,34846.156562,35188.354406,34879.782683,34950.434523
221,34780.115586,34872.936021,35052.518062,34449.289447,34766.604606,34759.229796
222,34399.608301,34983.446664,34387.194481,34856.016234,34937.725443,32833.658687
223,34796.849445,34780.183496,34944.867251,34467.486774,34758.127781,35033.581926
224,34544.987343,33002.022709,34617.167094,34959.833789,34842.470804,35303.442321
225,34709.540492,34100.156745,35083.900532,34755.319853,34784.532121,34823.793213
226,34845.201549,34646.552953,34715.475370,35225.159981,34753.982091,34884.837351
227,34945.077552,34910.840147,34748.992911,35109.236917,35160.793857,34795.523928
228,34808.501056,35022.759613,34281.803155,35130.622196,34659.897883,34947.422434
229,34413.757521,34755.254800,35152.362634,34575.942538,32606.994323,34978.233313
230,34322.793320,35269.515585,34343.689174,34868.868577,34579.554885,32552.338381
231,34664.617804,34688.352147,35147.837687,34227.353947,34293.679687,34965.865553
232,34374.772440,34859.404223,34510.602385,32949.793149,34709.052081,34845.010364
233,34379.667158,34966.808126,32527.546106,34515.091453,34821.357077,35067.533030
234,34405.309986,32815.585600,34758.037951,34807.978598,34663.121930,34981.825851
235,34797.871877,34566.340774,34969.134643,34734.786879,34887.321426,34831.775664
236,34915.354927,35011.499330,34752.921283,35382.223496,34849.331562,34580.798964
237,34690.770175,34475.540774,34895.481172,34684.661279,35089.199443,34308.968211
238,34941.379703,35372.908100,34740.290060,34834.792681,34826.985232,34931.922445
239,35061.696786,34921.535145,35174.350287,34961.052783,35271.819130,34979.726587
240,34995.492780,35225.768470,34771.070366,35238.607964,34697.954772,35044.062328
241,34682.591796,34564.171655,34967.894472,34119.972936,35192.938330,34567.981587
242,34387.768291,35276.841936,34451.353004,32840.816226,34759.974319,34609.855972
243,34261.523276,34544.209702,32864.111955,34602.937185,34721.367132,34574.990406
244,34939.058626,35012.214619,34561.238168,35238.491509,35130.621438,34752.727398
245,34821.100263,34799.957404,34788.422985,34840.423436,35110.518360,34566.179130
246,34943.975318,34793.594374,34618.867462,35268.956847,34945.901221,35092.556689
247,34725.385534,34642.620336,34851.300066,34688.866472,34911.376594,34532.764202
248,34859.099347,35301.998987,34984.437474,34494.444706,34607.444738,34907.170834
249,34874.644193,34852.494070,34891.663898,34620.392855,35056.135483,34952.534660
250,35134.086397,34981.553506,35085.415998,35136.493153,35191.471302,35275.498028
251,34842.067386,34797.358287,34641.815415,34928.080960,35114.493213,34728.589055
252,34495.430125,35282.763623,35031.953117,33092.229823,34614.552019,34455.652043
253,34337.982839,34661.167615,33010.447451,34562.337019,34901.887883,34554.074228
254,34318.145904,34478.077640,34261.656821,32664.106419,34921.049691,35265.838953
255,34937.519872,34277.875581,35371.945874,35101.549234,34998.082964,34938.145709
256,34387.831354,35045.101389,34641.197340,32882.759047,34846.283321,34523.815674
257,34831.744753,34910.280826,34740.835915,34750.210477,34708.619498,35048.777053
258,34661.826129,34443.886745,34804.021740,34794.324913,34427.818900,34839.078349
259,34786.996176,34955.135870,35209.001419,34503.622732,34768.452187,34498.768674
260,34923.783954,34853.718521,35134.268987,34906.226106,34964.903753,34759.802404
261,34726.742078,34635.891270,35149.023751,34279.124826,35188.017266,34381.653277
262,34987.706154,35158.028828,35007.502191,35152.832315,34686.519453,34933.647985
263,34836.952622,34862.161660,34808.013630,34744.347809,35026.150751,34744.089262
264,34416.156500,35196.664691,34669.107632,35020.267440,34754.835598,32439.907143
265,35037.443462,34931.514868,35051.553768,34987.442653,35159.468011,35057.238013
266,34787.605671,34599.102336,34557.301300,35082.805857,34845.654189,34853.164674
267,34923.423644,34546.562432,35459.014781,34811.002511,35088.956743,34711.581753
268,34231.357451,34933.556149,34530.554406,34472.203453,34488.566570,32731.906677
269,34148.556958,34304.256032,34644.479155,34480.782309,32524.147366,34789.119932
270,34769.900499,34789.584885,34895.209470,35161.217351,34223.264500,34780.226289
271,34847.365109,34631.509515,35203.413606,34515.114311,35205.701777,34681.086340
272,35008.641088,35217.353134,35000.812404,35334.490891,34429.778843,35060.770170
273,34804.881612,34840.673219,35049.864351,34414.830794,34800.491545,34918.548155
274,34758.505660,35185.631996,34473.876245,34861.834111,34595.246034,34675.939915
275,34800.001891,34815.281060,34832.609219,34996.380851,34741.411794,34614.326532
276,35002.375639,35136.358874,35073.115791,35195.789617,34618.767055,34987.846862
277,34811.203215,34863.668236,35120.795509,34746.225864,34769.227617,34556.098853
278,34714.551383,35295.950130,34483.155606,32705.262772,34762.304449,36326.083962
279,34524.880606,34880.614455,33105.978702,34805.922798,35240.370455,34591.516621
280,34837.016806,35208.823215,34747.156553,34853.113794,34439.948538,34936.041934
281,34396.120405,34598.137426,32698.625887,34489.410260,35341.978349,34852.450106
282,34689.383702,36457.101228,34492.701387,34867.450853,34850.323979,32779.341064
283,34751.784552,34674.511243,35040.643106,34455.344130,35230.338960,34358.085321
284,34282.771829,34641.083326,34472.552860,34548.967400,34926.988604,32824.266957
285,35119.525696,34736.080885,35755.539766,34873.459372,35159.186326,35073.362132
286,34308.399415,35201.721794,34870.710981,34555.840768,34275.835313,32637.888223
287,34837.298378,34474.747945,35138.085268,34561.673151,35380.581349,34631.404177
288,34899.472493,35056.420051,34653.328174,34927.903440,34833.234989,35026.475815
289,34830.823032,34934.825070,34875.031215,34822.514534,35107.092198,34414.652143
290,34458.323035,35260.779011,34818.814040,32604.549077,34467.227228,35140.245821
291,34976.426728,34894.089294,34747.462062,34574.222862,36217.560045,34448.799377
292,34243.778680,35093.237006,34456.646509,34505.440321,34326.146557,32837.423009
293,34660.905106,34687.977266,34996.948779,34601.583472,34291.201249,34726.814764
294,34519.714532,35088.124391,34739.143757,33134.974826,34674.829985,34961.499702
295,34687.571562,34716.870872,34844.122857,34663.429906,34940.803364,34272.630815
296,34688.708125,34588.514860,34570.119766,34922.922515,34483.397321,34878.586164
297,34828.168298,34445.557896,35096.758762,34944.851126,34890.298919,34763.374787
298,34887.087108,35029.498387,34535.175719,35045.991140,34678.443032,35146.327266
299,34542.616197,35008.369113,35115.133755,34877.001670,33038.546932,34674.029515
300,34377.438154,35037.897789,34475.943800,34674.956770,33055.719762,34642.672653
301,34566.217861,34379.066166,35212.649130,34811.984100,35202.750732,33224.639181
302,34268.788410,32784.145689,34635.613998,34284.231164,34874.420457,34765.530745
303,34377.338870,34449.759198,32994.915540,34611.010619,35085.117674,34745.891323
304,33912.963063,34131.417317,34666.494077,32999.854628,34691.347623,33075.701670
305,34533.789726,34316.602832,34961.292562,34626.008330,34404.246564,34360.798343
306,34757.144552,34837.889770,34681.924828,34705.714840,34293.332900,35266.860426
307,34787.438012,34546.095068,35068.366304,34667.085543,34680.541296,34975.101853
308,34187.562131,33202.688789,34792.114545,35170.951896,34838.505836,32933.549591
309,34807.205451,34712.528570,34871.586370,34629.867277,35027.416062,34794.628979
310,34812.187836,35089.664091,34598.122736,34750.708898,34572.437023,35050.006434
311,34895.791450,34540.090838,35107.610883,35023.730370,35161.754802,34645.770357
312,34398.421243,32599.994387,34672.908857,34807.783632,34729.566396,35181.852945
313,34832.732012,34708.576021,34639.866702,34838.950674,35119.380821,34856.885843
314,34806.132555,34948.639562,34377.797074,35060.030783,34731.837947,34912.357413
315,34117.663841,34639.836006,34194.082100,34420.974889,32810.497457,34522.928755
316,34924.819552,35027.600870,34783.366132,34881.056900,34876.239526,35055.834336
317,34350.607945,34810.474919,34830.937474,34992.764955,32705.004906,34413.857472
318,34852.271857,34408.699383,34857.658660,35317.937223,34594.084638,35082.979385
319,34375.957481,34358.151391,32876.424794,34873.553764,35103.267843,34668.389617
320,34358.663967,34686.486291,34682.393777,32503.582289,34884.791026,35036.066453
321,33854.577751,34939.823166,32398.486511,34318.610113,33030.213460,34585.755506
322,34185.303890,32355.860240,34415.040453,35071.392300,34310.625062,34773.601398
323,34832.326367,34661.985057,35270.917662,34786.996766,34936.323768,34505.408583
324,34962.708449,35261.909487,34826.474936,35152.852272,34782.480143,34789.825411
325,34505.389372,35347.893351,32967.850070,34335.726694,35507.173943,34368.302806
326,34830.367044,34818.940791,34698.797353,35035.015294,34243.873109,35355.208674
327,34229.231857,34690.499094,34718.051549,34824.654553,32430.030855,34482.923238
328,34945.896825,35131.069228,34815.878977,35261.515343,34894.647743,34626.372838
329,34699.903760,34589.023809,34743.226789,34836.434321,34971.980526,34358.853355
330,34352.427012,35007.976328,34640.409879,32995.527332,34638.291257,34479.930264
331,34781.838954,34607.045477,34995.127643,34353.752638,35107.997309,34845.271706
332,34747.310263,34831.331174,34606.492991,34901.314655,34754.340323,34643.072172
333,34014.434577,34561.147113,33052.794289,34620.665268,32909.211026,34928.355191
334,34195.101484,32842.066000,34712.774868,34735.476502,34352.599785,34332.590266
335,34682.658112,34575.418626,34693.986168,34756.827962,34814.115838,34572.941968
336,34914.747272,35296.378002,34622.560947,34559.163564,35198.117145,34897.516702
337,34872.071231,34551.270526,35070.581085,34641.132798,35154.706217,34942.665530
338,34902.368292,34810.521162,34923.758828,35058.312989,34797.263528,34921.984955
339,34955.700090,35033.503838,35084.007983,34845.116706,35054.720423,34761.151504
340,34677.534659,34642.311602,34404.092132,35094.832962,34342.937568,34903.499032
341,34207.831285,34596.160421,34848.201709,34778.340100,32466.119285,34350.334913
342,34841.475708,34986.101287,34500.520570,34714.110068,34826.847891,35179.798728
343,34895.695718,35049.110279,35069.836423,34852.487304,34920.074732,34586.969855
344,34986.989493,34576.299730,34908.981694,35452.528781,35037.176477,34959.960785
345,34835.472135,34705.453157,35166.173726,34581.319777,35319.697496,34404.716519
346,34172.667440,33106.454830,34988.527564,33244.676438,34408.840147,35114.838223
347,34888.415812,34786.893294,34932.123198,34589.289443,35395.661972,34738.111153
348,34998.283352,35166.411398,34794.093368,34994.051191,34982.404402,35054.456402
349,34470.118532,34603.999583,32725.282521,34964.265362,35086.771572,34970.273626
350,34250.583716,34815.740334,34424.916560,35107.401909,34476.598215,32428.261564
351,34416.800822,34740.288094,32783.337238,34859.408730,35180.548779,34520.421272
352,34361.071883,35308.428413,34481.415840,35173.557811,34575.165649,32266.791706
353,34840.102762,34630.715694,35016.673491,34916.317098,34870.579009,34766.228521
354,34738.759130,34823.148357,34561.092206,34460.742238,34723.707677,35125.105174
355,34691.870633,34604.025877,34933.645100,34125.094696,34949.918085,34846.669409
356,34565.104486,35266.707498,35224.438402,35133.639234,34936.741987,32263.995309
357,34769.964695,34807.732845,34854.141340,34874.058932,34699.052843,34614.837519
358,34803.847746,34987.798855,34406.429640,35157.425598,34463.326647,35004.257994
359,34926.746106,34938.561566,35145.603017,34801.460779,35083.690779,34664.414389
360,34909.230912,34928.184581,34824.683451,34870.667445,34605.665302,35316.953781
361,34693.403344,34654.921098,34678.534340,34376.198560,35106.129189,34651.233536
362,34679.745538,35009.381498,34631.248826,34547.190115,34317.981257,34892.925994
363,34759.751723,34654.625757,34773.658847,34815.430889,34846.917257,34708.125866
364,34852.630453,35177.590896,34458.092645,35132.116996,34516.567713,34978.784019
365,34596.008275,34703.949564,32790.146955,34925.906532,35516.591877,35043.446451
366,34743.527122,35035.633319,34757.461945,34371.403413,34743.343300,34809.793636
367,34848.973143,34559.863996,34912.100262,34669.937504,35266.717717,34836.246238
368,34397.682423,34854.019919,34528.572460,34769.798609,34685.506313,33150.514815
369,34792.337257,34787.863943,34932.953657,34593.072287,35059.842472,34587.953930
370,34746.379067,34411.574060,34526.069481,34855.125504,34765.157232,35173.969062
371,34820.509042,34592.832653,35227.012547,34478.921806,34984.535728,34819.242479
372,34014.684251,34970.454381,34892.377045,32638.560991,34601.375853,32970.652985
373,34726.480548,34588.842200,35167.053277,35026.881577,34751.569483,34098.056206
374,34889.295605,35056.638600,34363.581194,35035.633530,34816.602417,35174.022285
375,34868.420003,34590.275196,35224.189621,34713.076802,35083.394255,34731.164143
376,35010.535577,35380.456894,34606.253689,34911.867440,34808.783064,35345.316802
377,34625.016579,34383.835962,35157.892451,34643.084440,34415.273306,34524.996738
378,35046.830954,34869.638315,34891.696068,35278.209864,35069.198911,35125.411613
379,34510.267215,34927.203657,35335.397934,34838.908062,32713.006857,34736.819566
380,34710.051677,35205.857609,33834.061957,34752.866400,34724.128998,35033.343423
381,34650.260099,34278.716521,35203.334732,34263.555298,34705.147430,34800.546517
382,34305.345586,34781.314570,34629.092006,32756.315977,34375.866006,34984.139372
383,34812.366989,34782.879768,35254.791721,34801.348062,35062.588562,34160.226834
384,35042.473547,35275.839662,34855.147843,35348.282217,34590.229596,35142.868419
385,34757.763982,34555.367670,34604.828257,35008.167074,35082.780698,34537.676215
386,34421.702036,32712.124843,34631.414021,35247.306264,34629.519404,34888.145651
387,34656.165018,34727.571281,34676.777232,34237.070357,35022.545862,34616.860360
388,34894.313090,35007.943413,34535.220240,35225.855040,34795.360155,34907.186602
389,34626.046268,34060.763362,35128.932291,34652.878396,35038.636240,34249.021053
390,34876.178445,35176.311962,34544.785434,34882.053957,34876.254521,34901.486355
391,34735.779704,34797.143630,34813.756813,34657.469506,34918.814853,34491.713721
392,34925.198534,35181.807800,34451.345366,35257.629851,35100.211898,34634.997755
393,34934.835508,34760.287034,34857.884057,34884.735991,35266.874179,34904.396283
394,34010.525907,35200.825172,34140.935119,32718.203868,32830.314506,35162.350872
395,34919.592674,34757.634102,35222.774885,34484.295055,35091.897721,35041.361611
396,34418.235652,34577.179089,34695.358194,34927.850804,34799.056815,33091.733360
397,34320.842745,34349.796496,34653.637819,34586.672187,33350.056887,34664.050340
398,34361.910593,35310.608606,34694.546677,32893.809585,34049.421589,34861.166511
399,34874.586982,34415.501730,35296.924140,34859.823583,35079.878026,34720.807434
400,34750.053094,34553.659609,34396.684921,34832.962706,34967.375053,34999.583181
401,34621.356047,34249.106185,34691.520447,34551.088762,34810.742213,34804.322630
402,34392.974466,34915.681715,34847.250083,35113.143864,34410.372964,32678.423704
403,34763.017730,34964.297494,34704.160489,34574.897172,34967.802496,34603.931000
404,34494.371390,32469.078709,34901.265679,35199.493087,34761.878217,35140.141260
405,34749.993322,34456.496115,35231.099140,34464.930668,34967.507713,34629.932974
406,34699.870580,35210.753428,34409.211694,35013.226474,34297.489713,34568.671591
407,34850.199293,34192.640353,35167.094740,34707.689440,35323.992998,34859.578934
408,34453.174134,34573.882604,35301.014794,32748.968443,34420.235740,35221.769091
409,34676.934805,34584.415521,34438.823162,34408.169923,35137.726743,34815.538679
410,34865.286418,34594.544019,34530.168753,35033.539500,34896.226304,35271.953517
411,34658.104837,34588.410168,34983.214653,34320.290830,34801.276504,34597.332032
412,34471.774308,35251.546164,34534.556160,32791.581266,34723.200126,35057.987826
413,34293.777624,34498.954026,32729.429545,34626.323194,34956.994570,34657.186789
414,34852.152164,34918.824315,34747.509364,35093.219072,34472.556074,35028.651998
415,34773.854488,34631.929568,34449.012053,34774.877079,35034.176574,34979.277168
416,34822.439986,34804.350889,34858.669426,34658.395687,34714.095830,35076.688100
417,34690.238401,34520.658311,34787.799164,34981.576991,34629.646781,34531.510760
418,34805.521764,35288.073249,34830.760594,35023.210762,34197.154515,34688.409700
419,34797.377487,34718.146447,34784.677366,34694.356664,34769.430538,35020.276421
420,34781.925181,35119.066774,34021.307353,35117.214021,34646.751368,35005.286391
421,34702.738368,34560.295443,34693.392379,34691.213832,35060.517968,34508.272219
422,34469.758991,33190.483109,34316.907062,35057.624753,34641.656091,35142.123943
423,34815.066034,34843.800434,35063.882743,34870.354047,34604.162281,34693.130666
424,34195.697417,34391.006530,34641.006000,33108.446245,34110.453896,34727.574417
425,34741.101906,34476.822449,34935.308664,34758.254064,34826.753547,34708.370806
426,34342.452979,34750.915698,34527.625202,32917.571857,34572.683351,34943.468791
427,34708.734386,34688.884289,34703.093106,34402.476715,34911.047298,34838.170526
428,35003.494230,34985.563417,35057.134974,35304.025289,34777.340798,34893.406674
429,34795.588725,34653.054113,35176.762828,34824.940643,34990.978415,34332.207626
430,33976.617669,34939.475219,34838.537536,32920.863989,34729.970947,32454.240655
431,34716.937828,34657.109540,34570.795672,34702.111691,35142.979140,34511.693100
432,34805.411433,34964.862755,34447.759536,34690.698617,34872.483717,35051.252543
433,34974.871178,34808.677213,35304.204994,34637.057087,35292.717600,34831.699000
434,34765.400166,34645.664843,34529.067053,35016.855864,34525.524015,35109.889057
435,34423.339722,35076.808762,32978.539685,34328.087577,35020.608698,34712.653891
436,34928.093537,34770.907691,34729.515955,35030.047570,35232.012932,34877.983540
437,34878.237587,34753.769611,34973.040672,34647.027851,35227.589221,34789.760583
438,34326.186554,33043.710974,34352.644760,34495.598285,34608.925328,35130.053426
439,34535.388321,35047.890479,33129.087209,35093.592217,34592.358302,34814.013398
440,34863.301475,34616.310983,34885.747260,34837.911774,34713.383326,35263.154034
441,34733.212883,34998.573553,35172.780777,34344.017189,34955.519430,34195.173470
442,34427.050828,34893.423819,34731.328598,35375.766262,34496.050253,32638.685209
443,34786.576648,34864.454621,34592.069121,34788.531164,35053.983532,34633.844804
444,34884.909598,35243.287483,34971.403979,34727.173466,34653.974574,34828.708491
445,34391.597306,34697.910723,33052.573649,34606.526938,35019.577634,34581.397589
446,34642.386871,34711.168532,34495.201709,34835.320083,34490.467349,34679.776683
447,34799.986925,34748.099745,34777.494845,34660.532126,34723.808364,35089.999549
448,34859.022510,34654.706983,34392.855028,35343.758355,34859.799751,35043.992436
449,34453.622454,34349.316377,33255.679266,35063.312102,34917.491581,34682.312945
450,34766.119665,34861.451149,34648.785887,35050.857685,34886.064772,34383.438836
451,34782.023065,34763.463128,34612.361883,34627.503166,35139.078819,34767.708330
452,34914.919303,34607.710832,34807.118638,35294.114987,34831.586296,35034.065764
453,34643.046081,34546.666964,35035.365911,34619.174279,34850.193334,34163.829917
454,34963.601705,34949.995638,34906.218819,35090.379970,34785.098881,35086.315221
455,34318.705800,34533.254791,35111.284819,34674.020015,32804.186379,34470.782998
456,34515.503303,32851.805802,35000.516570,35459.418017,34469.833532,34795.942598
457,34920.173302,34763.078757,34958.354845,34940.275502,35102.082894,34837.074513
458,35029.741232,35112.033830,34693.249462,35138.208113,34942.717534,35262.497221
459,34690.475796,34553.406847,34978.831349,34203.340134,35204.234951,34512.565702
460,34857.480504,34835.421596,34682.182787,35255.382053,34690.603174,34823.812913
461,34670.390690,34745.871721,34865.505555,34220.549200,34967.680357,34552.346617
462,34773.476377,35046.897228,34390.427640,35186.660200,34602.015687,34641.381132
463,34834.141056,34602.094677,34983.517013,34746.476445,35080.390509,34758.226640
464,34694.603072,34511.498509,34636.822560,35011.077311,34601.658432,34711.958551
465,34266.143693,35196.471683,32786.704330,34212.772204,34584.237794,34550.532455
466,34783.004584,35142.585823,34845.303906,35039.451464,34542.249857,34345.431872
467,34457.740653,34618.975472,32771.309370,34902.121372,34936.815591,35059.481460
468,34542.217553,34775.902402,34796.694000,34966.128249,34879.451353,33292.911762
469,34853.460900,34987.657547,35106.972700,34317.086494,35131.633383,34723.954377
470,34821.596098,35265.521866,34489.251968,34917.533191,34622.827232,34812.846236
471,34352.242338,34419.255062,34808.449940,32874.226191,34902.602036,34756.678462
472,34321.562099,34878.241970,34940.455855,32858.749543,34207.986581,34722.376547
473,34846.919986,34700.367391,35102.161264,34951.573466,34777.284991,34703.212819
474,34829.191910,35201.081464,34629.280443,35000.800966,34651.071440,34663.725238
475,34773.190953,34470.171523,34856.447160,34773.945389,35180.479055,34584.911640
476,34876.437685,34913.149151,35043.642502,34830.279217,34661.484506,34933.633049
477,33889.010802,34137.240577,33109.901417,34718.193568,32728.006047,34751.712404
478,34962.073074,35469.581455,34566.807394,34989.504566,34731.152717,35053.319238
479,34674.240015,34251.584694,35019.756657,34546.066811,34732.027513,34821.764402
480,34754.404389,34570.357653,34758.676179,34713.097219,34511.509423,35218.381472
481,34336.366188,34775.448334,34986.434215,34376.801355,32782.489777,34760.657262
482,34814.753555,34633.528953,34607.490294,34805.084323,34877.879713,35149.784496
483,34843.116708,34598.520636,34928.736570,34855.990896,35278.070028,34554.265411
484,34911.101059,35014.201379,34404.161562,34855.465202,34984.308557,35297.368598
485,34610.809186,34633.123374,34678.551019,34586.939579,34868.371891,34287.060070
486,34864.390459,34801.746200,34838.426100,35098.585206,34647.560751,34935.634040
487,34220.790306,34441.060438,32888.918168,34630.246577,34739.276804,34404.449543
488,34814.553063,34885.669868,34862.825700,35020.439126,34553.094126,34750.736498
489,34399.185904,34571.521330,35084.993994,32539.053932,34731.186147,35069.174117
490,34595.364614,34471.898743,34392.350879,34995.033513,34749.813779,34367.726157
491,34581.990698,35047.101215,34686.315585,34798.953177,33235.977391,35141.606126
492,34439.242444,34980.974455,34777.031153,35060.546664,34799.781230,32577.878719
493,34980.717963,34360.153636,35154.550679,34737.322272,35301.123077,35350.440153
494,34964.972971,34890.325255,34764.215530,34748.020598,35122.411555,35299.891919
495,34865.909156,34909.439960,35049.997077,34470.366396,34967.005215,34932.737134
496,34404.183382,35057.669496,34528.247704,35121.187487,34418.086974,32895.725253
497,35007.207914,34780.080621,35182.195191,35001.446889,35424.201589,34648.115281
498,34449.899818,35194.738911,34551.626789,35301.470645,34937.703096,32263.959649
499,34534.180744,35012.620130,32969.780796,34789.228738,35061.348440,34837.925619
500,34906.367718,35012.304662,35032.514055,34839.533026,34787.237196,34860.249655
501,34762.690943,34289.914209,35287.930006,34506.251583,35046.883017,34682.475900
502,34479.766100,34828.161343,34771.028315,35000.173519,34998.383047,32801.084279
503,34670.067032,34401.108783,35071.635123,34411.600498,34806.782300,34659.208460
504,34783.174891,35077.872587,34667.092398,34724.784453,34527.184057,34918.940962
505,34891.203397,34492.441794,35083.978689,34870.021377,35002.842477,35006.732651
506,34834.245244,35200.625266,35325.702794,34822.449236,34569.743221,34252.705706
507,34370.595459,34669.290630,32551.784891,35058.420072,35170.184245,34403.297460
508,34847.495845,35163.983964,34711.572049,34859.030211,34291.205068,35211.687936
509,34280.517431,34457.110394,34745.351057,34371.641426,32833.486096,34994.998185
510,34788.840068,35146.886436,34640.353985,35110.139855,34149.147923,34897.672145
511,34761.113791,34433.259111,35022.686200,34492.908868,35028.582455,34828.132323
512,34672.967035,34628.724043,34444.986879,34870.803009,34554.819230,34865.502017
513,34174.027344,34530.697026,34475.669483,34844.470194,32420.803455,34598.496564
514,34731.368056,35196.960034,34470.117011,34523.822466,34730.644838,34735.295932
515,34109.983506,34615.200664,32885.074257,34554.427479,32748.754287,35746.460847
516,34292.072481,34801.402806,34485.326398,34989.741247,34720.184689,32463.707266
517,34948.098229,34982.196194,35073.616738,34728.840711,35112.084721,34843.752783
518,34956.482611,35086.811443,34875.959302,35187.245289,34599.426149,35032.970872
519,34335.361321,34931.321557,34966.375240,34592.975819,32777.313796,34408.820194
520,35074.315774,35036.568230,34836.873536,35229.339577,35099.986913,35168.810615
521,34335.422907,34726.567596,35168.837768,34333.658200,32875.619843,34572.431130
522,34983.044134,34985.112466,35796.082928,34972.374160,34704.373455,34457.277662
523,34719.368739,34922.895334,34953.056326,34418.098236,34833.404928,34469.388872
524,34664.663177,35025.872577,34545.237598,34677.923134,34608.724917,34465.557662
525,35149.421026,34866.462438,35146.220419,35937.507983,34971.996332,34824.917960
526,35061.324511,34744.102487,34988.735015,35259.785160,35109.890236,35204.109660
527,34617.492608,34350.915053,34672.160468,34310.244066,35067.756777,34686.386679
528,34792.897313,35085.861609,34700.186949,34630.035706,34512.945981,35035.456321
529,34823.299530,34747.484268,35338.708694,34499.768379,34875.063898,34655.472415
530,34822.607419,34778.689977,34811.170466,35121.576306,34819.100409,34582.499938
531,34382.610792,34958.330500,34784.062251,34328.587062,33025.211360,34816.862787
532,34691.421206,34887.388236,34469.306323,34463.869349,34901.445843,34735.096283
533,33849.528149,34607.172472,33041.488013,34353.132526,32812.399321,34433.448413
534,34416.114922,34975.112902,34473.222055,33139.709447,34654.747234,34837.782972
535,34804.540133,34675.056953,35298.996206,34576.670555,34626.992289,34844.984666
536,34220.451602,35244.829353,33077.911626,35080.052943,34981.442757,32718.021334
537,34835.657185,34552.279457,35037.682006,34878.956519,35190.962781,34518.405162
538,33669.811951,33158.022400,34899.115913,32569.029132,34749.544247,32973.348066
539,34379.108847,34449.905111,32924.333491,34947.898447,34906.024866,34667.382321
540,34829.922239,34991.289853,34957.876157,34619.491600,34707.735932,34873.217655
541,34313.980392,34936.370681,32943.908470,34221.028879,34988.335698,34480.258234
542,34700.769382,34709.420404,34410.636213,34753.519211,34676.798315,34953.472768
543,34736.039213,34590.634798,34591.296772,34549.776704,35029.379226,34919.108566
544,34815.131971,35194.877926,34807.533823,34974.712634,34448.532536,34650.002940
545,34809.989397,34558.596813,34982.478015,34547.185506,35233.710500,34727.976151
546,35084.507120,35156.649840,35228.110509,35017.011460,34829.754643,35191.009151
547,34831.276157,34490.532677,35005.645053,34782.922711,35004.742468,34872.537877
548,34801.445043,34905.913289,34396.658019,35057.659283,34616.932845,35030.061779
549,34696.221552,34536.116549,35109.665862,34338.635796,34632.455268,34864.234285
550,34849.136520,35068.360347,34696.134230,34923.919017,34552.636136,35004.632874
551,34600.670870,34313.051636,34574.818934,34869.759219,34848.731255,34396.993309
552,34804.390329,35151.807717,34315.716668,34504.360491,34914.685060,35135.381713
553,34646.655273,34206.074817,34699.450181,34762.711277,35310.877913,34254.162179
554,34907.015055,34949.336206,34471.618736,35057.870006,34829.496085,35226.754245
555,34879.664300,34880.590996,35133.833289,34588.934685,35042.771851,34752.190681
556,34924.927938,35097.987151,34705.742270,34941.159196,34903.260800,34976.490277
557,34366.902691,34418.976577,33098.590934,34952.145745,35085.496832,34279.303370
558,34724.713867,35385.439640,34131.371077,34762.386115,34805.946836,34538.425668
559,34561.645514,34349.730511,34803.247219,34503.302885,34420.843091,34731.103864
560,34053.351057,35151.745123,34846.319081,33110.987485,34163.897168,32993.806432
561,34842.116623,33934.393817,35190.824715,35105.601102,35142.489653,34837.273832
562,34424.032442,32702.510194,34524.055672,35209.955260,34606.946353,35076.694732
563,34887.021924,34790.513151,35196.743949,34411.385481,35025.753487,35010.713555
564,34312.692338,34915.107572,34439.276398,35019.124815,34816.302028,32373.650879
565,34864.467732,34763.601319,35328.396755,34557.484038,34864.466285,34808.390266
566,34782.293412,34436.525821,34687.619717,35147.165038,34528.514923,35111.641564
567,34771.609529,34706.508128,35030.937777,34791.448391,34802.408083,34526.745268
568,34714.096356,34830.980760,34569.836517,34746.604879,34814.951411,34608.108215
569,34840.566556,34590.914000,35003.828672,34711.556432,34794.769204,35101.764474
570,34738.269557,34782.461126,34357.105906,34932.361909,34789.631604,34829.787243
571,34080.590095,34648.891477,35048.196251,34907.088555,32520.566753,33278.207443
572,34370.695763,33248.257583,34311.990279,34805.678751,34572.091472,34915.460734
573,34452.762919,34693.214319,32524.643800,34919.648615,34884.062009,35242.245855
574,34878.288392,34859.739638,34465.600343,35113.751268,34891.561287,35060.789426
575,34629.609075,34915.470909,34884.502115,34461.295374,34733.958945,34152.818032
576,34761.403376,34980.539221,34575.208430,34717.698198,34695.808672,34837.762362
577,34370.913091,34341.169766,32869.552843,34660.401685,35365.864315,34617.576847
578,34428.345644,35222.400481,34515.616885,35092.441836,34515.289000,32795.980019
579,34404.981910,34534.320347,35024.557072,34711.037172,33104.449411,34650.545551
580,34993.980182,35266.407747,35045.127770,34516.907821,34930.873806,35210.583768
581,34012.028390,34501.276898,33111.451511,34847.454996,32741.290564,34858.667981
582,34864.258405,35315.081402,34683.515906,35066.786951,34312.508440,34943.399330
583,34735.954098,34770.974185,34985.041068,34523.189981,34531.001198,34869.564060
584,34870.743305,35035.332726,34526.126026,35263.313123,34623.670783,34905.273868
585,34407.380233,34771.722204,34997.918789,34836.490170,33210.431594,34220.338409
586,35005.646027,35331.480038,34674.577772,34923.538868,34770.656847,35327.976613
587,34901.874778,34394.475985,35052.963698,35360.931466,34848.828232,34852.174511
588,34004.510358,33182.413704,34326.117377,35268.574243,34422.653385,32822.793083
589,34415.668958,34661.407096,32939.164696,34991.058926,34887.758728,34598.955345
590,34156.425698,32593.572849,34198.446621,34795.966840,34370.540483,34823.601700
591,34702.034615,34484.153583,35281.477864,34451.758098,34507.784889,34784.998643
592,34787.931770,34605.199519,34857.836453,34677.614457,34618.899811,35180.108611
593,34930.401935,34809.533106,34955.278464,35146.534228,34989.471730,34751.192151
594,34672.281787,34411.705670,34820.787791,34813.044489,34671.853602,34644.017383
595,35023.992462,34865.871104,35228.622885,35148.353279,35075.945002,34801.170043
596,34777.842270,34732.406585,34567.967674,35015.819274,34839.090291,34733.927530
597,34735.028826,34597.137621,35346.776011,34419.640162,34707.565353,34604.024983
598,34429.299474,33083.622460,34854.904543,35057.670617,34324.450047,34825.849706
599,34809.548891,34894.372587,35061.694700,34444.388932,35225.621955,34421.666285
600,34999.312543,35081.936394,35068.965409,34876.563221,35075.363489,34893.734206
601,34906.801925,34843.518596,34583.305423,34948.134249,35139.029864,35020.021496
602,34456.961772,34928.792955,35123.665900,33048.367996,34485.589577,34698.392432
603,34921.004564,34779.663253,35079.608034,34827.741685,35297.815155,34620.194696
604,34775.485360,35228.125294,34416.309123,34881.412702,34404.840713,34946.738968
605,34810.767995,34478.007126,35199.147262,34592.862902,35040.804194,34743.018491
606,34707.914779,34686.318606,34671.288091,34398.885947,34937.575213,34845.506040
607,34756.700617,35234.848772,35015.733738,34401.177781,35082.656047,34049.086747
608,34445.236514,35028.067217,34351.247462,34976.843298,34663.976402,33206.048194
609,34186.387683,34751.623791,34669.210130,34240.553134,32728.454362,34542.096998
610,35044.857283,35183.856319,34787.115985,35322.243789,34648.722036,35282.348287
611,34746.498420,34148.453240,35220.590428,34566.076091,35011.046447,34786.325894
612,34358.800171,34870.185723,34484.747730,35094.909772,34717.958683,32626.198947
613,34826.387448,34446.418336,34971.359432,34962.915157,35026.233615,34725.010702
614,34822.235829,35033.813368,34520.905674,34968.666068,34883.108766,34704.685272
615,34752.529800,34491.175632,35110.149830,34820.203098,35006.313709,34334.806732
616,34536.241879,33134.187721,34800.388823,34897.052826,34662.447215,35187.132813
617,34847.189736,34542.344526,34907.815881,34964.633870,34932.318115,34888.836289
618,33989.105567,32684.030521,34494.665891,32911.120038,34717.850715,35137.860670
619,34470.636620,34519.814913,33008.866411,34992.516445,35463.659889,34368.325443
620,34319.042796,34534.162857,34595.308753,35166.379547,34503.909711,32795.453113
621,34311.864012,34783.365311,32518.749764,34474.451119,34830.504515,34952.249355
622,34820.824907,34359.054883,34870.938809,35019.887834,34781.665589,35072.577421
623,34124.582737,34785.894179,32938.841585,34346.273006,34035.252962,34516.651955
624,34459.224242,32706.768106,34692.184415,35170.078936,34663.073757,35064.015998
625,34625.490867,34573.198357,34977.758191,34340.641087,34675.571666,34560.285034
626,34291.423996,33058.396681,34562.206981,34733.028751,34135.756802,34967.730768
627,34769.000070,34449.995334,34948.103762,35000.562651,34701.007466,34745.331140
628,34275.781676,34945.790764,34349.152630,32423.646926,34703.656877,34956.661183
629,34782.946011,34866.079536,34940.996109,34629.013413,34851.744119,34626.896879
630,34565.980775,32938.153311,34851.726306,34965.695962,34934.257202,35140.071094
631,34957.981486,34833.934226,35197.381536,35039.324047,35247.635504,34471.632119
632,34867.167547,34954.644862,34765.119874,34997.564957,34817.414828,34801.093217
633,34663.837824,34666.118247,34295.153104,34515.127594,35028.558247,34814.231932
634,34662.367012,34848.435523,34583.898060,35032.879511,34599.932785,34246.689185
635,34754.839255,34849.164740,34611.780545,35036.443183,34690.154738,34586.653070
636,34221.404110,34583.699479,34608.543338,35251.858772,34319.941579,32342.977385
637,34254.120692,34705.354589,35221.039011,34227.491217,32572.596868,34544.121777
638,34306.105682,34892.258200,34556.305647,32821.812009,34519.116051,34741.036504
639,34412.068458,34685.328298,34719.259560,34382.254096,33438.957706,34834.542634
640,34929.619704,35272.699011,34760.868245,35292.013213,34641.453072,34681.064979
641,34141.293326,34630.761357,34294.989196,34361.929230,32767.429591,34651.357257
642,34933.233465,35230.985785,34627.447547,34725.831577,35017.907549,35063.994868
643,34772.984326,34610.012366,34696.588889,34888.933081,35072.548370,34596.838926
644,34393.434225,32401.724866,34706.505357,35421.152998,34629.942443,34807.845464
645,34810.051847,34888.246391,34804.068874,34734.018353,34972.680411,34651.245206
646,34917.815073,35210.878902,34579.543864,34977.227509,34597.895960,35223.529134
647,34372.750410,34725.207132,34972.955591,34711.254968,32811.849606,34642.484755
648,33997.040243,32990.040304,34582.011351,32774.634172,34651.691428,34986.823962
649,33897.810165,34637.940326,33095.135151,34447.616498,32703.872036,34604.486817
650,34216.238043,32677.543749,34172.542681,34843.750051,34302.419266,35084.934472
651,33936.692019,34582.513779,33036.277443,34568.025536,32733.571477,34763.071864
652,34952.144902,35337.363217,34461.013987,35065.478038,34529.714957,35367.154315
653,34740.910486,34388.834464,34986.614672,34212.540647,35287.293487,34829.269164
654,34283.138669,32507.022487,34553.288657,35048.601685,34415.284019,34891.496498
655,34411.469540,34845.573453,32718.370132,35036.560962,34904.853762,34551.989394
656,34510.431795,32661.705360,34624.150998,35087.577598,34944.463111,35234.261911
657,34391.439783,34868.572621,34680.842289,35081.552255,32876.115345,34450.116406
658,34936.068014,35252.040881,34384.381651,35207.085391,34638.361626,35198.470523
659,34347.783047,34741.843057,35020.054445,34412.978223,32769.638989,34794.400523
660,34526.079060,35088.992628,35002.567691,34803.392553,34731.428247,33004.014183
661,34828.766362,34743.769457,35115.007477,34494.310987,35214.017983,34576.725906
662,34933.413307,35291.993215,34481.699679,35049.954583,34797.330928,35046.088130
663,34871.831227,34466.056819,34757.599885,35103.795734,35388.892368,34642.811332
664,34421.806790,34916.342583,34753.177209,32678.257460,34786.903485,34974.353217
665,34312.473592,34485.994881,35003.179632,34360.760713,32919.615781,34792.816953
666,34373.356319,34819.052494,34570.701349,32982.099323,34554.692328,34940.236104
667,34872.708048,34757.755255,35273.965611,34943.375953,34822.981936,34565.461485
668,34999.571094,35019.314583,34837.231770,35352.567383,35193.719615,34595.022123
669,34791.756565,34507.067549,35186.333179,34619.632209,34780.928406,34864.821483
670,34325.614065,34357.402989,34735.426140,32932.671945,34593.532149,35009.037102
671,34744.997682,34410.133566,35328.637002,34598.159449,34659.461243,34728.597151
672,34769.855677,34784.029185,34368.644943,35115.896728,34589.979745,34990.727787
673,34881.238243,34466.967734,35369.325366,34956.466745,34950.507294,34662.924077
674,34833.898127,34981.243991,34749.960953,34904.827555,34507.759551,35025.698587
675,34864.926028,34612.061736,35068.081515,34449.820917,35127.902111,35066.763864
676,34372.021338,32913.658087,34819.784168,35041.575515,34297.650932,34787.437991
677,34849.230642,34491.007251,35432.219987,34558.088336,35197.286770,34567.550866
678,34243.710951,34877.085298,34526.317921,32533.926811,34366.238964,34914.985762
679,34749.715006,34843.439634,35053.111774,34572.125536,34676.348702,34603.549387
680,34954.780670,35140.859415,34852.352291,35072.854217,34924.713330,34783.124098
681,34700.007355,34656.368926,34902.387596,34612.797357,35071.384860,34257.098036
682,34810.028922,34797.149679,34466.131423,35120.260951,34740.292760,34926.309798
683,34298.178107,34682.966672,32861.251972,34343.307523,34923.948017,34679.416351
684,34367.301878,35046.194528,34574.588768,32856.548553,34724.586470,34634.591072
685,34845.660544,34939.719043,34994.083213,34903.702040,34679.555109,34711.243319
686,34793.117967,34622.140491,34559.385970,35017.204443,34714.706047,35052.152887
687,35078.070231,34946.516417,35197.066057,34923.195836,35333.091515,34990.481330
688,34618.916489,34789.298321,34806.874117,35143.834309,35030.248181,33324.327521
689,34393.843764,34677.960066,34698.098611,34751.372900,33068.248511,34773.538734
690,34605.822706,34460.050111,34704.971438,34366.727285,34703.702915,34793.661783
691,34364.013396,34594.573013,32924.971938,34948.882751,34993.262713,34358.376568
692,34693.257449,34934.496111,34434.780896,34665.167232,34650.967096,34780.875913
693,34444.637255,34746.108911,32690.024713,34895.677536,35262.964189,34628.410928
694,34620.317199,34547.094211,34404.841828,34821.255617,34597.852415,34730.541928
695,34826.096315,34836.670974,34908.387781,34597.529406,35263.447491,34524.445926
696,34906.622397,35202.471419,34683.351047,34935.590634,35056.706149,34654.992736
697,34849.068518,34692.875366,34666.524170,34898.839689,35012.875326,34974.228040
698,35028.678773,35152.258800,35027.720649,35304.517568,34542.047243,35116.849609
699,34842.761915,34917.905060,34908.826191,35059.148840,34833.907813,34494.021674
700,34748.553873,34677.059081,34734.851787,34881.729343,34496.376472,34952.752685
701,34658.836287,34364.554321,34695.089996,34356.332443,35485.678143,34392.526534
702,34707.612623,34495.694728,34656.261915,34885.522272,34904.691426,34595.892777
703,33817.250860,34774.588262,32669.495521,34353.395232,32928.686534,34360.088751
704,34851.852766,34983.438913,34731.524653,35220.527332,34560.978143,34762.794789
705,34967.650833,34946.211496,35351.527557,34667.115251,35204.131572,34669.268289
706,34022.465619,34976.676447,34833.473460,32768.976357,34645.942640,32887.259194
707,34450.442083,34960.303781,35221.716896,34744.859232,32915.290987,34410.039521
708,34313.968496,33158.015736,32911.627568,35297.237943,34841.771894,35361.189340
709,34694.469973,34232.500815,35115.015974,34481.239343,35087.058666,34556.535070
710,34950.740808,34694.736402,34694.623989,35340.309126,34993.016481,35031.018043
711,34273.618930,34031.059526,35289.503683,34860.795613,32589.802789,34596.933043
712,34846.813717,35160.328964,34887.334319,34926.948162,34270.118070,34989.339072
713,34733.513575,34503.158591,34931.257166,34951.303915,34502.094770,34779.753436
714,34715.613541,34689.785243,34993.552609,34452.953179,34922.856804,34518.919874
715,34574.138019,34658.933913,35195.712830,34958.490583,33165.489779,34892.062994
716,34830.879760,35157.596404,34898.783513,34900.306028,34404.194070,34793.518789
717,34605.288727,34297.347249,35185.866636,34368.188113,34547.938623,34627.103015
718,34891.693780,34513.236532,34804.493074,35052.449211,34920.386621,35167.903464
719,34842.307238,34934.949340,34632.050136,34888.842143,35164.099277,34591.595294
720,34873.830421,34857.247047,34641.727502,35090.011651,34799.438366,34980.727543
721,34701.848327,34583.428545,34892.548496,35001.563515,34592.431564,34439.269515
722,34866.464447,34833.881051,34843.964266,34932.111630,34934.216991,34788.148298
723,34771.500758,34689.751191,34916.253549,34654.064145,35288.402904,34309.032002
724,34215.743704,34791.418372,34485.256817,34420.265538,34690.434891,32691.342904
725,34991.620283,35088.762298,35179.668877,34905.785087,35134.900287,34648.984866
726,34826.509946,34850.997000,34440.824519,35155.735526,34691.090568,34993.902119
727,34797.964226,34781.225032,34520.980432,34481.698917,35313.204209,34892.712540
728,34805.246154,34964.864534,34566.490402,34972.628974,34427.732079,35094.514781
729,34789.802050,34476.358549,35216.193883,34916.061521,34690.616836,34649.779464
730,34962.115584,35042.816896,34801.194617,35153.046504,34753.831715,35059.688189
731,34409.608432,34690.505577,32790.687923,34861.225815,34928.341417,34777.281432
732,34560.370204,34892.981632,34109.410026,34574.430509,34477.141938,34747.886915
733,34713.193524,34609.038479,34723.160300,34323.326079,35275.903113,34634.539651
734,34951.208870,35208.225753,34587.858438,35269.149072,34588.650298,35102.160791
735,34891.579896,35071.574021,35261.425491,34643.687472,34864.398081,34616.814415
736,34489.237491,35377.084432,34411.599383,34794.301419,35013.401483,32849.800740
737,34714.904484,34479.243555,34717.576870,34624.935996,35031.586568,34721.179434
738,34895.407177,35290.072298,34537.222021,34725.606047,34993.232757,34930.902766
739,34646.166989,34734.599289,34886.202617,34362.400396,34727.319853,34520.312791
740,34406.530108,34399.081047,34619.281864,33106.977977,34628.871336,35278.438317
741,34790.509873,34597.002166,34907.134532,34791.184013,35065.611543,34591.617113
742,34843.598351,34865.731966,34573.983457,34929.838362,34563.341798,35285.096174
743,34847.119668,34758.477632,35068.193391,34467.870896,35177.640451,34763.415970
744,34856.798966,35131.798426,34964.372396,34856.614791,34503.028619,34828.180598
745,34961.586155,34782.872613,35095.346298,34756.278494,35336.066819,34837.366553
746,34441.921857,34976.890628,34606.495555,32786.103989,34577.352898,35262.766217
747,34933.717841,35369.755598,35177.060123,34559.870809,35029.138160,34532.764517
748,34679.428537,34658.014047,34854.636532,35047.262621,34498.663232,34338.566255
749,34852.759576,34826.375966,34931.413181,34641.086811,35514.878721,34350.043202
750,34404.539164,35042.482466,34647.538543,32718.564236,34650.340898,34963.769679
751,34660.769861,34721.902734,34837.421228,34399.091849,34741.559532,34603.873964
752,34475.026724,33064.485768,34693.498428,34958.532687,34549.780666,35108.836074
753,34861.989495,34663.147166,35278.785364,34608.167200,35241.754015,34518.093732
754,34871.333893,34835.283538,34553.298740,35327.110317,34402.625355,35238.351517
755,34685.196409,34699.669170,34803.939498,34491.727419,34641.751415,34788.894545
756,34919.112750,35072.771574,34497.766474,34871.712500,34769.152117,35384.161089
757,34685.391118,34851.939338,34673.711689,34403.560647,35015.788526,34481.955394
758,34420.159065,32967.929032,34772.344249,34972.308587,34731.352298,34656.861162
759,34709.124953,34599.899457,34863.478243,34494.632079,34986.024385,34601.590602
760,34812.351315,34975.103696,34427.246851,35005.642894,34605.542815,35048.220323
761,34865.227632,35060.358079,34966.005957,34689.225736,34715.027206,34895.521183
762,34607.692243,34590.916787,34482.262666,34434.594066,34747.252253,34783.435447
763,34816.951806,34555.405770,34939.298526,34770.558055,34771.700264,35047.796419
764,34660.321096,33139.980926,35291.732357,35041.628887,34962.473038,34865.790274
765,34318.901250,34633.656966,35028.332630,34651.265191,33201.057164,34080.194300
766,34928.684587,34964.587347,34671.536660,35150.673921,34555.444947,35301.180060
767,34892.490708,35000.938072,35024.378096,34682.083489,35004.493996,34750.559891
768,34950.695067,34720.745723,34738.980396,35237.745470,34938.387096,35117.616651
769,34876.475849,34575.868747,34899.551379,34991.848832,35035.965102,34879.145189
770,34724.586052,35118.547309,34647.829523,34426.995600,34586.985574,34842.572255
771,34843.827727,34470.116638,34619.849955,34929.163077,35166.015198,35033.993768
772,34309.527824,35304.914970,34095.888123,32706.262364,34755.065062,34685.508602
773,34712.427034,34433.035911,34758.596168,34806.807572,34870.505757,34693.189762
774,34363.565147,35307.207309,34270.147228,32947.474319,34830.345509,34462.651372
775,34687.895304,34753.231451,34702.169245,34480.500917,35118.302434,34385.272474
776,34989.851349,35011.255179,35097.751953,35050.843479,34908.818238,34880.587898
777,34828.696514,34722.919970,34791.036494,34931.708062,34802.072689,34895.745355
778,34714.242976,34409.669817,34523.294385,34988.116200,34641.266866,35008.867613
779,34806.934762,34380.418760,35049.919166,35004.555551,34919.010979,34680.769355
780,34416.876896,32859.747696,34862.609779,34686.582057,34862.468702,34812.976249
781,34851.367186,34733.764319,34951.602230,34886.525019,34890.522643,34794.421721
782,34318.139076,33077.025189,34333.218504,34767.788568,34718.184491,34694.478630
783,34423.671099,34773.959409,35254.634434,34242.392570,33240.130811,34607.238274
784,34780.053790,34706.614538,34843.194677,34740.413528,34560.858691,35049.187519
785,34611.431654,34667.514004,34731.105955,34389.437755,34366.687870,34902.412689
786,34855.495592,35153.295611,34780.617809,34300.925643,34771.901130,35270.737770
787,34507.945276,34431.742515,34707.659789,34686.018757,34470.639389,34243.665934
788,34439.929509,35035.462843,34427.002900,35329.300051,34410.810983,32997.070772
789,34905.122611,34777.548915,34819.155798,34742.733715,35195.092106,34991.082521
790,34913.559857,34816.264521,34701.672415,35011.312647,34950.520215,35088.029487
791,34808.453740,34496.017130,34808.167374,34947.841060,35327.066989,34463.176149
792,34544.543117,35020.539598,34944.172474,34793.338251,34717.121604,33247.543662
793,34694.727070,34785.352974,34669.374113,34838.856802,34594.406538,34585.644923
794,34425.625120,35185.145396,34546.072911,35085.871300,34659.041217,32651.994777
795,34409.425037,34747.690811,33095.908085,34809.183443,34984.304828,34410.038021
796,34426.017792,35140.260215,34897.175043,34773.313636,34323.193379,32996.146689
797,34594.669737,34488.979383,34970.903028,34110.212451,34869.334443,34533.919381
798,34448.845837,32617.570787,34802.904613,35300.210736,34595.059172,34928.483881
799,34553.541814,34939.920187,35351.366868,34741.301281,33121.611809,34613.508928
800,35066.185850,34911.260574,34599.065096,35065.976336,34725.785734,36028.841513
801,34870.718530,34580.867204,35141.365213,34889.699987,34856.752887,34884.907362
802,34314.906206,35004.282960,34580.599755,34931.353815,34161.381030,32896.913470
803,34691.285508,34783.180298,34390.336394,34482.468462,35138.785589,34661.656798
804,35032.724086,36111.858313,34601.854968,35141.439011,34502.228485,34806.239657
805,34731.576936,34590.088421,34682.747104,34869.667862,35034.495134,34480.886160
806,34770.740982,34903.205847,34397.826496,34717.334111,35033.596123,34801.742336
807,34754.569190,34828.797866,34451.409830,34561.633738,34912.149462,35018.855055
808,34745.468370,34901.208028,34658.458377,34636.666800,34473.440909,35057.567738
809,34848.594339,34624.717309,35191.815864,34805.701291,35061.781809,34558.955423
810,35028.295111,35193.652711,34910.361685,35308.847338,34708.217834,35020.395989
811,34766.014126,34559.350457,34797.184747,34669.707832,35065.349260,34738.478336
812,34813.186709,35049.301396,34420.097789,35039.887353,34667.133685,34889.513326
813,34906.974446,34389.935264,34664.594136,34672.794302,36208.927717,34598.620811
814,34717.931195,34785.437111,34396.926896,34949.441966,34635.472779,34822.377223
815,34955.488756,34942.894651,35346.943404,34818.166285,35002.506038,34666.933402
816,34706.220973,34797.093711,34769.102198,34988.168894,34900.220496,34076.519568
817,34409.648062,34670.132040,35177.822547,34808.559240,32883.380998,34508.345487
818,34196.963832,32855.523791,34257.494336,34839.208032,34591.520745,34441.072260
819,34596.759042,34765.931013,34749.767530,34660.404085,34583.244672,34224.447911
820,34956.135272,36050.931660,34442.488568,34584.828496,34565.977317,35136.450323
821,34715.411933,34393.294338,34768.126468,34674.886689,34515.568509,35225.183662
822,34806.424240,34831.460345,34508.913840,34889.577994,34529.109115,35273.059909
823,34621.235881,34603.042864,34106.652417,34734.062621,34515.309145,35147.112360
824,34686.552011,34750.112666,34714.530866,34664.355289,34318.058481,34985.702757
825,34730.264787,34718.104064,35026.987962,34704.074834,34810.427468,34391.729609
826,34871.240172,34833.453011,34813.005123,35264.489309,34450.626119,34994.627300
827,34902.145992,35038.020281,34889.844434,34725.146506,34871.131836,34986.586906
828,34405.612099,32935.619300,34643.442866,34684.854617,34795.066032,34969.077683
829,34949.892443,34736.188483,34762.955264,35131.042885,35188.831147,34930.444440
830,34985.552566,35265.095066,34954.160211,34954.000087,34855.782306,34898.725164
831,34312.324918,34300.574355,32550.928074,34729.111221,35312.709515,34668.301428
832,34783.360084,34663.169977,34932.114406,34704.367881,34751.748330,34865.399828
833,34920.722039,35009.363745,34874.951885,34696.014128,35334.728889,34688.551549
834,34738.924257,34651.859540,34397.440694,35113.574719,34726.233106,34805.513228
835,34540.843641,34435.166323,34299.736953,34222.624930,34981.912947,34764.777055
836,34935.664720,36100.328672,34364.077791,34651.734109,34593.054994,34969.128034
837,34739.673729,34452.524981,34862.696321,34731.143804,35215.800077,34436.203462
838,34918.726517,34861.966272,34872.407991,34926.006009,35028.916111,34904.336204
839,34350.056810,34974.563462,33065.339404,34398.035836,34901.070417,34411.274932
840,34806.480135,34796.878028,34627.563702,34854.173023,34544.180934,35209.604991
841,34795.018143,34359.199177,34716.745181,34613.328238,35142.811830,35143.006291
842,34863.120040,34850.360643,34714.577209,35032.654391,34661.868338,35056.139623
843,34993.313428,34944.506489,34795.430023,35042.549083,35090.325885,35093.755664
844,34915.641635,35080.551726,35030.495994,34583.353521,35111.245717,34772.561219
845,34917.236866,35057.569953,34849.070345,34763.830340,35054.832147,34860.881549
846,34561.508640,35049.715932,34981.307857,34991.280296,34746.947698,33038.291419
847,34658.799386,34637.268019,34950.972834,34720.418283,34952.589096,34032.748702
848,33988.348556,32521.993385,34978.395636,32879.257355,34638.852877,34923.243530
849,34797.891853,34881.177985,34769.907717,34507.603706,34897.785623,34932.984234
850,34829.235964,34959.758185,34651.798268,34569.098566,34849.414472,35116.110332
851,34819.537471,34103.400389,35207.136085,35036.987483,35128.477953,34621.685449
852,34690.200130,35311.053081,34706.617226,34402.955591,34495.530543,34534.844213
853,34873.404799,34689.439568,35085.371726,34454.232191,35233.961636,34904.018877
854,34853.888001,34665.673672,34540.978266,35001.873828,34965.003657,35095.910585
855,34945.381104,34890.090085,35302.227949,34983.628666,34768.610232,34782.348591
856,34355.619815,35041.377247,34300.159764,35038.071683,34547.723147,32850.767238
857,34897.959472,34592.564734,34868.295740,34971.833691,35042.374762,35014.728434
858,34514.216986,32750.161877,34902.257311,35000.967706,34803.096949,35114.601089
859,34329.874828,34782.500747,35077.241045,34645.511098,32872.176877,34271.944377
860,34838.205553,35076.912434,34643.620015,34733.856368,34902.963123,34833.675826
861,34894.982238,34594.610947,34845.366709,35132.784557,35224.181251,34677.967730
862,35038.402136,35279.474596,34762.597764,35190.114043,34759.890694,35199.933587
863,34731.889747,34419.258940,35118.104381,34238.789877,35119.190136,34764.105404
864,34542.093726,35093.063655,35201.952868,32915.804917,34824.271194,34675.376000
865,34245.235280,34278.218360,34724.949638,34544.790389,33065.278913,34612.939100
866,34728.283985,34916.471666,34838.687868,35103.068204,34129.993085,34653.199102
867,34740.685906,34530.734102,34856.681140,34908.210719,34564.210157,34843.593413
868,34876.241643,35090.438594,34673.344196,34667.131083,34917.692704,35032.601638
869,34715.642220,35164.602432,34683.204857,34668.095383,34567.950221,34494.358209
870,34959.903792,34881.600457,34508.567453,34884.959553,34786.386838,35738.004660
871,34733.877874,34574.238455,35040.933962,34856.004621,34941.072238,34257.140096
872,34916.001486,35177.173098,35096.728274,34778.923811,34755.906757,34771.275494
873,34670.051321,34257.076209,34707.106172,34684.774313,35015.470781,34685.829130
874,34943.308989,35075.410245,34705.442311,35145.859938,35025.138866,34764.693587
875,34788.866348,34626.445221,34763.526226,34663.060302,35212.222151,34679.077840
876,34920.825173,35027.520400,34564.386572,35265.321413,34689.010504,35057.886977
877,34848.414796,34556.747349,34896.124272,34754.950470,35199.435053,34834.816838
878,34791.999897,34710.532323,34758.527772,34955.388028,34442.390064,35093.161300
879,34871.632254,34639.667432,34923.960174,35012.764449,35306.018021,34475.751198
880,33772.122349,34781.162077,34538.464128,32368.741868,34908.344447,32263.899226
881,34809.053077,34533.645498,35060.348215,34532.035149,35225.163066,34694.073460
882,34670.297802,34904.235949,34181.155696,35216.544170,34645.511549,34404.041647
883,34734.204346,34922.042930,34926.318838,34559.264691,35070.737774,34192.657500
884,34282.719493,32465.489015,34326.026872,35277.078500,34600.333087,34744.669991
885,34846.742966,34719.885685,34797.324391,35011.764830,34743.914364,34960.825562
886,34998.805842,35232.915911,34495.890034,35184.868515,34798.010285,35282.344466
887,34835.934369,34656.629834,34879.967411,34865.408394,34920.656226,34857.009983
888,34355.277296,32843.769532,34736.099983,34947.151060,34371.065140,34878.300768
889,34696.101966,34291.578817,34790.221660,34731.330562,35083.495530,34583.883264
890,34621.614471,35188.703111,34570.182040,36169.815502,34226.191385,32953.180319
891,34822.850703,34521.789698,35126.422411,34451.145517,35411.780957,34603.114934
892,34893.372408,35180.669023,34833.156906,34914.386960,34735.756974,34802.892181
893,34406.656803,34374.240979,34883.459479,34138.906587,34141.755138,34494.921836
894,34904.274034,34708.525043,35077.265928,35077.381940,34532.411557,35125.785704
895,34751.597022,34329.003785,34750.819566,34463.544143,35277.046951,34937.570666
896,34843.512081,35016.353436,35083.312623,34958.041145,34412.794204,34747.059000
897,34912.414380,34854.593987,34765.371096,34718.776651,35267.580038,34955.750128
898,34659.715927,35008.980949,34454.055915,34343.647215,34821.210902,34670.684657
899,34810.839610,34964.385400,34842.552862,34473.685570,34842.600796,34930.973426
900,34252.651056,33012.207621,34569.142336,34869.672162,34261.876004,34550.357157
901,34654.700242,34597.611809,34165.239574,35080.427728,34988.029572,34442.192528
902,34899.905892,35186.191213,34945.840534,34771.318370,34899.199606,34696.979738
903,34854.404426,34754.879287,35010.242717,34691.272351,35140.289570,34675.338209
904,34546.141356,33034.734419,34808.843264,34917.220913,34847.673391,35122.234796
905,34657.902056,34566.065353,34815.126598,34683.627994,35140.601998,34084.088338
906,34263.752869,35040.311166,34717.856836,34734.620996,34145.619772,32680.355579
907,34840.393008,34854.038062,35280.231994,34247.802913,35018.922645,34800.969428
908,34872.229477,34563.102238,34697.652991,34972.036415,34877.573991,35250.781751
909,34916.327274,34979.419957,34981.373570,34935.929889,35046.025821,34638.887134
910,34933.567219,34738.671468,34931.328560,35236.198074,34682.496311,35079.141683
911,34691.716751,34313.147949,35082.357183,34448.625451,34889.224787,34725.228387
912,34757.306024,34323.609721,34716.139598,34886.014006,34970.142104,34890.624694
913,34787.081021,34396.159745,35005.282057,34969.930915,34693.436719,34870.595672
914,34659.689150,34675.288415,34738.289526,34917.615011,34620.864119,34346.388683
915,34653.437494,34277.096036,34533.916047,34395.765434,35217.325787,34843.084166
916,34956.350049,35421.917951,34677.700806,35033.142302,34787.150657,34861.838532
917,34756.979354,34447.220479,34958.790691,34588.637732,35184.587602,34605.660266
918,34807.708453,34968.834172,34257.862747,34966.539843,34882.798138,34962.507366
919,34717.801375,34518.796843,35042.583843,34674.189057,34555.656449,34797.780685
920,34954.434950,34957.769043,34943.017832,35094.429781,34837.285611,34939.672483
921,34726.899246,34639.689487,34322.997987,35036.911079,35132.221585,34502.676094
922,34387.278771,32937.971166,34237.003236,35162.265413,34909.106519,34690.047523
923,34870.653752,34684.500432,34825.884677,34767.299502,35080.263777,34995.320372
924,34896.478481,35264.118657,34671.206304,34986.811360,34907.132164,34653.123923
925,34713.446224,34844.638064,34977.013855,34508.062664,34563.806800,34673.709740
926,35024.649928,35143.323009,34970.404800,35130.733057,34698.555747,35180.233028
927,34368.619483,34559.114555,35246.850149,34902.458764,32778.469404,34356.204545
928,34762.808593,34739.662685,34942.613551,35265.768845,34132.100860,34733.897028
929,34792.724383,34564.306202,35020.976072,34789.889519,35078.921409,34509.528715
930,34925.566946,35109.899796,34645.067945,34803.680477,34913.085785,35156.100728
931,34628.067846,34288.991947,34946.268002,34832.966243,34706.534649,34365.578391
932,34905.900663,34827.431928,34666.413989,35196.285674,34840.649126,34998.722598
933,34744.117016,34649.994851,34960.812498,34449.733419,35204.667549,34455.376764
934,34859.444060,35091.768966,34876.475651,34921.732434,34511.616047,34895.627202
935,34600.271825,34331.779200,34087.387460,34624.801866,34985.509766,34971.880836
936,34706.471505,35191.208411,34595.084136,34690.518202,34525.905691,34529.641087
937,35003.668887,34792.407674,35279.085028,35007.877009,35257.760857,34681.213870
938,34815.348561,35052.801168,34435.695491,35360.516302,34222.012919,35005.716926
939,34731.318710,34480.515606,34706.794743,34970.597598,34905.959153,34592.726453
940,34014.634834,34680.125904,34581.653215,33101.898487,34999.690996,32709.805568
941,34771.282069,34330.334998,35286.614860,34846.638911,35041.413602,34351.407974
942,34865.815223,34864.449183,34711.053581,35205.447240,34161.159151,35386.966964
943,34742.288489,34615.703028,35070.534485,34720.167409,34887.688274,34417.349253
944,34890.103504,35043.258247,34309.148100,34944.123685,34838.406402,35315.581087
945,34762.229888,34992.290521,35008.329257,34254.978685,34649.599606,34905.951372
946,34340.663903,34536.732921,34853.259600,34986.249598,34470.239951,32856.837447
947,34361.732718,34656.206347,32920.298060,34578.208126,35072.097926,34581.853134
948,35020.572307,36444.330630,34587.924087,34819.169398,34414.404777,34837.032645
949,34787.029880,34695.393587,34758.163700,34810.237781,35057.292670,34614.061666
950,34889.257876,35134.509202,34811.874536,35230.134734,34354.287426,34915.483485
951,34336.393769,34892.417836,35033.317974,34609.107230,32511.554083,34635.571726
952,34339.335721,35160.714296,34581.592655,34721.113438,34543.484515,32689.773702
953,34974.460157,34874.035047,34957.011336,34994.312400,35316.602440,34730.339562
954,34943.859718,34944.383217,34842.163017,34956.870547,34744.849955,35231.031855
955,34708.516967,34230.463966,35315.493474,34763.109128,34721.303968,34512.214302
956,34818.495826,34836.051030,34793.714617,34876.797853,34674.843321,34911.072309
957,34476.775649,35084.929038,32774.509887,34518.295706,35190.133196,34816.010419
958,34769.662913,34641.967151,34984.599385,35003.861666,34471.679217,34746.207149
959,34928.004245,34931.670551,35271.750181,34899.648628,35113.488215,34423.463651
960,34493.943803,34731.730138,34204.481640,32892.009796,34908.982206,35732.515236
961,34609.140598,35211.013062,35351.558519,34725.958474,33041.145870,34716.027066
962,34817.982981,34955.658653,34660.205732,34704.596530,34845.100951,34924.353043
963,34863.696362,34614.784851,34876.115023,34709.879128,35334.886991,34782.815817
964,34726.770470,35255.416032,34117.680594,34971.018694,34737.390383,34552.346649
965,34736.044196,34258.538715,34711.077504,34758.118057,35088.813515,34863.673191
966,34910.187370,35218.844570,34403.238887,34903.177064,34776.151202,35249.525128
967,35035.848322,35250.544919,35094.701685,34903.416717,34885.169302,35045.408989
968,34840.880853,35214.043696,34029.051151,34973.576013,34648.064698,35339.668709
969,34745.910662,34583.796545,35217.529760,34306.755874,34637.212291,34984.258840
970,34753.970736,34593.020645,34818.839636,34803.329645,34606.895121,34947.768636
971,34707.019786,34785.077238,34304.886032,34668.944317,34999.303357,34776.887989
972,34462.639828,35154.300521,34818.099406,34899.028391,34393.570460,33048.200364
973,34644.193874,34646.968249,35063.552504,34201.095477,34775.033443,34534.319698
974,34343.004709,32323.648800,34452.118915,34739.981577,34987.517696,35211.756557
975,34424.836723,34848.730451,32825.553917,34801.370247,34913.398606,34735.130394
976,34625.491749,35283.249117,34546.744662,33042.642964,34984.986868,35269.835134
977,34633.358433,34938.674094,34639.198977,34148.662064,34930.743317,34509.513717
978,34789.725357,34807.118006,34417.996285,34653.263009,34869.811745,35200.437743
979,34310.763320,34610.954951,32508.807560,34832.889932,35133.650394,34467.513766
980,34411.834107,34880.614330,34904.193943,33008.139383,34331.582300,34934.640581
981,34901.847880,34563.588540,35372.716409,34935.467345,35068.705711,34568.761398
982,34871.668383,35068.199462,35027.089477,34654.420534,34774.345819,34834.286626
983,34695.796392,34903.568770,35187.849036,34200.303679,34628.198879,34559.061596
984,34899.366947,35037.980891,34553.670304,34950.880498,34721.987557,35232.315485
985,34822.094496,34155.667949,35039.774596,35002.518038,35370.382494,34542.129406
986,34332.976779,33051.146749,34472.827421,34559.103598,34580.365140,35001.440989
987,34801.218523,34644.498868,35014.506072,34794.811330,34871.325611,34680.950736
988,33994.285746,32716.023385,34943.557919,33000.288560,34781.368636,34530.190232
989,34900.523723,34807.628372,34969.923702,34662.354732,35275.725306,34786.986506
990,34450.182257,34729.243906,34934.914294,34737.185455,34858.417355,32991.150277
991,34736.534532,34547.299009,35241.875321,34317.206677,34891.119702,34685.171953
992,34929.103059,35035.598385,35058.938345,34939.391217,34588.766619,35022.820732
993,34326.775446,34555.620451,35129.226466,34671.020343,32763.747557,34514.262415
994,34739.665448,34680.563266,34854.822213,34818.977147,34464.020821,34879.943794
995,34460.371172,34707.169028,35165.851370,34873.263653,32694.135279,34861.436534
996,34735.343397,35137.542221,34704.625634,34942.840185,34667.351274,34224.357674
997,34828.240876,34789.363428,35201.873226,34674.393953,34866.940798,34608.632977
998,34697.463418,35150.491874,34616.371960,35130.571377,33972.170817,34617.711064
999,34739.048293,34699.357777,34771.538077,34282.068757,35361.982613,34580.294245
1000,34800.548238,35011.768904,34162.142706,35334.732000,34470.226155,35023.871428
