1,93.400200,95.593,93.030,93.219,93.788,91.371
2,71.064600,73.070,69.887,71.551,69.376,71.439
3,56.571200,54.920,53.694,59.388,59.133,55.721
4,44.712000,44.782,44.339,44.248,44.357,45.834
5,43.090200,41.035,44.704,45.907,41.226,42.579
6,42.654400,41.203,41.225,43.364,43.597,43.883
7,42.829000,41.455,43.525,43.458,42.936,42.771
8,45.309400,43.683,45.999,45.458,45.115,46.292
9,47.459400,48.526,44.501,48.071,48.319,47.880
10,49.077800,48.750,50.694,49.698,47.528,48.719
11,52.799000,51.388,50.262,56.382,52.378,53.585
12,56.368200,52.283,61.044,56.308,56.993,55.213
13,58.825600,58.490,60.227,61.060,59.326,55.025
14,62.615600,62.960,64.049,63.332,58.269,64.468
15,64.277400,63.832,65.283,59.602,65.791,66.879
16,67.733600,65.904,66.961,69.224,63.660,72.919
17,71.157400,71.978,71.946,71.182,70.418,70.263
18,70.184800,67.028,72.931,72.698,73.210,65.057
19,73.982600,77.700,70.523,77.406,75.489,68.795
20,71.624200,70.521,71.267,70.661,75.320,70.352
21,76.235200,73.924,70.072,78.563,79.394,79.223
22,79.468200,80.935,74.932,80.550,81.842,79.082
