1,93.157600,96.213,92.445,92.587,92.584,91.959
2,70.835000,70.068,72.761,68.226,71.320,71.800
3,64.157600,64.602,63.309,65.159,63.002,64.716
4,59.044000,58.722,59.656,59.189,60.074,57.579
5,54.004000,54.047,52.553,53.843,54.437,55.140
6,52.679600,51.477,53.659,53.820,52.322,52.120
7,50.217200,51.167,50.965,50.641,49.597,48.716
8,47.502600,47.587,46.859,47.264,47.349,48.454
9,46.286000,47.238,45.792,45.994,47.115,45.291
10,44.627200,44.992,43.871,45.920,43.850,44.503
11,45.760400,46.689,43.747,46.385,46.403,45.578
12,47.050000,46.524,48.616,46.705,45.854,47.551
13,47.996200,47.957,47.529,49.291,46.968,48.236
14,49.148800,50.422,49.436,48.166,48.778,48.942
15,51.026800,51.210,50.328,50.346,51.473,51.777
16,52.234800,53.392,52.912,51.707,51.166,51.997
17,52.585600,52.013,53.203,52.435,52.908,52.369
18,53.187400,53.782,53.775,52.829,51.848,53.703
19,54.464200,54.182,54.976,53.665,54.163,55.335
20,55.166600,54.720,55.224,55.519,54.893,55.477
21,55.463000,55.291,55.893,54.702,55.560,55.869
22,55.960800,56.726,56.102,55.794,55.048,56.134
