1,1.01899116821841817585,.00000825805377318558
4,3.42626596194854008844,.00008378317378401072
8,5.56376399574233013109,.00165016503084383948
12,7.21081612814975640137,.01126581897550754044
16,8.39382461751114604366,.01176802510573091534
20,8.89803408919503242998,.01199026278932781578
24,9.18985623358703876797,.04681538065049410351
28,9.07527251948660845103,.16965327795640801116
32,8.61679662231249174010,.04582823871776304674
36,8.10549216153262320395,.03968243215501205571
40,7.16925258254000405104,.03375605224174079556
44,6.57413883685263509820,.02731235948675551588
48,5.78807912983347973162,.31152160990998418273
52,4.98210752376815790743,.07920837533802917261
56,4.28986827160151813170,.04705406096339143691
60,3.62791903147019029713,.08533914635015746233
62,3.27073630516744289199,.09348843220043771943
