1,23937696.600000,23934578,23936673,23938432,23940021,23938779,
2,12301503.000000,12301468,12300846,12301631,12301762,12301808,
3,8586857.400000,8585890,8586232,8593144,8584821,8584200,
4,6862519.400000,6862541,6862504,6862277,6863009,6862266,
5,5599626.600000,5487494,5491821,5593387,5714970,5710461,
6,4782945.000000,4784502,4786647,4778151,4784677,4780748,
7,4332702.800000,4331871,4330796,4332355,4333317,4335175,
8,4050628.800000,4109861,4090832,4051763,4002555,3998133,
9,3427373.200000,3425937,3427547,3427260,3427485,3428637,
10,3030634.600000,3036191,3022863,3031647,3021899,3040573,
11,2745277.600000,2744619,2747721,2742671,2746783,2744594,
12,2560360.800000,2564196,2562379,2563319,2562658,2549252,
13,2384810.200000,2367057,2368307,2390599,2394339,2403749,
14,2241414.800000,2236456,2238874,2245924,2242987,2242833,
15,2126326.600000,2137168,2124232,2122273,2122955,2125005,
16,2064263.000000,2077922,2073666,2068761,2049290,2051676,
17,1901711.200000,1898733,1902573,1902033,1902536,1902681,
18,1772857.200000,1778126,1771332,1774237,1763497,1777094,
19,1674156.400000,1674891,1676377,1675956,1673135,1670423,
20,1594948.600000,1602186,1599573,1590353,1590829,1591802,
21,1536057.800000,1532951,1534933,1539285,1537919,1535201,
22,1470447.600000,1476049,1468357,1467441,1467288,1473103,
23,1429047.800000,1426203,1429623,1430822,1425719,1432872,
24,1399443.200000,1407606,1403992,1400948,1392743,1391927,
25,1322791.200000,1321738,1323419,1319579,1323081,1326139,
26,1272609.400000,1271529,1274127,1270731,1273678,1272982,
27,1225032.800000,1226063,1226672,1224879,1222855,1224695,
28,1183435.400000,1184037,1185842,1181597,1185168,1180533,
29,1153604.200000,1153297,1153598,1158247,1139967,1162912,
30,1114239.200000,1106790,1117208,1122920,1106059,1118219,
31,1089409.800000,1089143,1089528,1090726,1084261,1093391,
32,1075026.000000,1079729,1076904,1074155,1072544,1071798,
33,1035165.400000,1035557,1034891,1034812,1034618,1035949,
34,997888.600000,997010,997874,997324,995740,1001495,
35,969205.200000,969591,969806,968164,967897,970568,
36,947200.400000,945566,946509,946646,947344,949937,
37,925654.200000,921150,925310,923961,926737,931113,
38,920409.600000,917498,906361,923750,926989,927450,
39,892010.600000,893225,891871,890389,895255,889313,
40,888275.800000,891301,887349,890139,886318,886272,
41,871458.200000,875956,881327,874619,849349,876040,
42,847411.200000,831983,859563,856530,855713,833267,
43,810552.600000,810636,809954,808829,810184,813160,
44,793852.200000,795277,794159,790966,795546,793313,
45,779641.800000,779897,781109,777922,777196,782085,
46,765454.600000,764089,765185,767157,765424,765418,
47,760186.000000,761314,759808,762231,758397,759180,
48,755293.000000,755913,755024,754309,756259,754960,
49,740581.800000,740906,741318,739925,741006,739754,
50,727055.600000,725287,728327,728091,724452,729121,
51,711460.200000,714090,712106,713012,711552,706541,
52,698530.000000,698863,700669,698594,694906,699618,
53,691672.200000,691616,691676,692740,692727,689602,
54,680219.000000,678046,681508,677814,685765,677962,
55,673758.800000,675955,673586,673571,672321,673361,
56,669630.600000,670893,668392,668885,668325,671658,
57,652666.000000,652485,650470,649744,652644,657987,
58,648186.200000,647018,649326,646503,647946,650138,
59,641498.200000,638685,643725,639912,641483,643686,
60,630311.800000,626947,633610,626970,631008,633024,
61,624039.200000,621168,626650,624860,622387,625131,
62,621882.400000,622877,624875,619788,624776,617096,
63,618315.000000,616267,616938,618069,618630,621671,
64,617651.000000,614118,625066,616419,612715,619937,
65,603590.400000,601097,606019,606738,604169,599929,
66,592400.200000,593001,595543,587456,592715,593286,
67,586836.000000,588475,587068,588336,584125,586176,
68,584041.000000,583879,588289,585936,582638,579463,
69,577235.800000,577714,575149,576801,578945,577570,
70,568480.200000,573539,565309,564829,572916,565808,
71,566529.800000,567969,565473,564870,568615,565722,
72,564416.000000,561073,567071,559314,566213,568409,
73,551925.800000,551973,547608,556030,552578,551440,
74,546099.800000,547011,546535,546741,539546,550666,
75,541442.800000,541879,540714,540135,540826,543660,
76,555317.000000,533831,534842,538049,637124,532739,
77,530713.800000,531581,530085,532304,527698,531901,
78,524990.000000,523455,523322,524497,525052,528624,
79,519977.800000,518651,518121,521719,518774,522624,
80,517001.200000,515871,517961,515730,518115,517329,
81,511853.000000,513546,513212,509049,510997,512461,
82,505734.600000,503922,507734,505929,504496,506592,
83,501894.600000,504081,501272,500758,501419,501943,
84,495311.800000,489586,500212,494973,497398,494390,
85,493517.000000,493528,493301,494119,492590,494047,
86,486712.000000,487736,480508,489093,487751,488472,
87,484016.600000,483541,482617,482692,485183,486050,
88,482402.600000,484483,483857,482809,477799,483065,
89,477821.200000,477420,482841,476095,474999,477751,
90,469948.400000,472609,461684,473101,471827,470521,
91,467470.000000,466333,466706,466388,470332,467591,
92,465396.400000,464772,464326,466197,464666,467021,
93,459179.000000,457258,460463,459317,459941,458916,
94,459135.000000,465271,460008,455379,456546,458471,
95,454316.800000,453645,452358,453450,454655,457476,
96,453357.600000,454385,453210,450459,455852,452882,
97,464636.400000,448251,446297,531239,447635,449760,
98,445533.200000,445344,445041,449011,443142,445128,
99,442042.600000,441967,441059,443888,441181,442118,
100,439102.400000,437514,439597,440074,438571,439756,
101,435569.800000,435811,440834,428960,436833,435411,
102,452799.000000,478070,431999,486206,433558,434162,
103,431030.200000,429082,431247,434732,430292,429798,
104,432767.800000,433419,430853,431097,432163,436307,
105,426421.000000,427088,428740,423677,424800,427800,
106,435113.600000,423538,491623,422752,422891,414764,
107,422219.000000,422242,420250,425629,421706,421268,
108,427118.800000,418086,417698,415445,469153,415212,
109,415376.800000,415985,415112,415170,418641,411976,
110,431697.200000,514700,413316,413955,408834,407681,
111,410757.000000,407552,412095,410890,412713,410535,
112,412033.800000,415083,411673,412567,409752,411094,
113,407064.400000,407644,408492,406128,405895,407163,
114,436297.200000,407186,406538,560961,404000,402801,
115,401120.000000,401535,398174,403099,400718,402074,
116,400021.400000,401065,398628,399769,400010,400635,
117,397545.600000,396489,397573,397761,398726,397179,
118,395980.800000,395582,396786,396627,393505,397404,
119,394464.600000,393330,394771,395376,393020,395826,
120,416855.400000,394686,392369,513698,392826,390698,
121,432920.400000,389927,584633,394041,392039,403962,
122,387574.200000,389961,384387,388561,385600,389362,
123,384349.600000,385262,382145,385941,382946,385454,
124,384545.600000,384974,382927,387879,384958,381990,
125,411521.400000,383489,386289,521009,381511,385309,
126,415852.200000,384339,385515,538305,384823,386279,
127,388772.200000,390695,389186,391330,386423,386227,
128,404628.200000,388074,469793,388702,387820,388752,
