1,23996071.400000,23996747,23996901,23998299,23995115,23993295,
2,12334259.600000,12331726,12333316,12333695,12333721,12338840,
3,8609421.600000,8611503,8608840,8609194,8609133,8608438,
4,6882819.400000,6882159,6883105,6882833,6882537,6883463,
5,5528550.000000,5510456,5506367,5506049,5512167,5607711,
6,4794642.600000,4793869,4793873,4794617,4795941,4794913,
7,4344124.800000,4343429,4344018,4343276,4345454,4344447,
8,4080705.000000,4045803,4079661,4118768,4100327,4058966,
9,3434843.000000,3434119,3435755,3434765,3435422,3434154,
10,3028299.200000,3028813,3028531,3028540,3027332,3028280,
11,2758462.800000,2779312,2756226,2752203,2752644,2751929,
12,2567621.800000,2566624,2566811,2566062,2570814,2567798,
13,2374691.800000,2370937,2370971,2370522,2376520,2384509,
14,2244508.400000,2241322,2248552,2250252,2242207,2240209,
15,2133762.000000,2130468,2125692,2143300,2127517,2141833,
16,2073582.000000,2064556,2073108,2080431,2076089,2073726,
17,1905147.600000,1905876,1907397,1906213,1899340,1906912,
18,1776495.400000,1775419,1778440,1779742,1777511,1771365,
19,1679570.000000,1684280,1677826,1679365,1675364,1681015,
20,1595993.000000,1593763,1599767,1595977,1596409,1594049,
21,1534788.400000,1538143,1534669,1536930,1527065,1537135,
22,1475874.000000,1468896,1478460,1473315,1470956,1487743,
23,1429863.600000,1419854,1431652,1431096,1432763,1433953,
24,1406610.400000,1402397,1405423,1410135,1409300,1405797,
25,1325293.600000,1327881,1324906,1325679,1322018,1325984,
26,1277596.600000,1277813,1279187,1275704,1275786,1279493,
27,1225268.200000,1226045,1226963,1220051,1228054,1225228,
28,1188143.200000,1188294,1188597,1187559,1189314,1186952,
29,1156919.000000,1156106,1155328,1155853,1157024,1160284,
30,1119337.200000,1123107,1122194,1122179,1121445,1107761,
31,1092415.200000,1091030,1091222,1093473,1093920,1092431,
32,1079773.200000,1078050,1079641,1081721,1080554,1078900,
33,1037892.200000,1036094,1040046,1035649,1041191,1036481,
34,1002470.800000,1003072,1002766,1001572,1004163,1000781,
35,971626.000000,977953,970353,969719,969724,970381,
36,949552.600000,955073,947218,948222,950302,946948,
37,926600.600000,922846,928141,926806,927525,927685,
38,921666.200000,929321,930291,909815,911161,927743,
39,897639.200000,896022,897301,900009,901768,893096,
40,891939.800000,889508,891921,893087,893777,891406,
41,878925.400000,880185,878813,880888,875927,878814,
42,852043.000000,856788,828069,856696,858584,860078,
43,813225.800000,813413,812070,814739,813181,812726,
44,793118.200000,795139,792015,791348,790192,796897,
45,779148.000000,780957,777160,778918,778838,779867,
46,764390.000000,764236,767382,764532,762930,762870,
47,758683.000000,758823,757464,759284,758868,758976,
48,756805.000000,757217,756722,757099,755169,757818,
49,740259.600000,744229,736757,741736,740667,737909,
50,726632.600000,727781,726828,725624,728530,724400,
51,714645.200000,717117,710464,713623,716615,715407,
52,701207.600000,702955,695644,702536,704220,700683,
53,691135.800000,689137,693409,689587,693616,689930,
54,683975.400000,679100,685920,684739,684569,685549,
55,676393.800000,677407,674068,675762,679963,674769,
56,671621.000000,667619,670388,671697,675036,673365,
57,653867.600000,651249,651722,660094,653016,653257,
58,649932.600000,655651,647593,649909,647655,648855,
59,641715.800000,643021,644759,642776,645160,632863,
60,632770.600000,631074,634682,632848,634789,630460,
61,625777.800000,624052,622617,626646,624973,630601,
62,624407.400000,623481,627797,623570,625084,622105,
63,618487.400000,620579,620093,617508,615506,618751,
64,620338.400000,624286,620937,617565,620557,618347,
65,606871.400000,609026,604586,609413,605856,605476,
66,595772.800000,599039,593587,597654,592605,595979,
67,587141.400000,585489,589120,586034,585566,589498,
68,586929.000000,587229,582433,593112,585231,586640,
69,583710.400000,576111,612002,578485,577483,574471,
70,570430.600000,566170,568251,574169,573075,570488,
71,568672.200000,568158,568314,569990,566550,570349,
72,575785.200000,616516,568319,562741,563041,568309,
73,552686.200000,553422,550713,552681,551787,554828,
74,545950.000000,546199,549411,544573,544735,544832,
75,542906.600000,544007,544095,541597,541835,542999,
76,533605.000000,533263,531456,533668,532788,536850,
77,529070.200000,528604,531449,528185,526881,530232,
78,525223.200000,521774,523188,528204,523173,529777,
79,520625.200000,520357,518595,522795,520542,520837,
80,520137.800000,519796,522377,519689,519965,518862,
81,511605.200000,512616,510565,512053,512226,510566,
82,507443.800000,506833,505689,510169,505403,509125,
83,500884.800000,500546,500991,503107,499694,500086,
84,497448.200000,494943,496683,497641,498816,499158,
85,491986.200000,492546,493239,491061,492260,490825,
86,487612.000000,486684,489909,488032,486812,486623,
87,484741.600000,482987,490508,482047,485564,482602,
88,484977.800000,483307,484951,487933,486010,482688,
89,479372.400000,480519,476267,482218,479119,478739,
90,474190.000000,473939,471684,473744,475688,475895,
91,468723.600000,471152,466024,469957,469568,466917,
92,464294.000000,464289,467039,462433,463865,463844,
93,461363.400000,457605,463615,463505,461410,460682,
94,458704.400000,463047,458853,455814,457773,458035,
95,454691.400000,455316,453866,453983,453096,457196,
96,456533.000000,452577,467717,454811,453784,453776,
97,447711.800000,447148,440668,447055,452429,451259,
98,467162.000000,557809,446733,445119,445244,440905,
99,441169.800000,434153,444067,441116,440823,445690,
100,438530.800000,435558,440094,439688,438711,438603,
101,472052.200000,435540,439914,436203,612678,435926,
102,443329.200000,472069,436587,436256,439765,431969,
103,433196.000000,432277,433257,431301,434075,435070,
104,429959.800000,433524,428112,429729,428624,429810,
105,424237.600000,418279,424958,426240,426249,425462,
106,420289.000000,413776,423868,418431,424355,421015,
107,420836.000000,426931,420863,420371,417814,418201,
108,417888.600000,422890,417184,417946,418177,413246,
109,422125.400000,415778,418645,407609,453550,415045,
110,448594.400000,585087,412829,414078,416502,414476,
111,412089.800000,412646,412411,408872,413076,413444,
112,411028.000000,411421,411585,410893,410548,410693,
113,408198.600000,408560,406511,411257,408944,405721,
114,405591.800000,409899,403115,406423,406561,401961,
115,401937.200000,403068,399720,402456,402329,402113,
116,403808.400000,402173,404937,403887,403483,404562,
117,399428.800000,397796,398035,401887,399980,399446,
118,396177.600000,397207,397060,394910,395536,396175,
119,393815.800000,394869,394108,394403,392835,392864,
120,394927.000000,396116,396690,395675,392840,393314,
121,412660.000000,389251,392749,500017,391202,390081,
122,422528.800000,384752,562585,390208,387218,387881,
123,386445.800000,385735,384708,389141,385221,387424,
124,386172.200000,385165,387383,387909,383074,387330,
125,408871.400000,384243,382449,508810,384821,384034,
126,386851.600000,385396,387182,387267,387129,387284,
127,412242.200000,385935,385518,508999,385784,394975,
128,411564.400000,392020,495433,390090,390501,389778,
